<svg xmlns="http://www.w3.org/2000/svg" width="509" height="340" viewBox="0 0 509 340">
    <g fill="none" fill-rule="evenodd">
        <path stroke="#D8E5EF" stroke-linecap="square" d="M225.5 296v-5M238.25 296v-5M249.25 296v-5M260.5 296v-5M273.25 296v-5M284.25 296v-5M295.5 296v-5M308.25 296v-5M319.5 296v-5M331.25 296v-5M343.25 296v-5M354.5 296v-5M367.25 296v-5M378.25 296v-5M389.5 296v-5M402.25 296v-5M413.5 296v-5M425.25 296v-5M437.25 296v-5M448.5 296v-5M461.25 296v-5M472.25 296v-5M483.5 296v-5M496.25 296v-5M508.25 296v-5"/>
        <path fill="#3F424F" d="M48.755 310.048h-.82V300.9l-2.53.294v-.574l3.35-.601zM37.077 293.138c0 1.285-.278 2.274-.834 2.966-.556.693-1.328 1.04-2.317 1.04-.985 0-1.758-.348-2.321-1.043-.563-.695-.844-1.683-.844-2.963v-2.222c0-1.28.278-2.27.834-2.967.556-.697 1.328-1.046 2.317-1.046.989 0 1.764.349 2.324 1.046.56.697.841 1.686.841 2.967v2.222zm-.82-2.359c0-1.02-.2-1.806-.602-2.355-.4-.549-.982-.823-1.743-.823-.761 0-1.34.274-1.736.823-.397.55-.595 1.334-.595 2.355v2.482c0 1.011.202 1.796.605 2.355.403.558.983.837 1.74.837.756 0 1.334-.278 1.733-.834.398-.556.598-1.342.598-2.358v-2.482zM29.195 243h-6.18v-.629l3.261-3.698c.602-.68 1.027-1.248 1.275-1.706.249-.458.373-.896.373-1.316 0-.62-.174-1.116-.523-1.49-.349-.374-.842-.56-1.48-.56-.757 0-1.33.21-1.723.628-.392.42-.588.98-.588 1.682h-.758l-.014-.04c-.023-.83.246-1.532.807-2.106.56-.575 1.319-.862 2.276-.862.857 0 1.543.246 2.058.739.514.492.772 1.153.772 1.982 0 .547-.172 1.102-.516 1.665-.344.562-.824 1.19-1.44 1.883l-2.74 3.103.013.035h5.127v.69zm7.882-3.862c0 1.285-.278 2.274-.834 2.966-.556.693-1.328 1.04-2.317 1.04-.985 0-1.758-.348-2.321-1.043-.563-.695-.844-1.683-.844-2.963v-2.222c0-1.28.278-2.27.834-2.967.556-.697 1.328-1.046 2.317-1.046.989 0 1.764.349 2.324 1.046.56.697.841 1.686.841 2.967v2.222zm-.82-2.359c0-1.02-.2-1.806-.602-2.355-.4-.549-.982-.823-1.743-.823-.761 0-1.34.274-1.736.823-.397.55-.595 1.334-.595 2.355v2.482c0 1.011.202 1.796.605 2.355.403.558.983.837 1.74.837.756 0 1.334-.278 1.733-.834.398-.556.598-1.342.598-2.358v-2.482zM24.834 212.58h.95c.725 0 1.274-.182 1.648-.544.373-.363.56-.829.56-1.398 0-.62-.175-1.115-.526-1.484-.351-.369-.873-.553-1.566-.553-.638 0-1.16.188-1.568.564-.408.376-.612.871-.612 1.486h-.766l-.014-.04c-.022-.775.249-1.42.814-1.935.565-.515 1.28-.773 2.146-.773.89 0 1.597.244 2.123.732.526.487.79 1.164.79 2.03 0 .47-.146.91-.438 1.323-.292.412-.702.719-1.23.92.62.177 1.083.477 1.39.898.308.422.462.92.462 1.494 0 .884-.286 1.579-.858 2.085-.572.506-1.307.759-2.204.759-.87 0-1.618-.248-2.243-.742-.624-.495-.925-1.182-.902-2.061l.014-.041h.765c0 .633.22 1.15.66 1.552.44.4 1.008.601 1.706.601.706 0 1.257-.183 1.654-.55.396-.367.595-.892.595-1.576 0-.697-.208-1.213-.622-1.548-.415-.335-1.008-.503-1.778-.503h-.95v-.697zm12.243 1.558c0 1.285-.278 2.274-.834 2.966-.556.693-1.328 1.04-2.317 1.04-.985 0-1.758-.348-2.321-1.043-.563-.695-.844-1.683-.844-2.963v-2.222c0-1.28.278-2.27.834-2.967.556-.697 1.328-1.046 2.317-1.046.989 0 1.764.349 2.324 1.046.56.697.841 1.686.841 2.967v2.222zm-.82-2.359c0-1.02-.2-1.806-.602-2.355-.4-.549-.982-.823-1.743-.823-.761 0-1.34.274-1.736.823-.397.55-.595 1.334-.595 2.355v2.482c0 1.011.202 1.796.605 2.355.403.558.983.837 1.74.837.756 0 1.334-.278 1.733-.834.398-.556.598-1.342.598-2.358v-2.482zM23.371 160.495l.554-5.448h4.833v.759h-4.136l-.37 3.548a2.8 2.8 0 0 1 .828-.527c.3-.123.709-.191 1.224-.205.847-.014 1.531.271 2.05.855.52.583.78 1.367.78 2.351 0 1.007-.252 1.812-.756 2.413-.503.602-1.26.903-2.273.903-.82 0-1.503-.23-2.05-.687-.547-.458-.81-1.136-.786-2.034l.013-.041h.732c0 .67.19 1.182.57 1.538.381.355.888.533 1.521.533.739 0 1.291-.223 1.658-.67.367-.446.55-1.094.55-1.941 0-.743-.183-1.339-.55-1.788-.367-.449-.88-.673-1.541-.673-.638 0-1.125.101-1.46.304-.335.203-.577.51-.728.92l-.663-.11zm13.706.643c0 1.285-.278 2.274-.834 2.966-.556.693-1.328 1.04-2.317 1.04-.985 0-1.758-.348-2.321-1.043-.563-.695-.844-1.683-.844-2.963v-2.222c0-1.28.278-2.27.834-2.967.556-.697 1.328-1.046 2.317-1.046.989 0 1.764.349 2.324 1.046.56.697.841 1.686.841 2.967v2.222zm-.82-2.359c0-1.02-.2-1.806-.602-2.355-.4-.549-.982-.823-1.743-.823-.761 0-1.34.274-1.736.823-.397.55-.595 1.334-.595 2.355v2.482c0 1.011.202 1.796.605 2.355.403.558.983.837 1.74.837.756 0 1.334-.278 1.733-.834.398-.556.598-1.342.598-2.358v-2.482zM25.572 62.453c.757 0 1.358-.253 1.805-.759.447-.506.67-1.23.67-2.173v-.999c-.242.42-.566.743-.974.971a2.748 2.748 0 0 1-1.364.342c-.907 0-1.637-.314-2.19-.943-.555-.63-.831-1.443-.831-2.44 0-1.008.29-1.851.871-2.53.581-.68 1.3-1.019 2.157-1.019.961 0 1.732.314 2.31.94.58.627.869 1.537.869 2.731v2.933c0 1.153-.306 2.047-.916 2.683-.611.636-1.413.954-2.407.954-.355 0-.712-.035-1.07-.103a4.794 4.794 0 0 1-1.022-.314l.15-.684c.31.146.617.25.92.314a4.98 4.98 0 0 0 1.022.096zm.137-3.308c.592 0 1.088-.152 1.487-.455.399-.303.682-.678.85-1.125v-1.052c0-.944-.205-1.665-.618-2.164-.412-.499-.972-.748-1.678-.748-.643 0-1.172.278-1.59.834-.416.556-.625 1.228-.625 2.016 0 .766.196 1.406.588 1.921.392.515.92.773 1.586.773zm11.368-.007c0 1.285-.278 2.274-.834 2.966-.556.693-1.328 1.04-2.317 1.04-.985 0-1.758-.348-2.321-1.043-.563-.695-.844-1.683-.844-2.963v-2.222c0-1.28.278-2.27.834-2.967.556-.697 1.328-1.046 2.317-1.046.989 0 1.764.349 2.324 1.046.56.697.841 1.686.841 2.967v2.222zm-.82-2.359c0-1.02-.2-1.806-.602-2.355-.4-.549-.982-.823-1.743-.823-.761 0-1.34.274-1.736.823-.397.55-.595 1.334-.595 2.355v2.482c0 1.011.202 1.796.605 2.355.403.558.983.837 1.74.837.756 0 1.334-.278 1.733-.834.398-.556.598-1.342.598-2.358v-2.482zM70.875 304.58h.95c.725 0 1.274-.182 1.648-.544.374-.363.56-.829.56-1.398 0-.62-.175-1.115-.526-1.484-.35-.369-.872-.553-1.565-.553-.638 0-1.161.188-1.569.564-.408.376-.612.871-.612 1.486h-.765l-.014-.04c-.023-.775.248-1.42.813-1.935.566-.515 1.281-.773 2.147-.773.889 0 1.596.244 2.122.732.527.487.79 1.164.79 2.03 0 .47-.146.91-.437 1.323-.292.412-.702.719-1.231.92.62.177 1.084.477 1.391.898.308.422.462.92.462 1.494 0 .884-.286 1.579-.858 2.085-.572.506-1.307.759-2.205.759-.87 0-1.618-.248-2.242-.742-.624-.495-.925-1.182-.902-2.061l.013-.041h.766c0 .633.22 1.15.66 1.552.44.4 1.008.601 1.705.601.706 0 1.258-.183 1.654-.55.397-.367.595-.892.595-1.576 0-.697-.207-1.213-.622-1.548-.415-.335-1.007-.503-1.777-.503h-.95v-.697zM92.413 305.495l.553-5.448H97.8v.759h-4.135l-.37 3.548a2.8 2.8 0 0 1 .828-.527c.3-.123.708-.191 1.223-.205.848-.014 1.531.271 2.051.855.52.583.78 1.367.78 2.351 0 1.007-.252 1.812-.756 2.413-.504.602-1.261.903-2.273.903-.82 0-1.504-.23-2.05-.687-.548-.458-.81-1.136-.787-2.034l.014-.041h.731c0 .67.19 1.182.571 1.538.38.355.888.533 1.521.533.738 0 1.29-.223 1.658-.67.367-.446.55-1.094.55-1.941 0-.743-.183-1.339-.55-1.788-.367-.449-.881-.673-1.542-.673-.638 0-1.124.101-1.46.304-.334.203-.577.51-.727.92l-.663-.11zM122.175 300.744c-1.075 1.276-1.898 2.572-2.467 3.886-.57 1.315-.95 2.827-1.142 4.536l-.075.834h-.82l.075-.834c.191-1.686.587-3.212 1.19-4.577a16.33 16.33 0 0 1 2.392-3.845h-5.681v-.697h6.528v.697zM143.614 309.453c.756 0 1.358-.253 1.804-.759.447-.506.67-1.23.67-2.173v-.999c-.241.42-.566.743-.974.971a2.748 2.748 0 0 1-1.364.342c-.906 0-1.637-.314-2.19-.943-.554-.63-.831-1.443-.831-2.44 0-1.008.29-1.851.872-2.53.58-.68 1.3-1.019 2.156-1.019.962 0 1.732.314 2.31.94.58.627.869 1.537.869 2.731v2.933c0 1.153-.305 2.047-.916 2.683-.61.636-1.413.954-2.406.954-.356 0-.712-.035-1.07-.103a4.794 4.794 0 0 1-1.022-.314l.15-.684c.31.146.617.25.92.314a4.98 4.98 0 0 0 1.022.096zm.136-3.308c.593 0 1.089-.152 1.487-.455.4-.303.683-.678.851-1.125v-1.052c0-.944-.206-1.665-.618-2.164-.413-.499-.972-.748-1.678-.748-.643 0-1.173.278-1.59.834-.417.556-.625 1.228-.625 2.016 0 .766.196 1.406.588 1.921.391.515.92.773 1.585.773zM163.876 310.048h-.82V300.9l-2.53.294v-.574l3.35-.601v10.028zm7.759 0h-.82V300.9l-2.53.294v-.574l3.35-.601v10.028zM186.876 310.048h-.82V300.9l-2.53.294v-.574l3.35-.601v10.028zm5.879-5.469h.95c.725 0 1.274-.181 1.648-.543.373-.363.56-.829.56-1.398 0-.62-.175-1.115-.526-1.484-.351-.369-.873-.553-1.566-.553-.638 0-1.16.188-1.569.564-.407.376-.611.871-.611 1.486h-.766l-.014-.04c-.022-.775.249-1.42.814-1.935.565-.515 1.28-.773 2.146-.773.889 0 1.596.244 2.123.732.526.487.79 1.164.79 2.03 0 .47-.146.91-.438 1.323-.292.412-.702.719-1.23.92.62.177 1.083.477 1.39.898.308.422.462.92.462 1.494 0 .884-.286 1.579-.858 2.085-.572.506-1.307.759-2.205.759-.87 0-1.617-.248-2.242-.742-.624-.495-.925-1.182-.902-2.061l.014-.041h.765c0 .633.22 1.15.66 1.552.44.4 1.008.601 1.705.601.707 0 1.258-.183 1.655-.55.396-.367.594-.892.594-1.576 0-.697-.207-1.213-.622-1.548-.414-.335-1.007-.503-1.777-.503h-.95v-.697zM210.876 310.048h-.82V300.9l-2.53.294v-.574l3.35-.601v10.028zm4.416-4.553l.554-5.448h4.833v.759h-4.136l-.37 3.548a2.8 2.8 0 0 1 .828-.527c.3-.123.709-.191 1.224-.205.847-.014 1.53.271 2.05.855.52.583.78 1.367.78 2.351 0 1.007-.252 1.812-.756 2.413-.503.602-1.26.903-2.273.903-.82 0-1.504-.23-2.05-.687-.547-.458-.81-1.136-.787-2.034l.014-.041h.732c0 .67.19 1.182.57 1.538.38.355.888.533 1.521.533.739 0 1.291-.223 1.658-.67.367-.446.55-1.094.55-1.941 0-.743-.183-1.339-.55-1.788-.367-.449-.88-.673-1.541-.673-.638 0-1.125.101-1.46.304-.335.203-.578.51-.728.92l-.663-.11zM234.876 310.048h-.82V300.9l-2.53.294v-.574l3.35-.601v10.028zm10.179-9.304c-1.076 1.276-1.898 2.572-2.468 3.886-.57 1.315-.95 2.827-1.142 4.536l-.075.834h-.82l.075-.834c.191-1.686.588-3.212 1.19-4.577a16.33 16.33 0 0 1 2.392-3.845h-5.68v-.697h6.528v.697zM257.876 310.048h-.82V300.9l-2.53.294v-.574l3.35-.601v10.028zm6.617-.595c.757 0 1.358-.253 1.805-.759.446-.506.67-1.23.67-2.173v-.999c-.242.42-.566.743-.974.971a2.748 2.748 0 0 1-1.364.342c-.907 0-1.637-.314-2.191-.943-.554-.63-.83-1.443-.83-2.44 0-1.008.29-1.851.871-2.53.581-.68 1.3-1.019 2.157-1.019.961 0 1.731.314 2.31.94.579.627.868 1.537.868 2.731v2.933c0 1.153-.305 2.047-.916 2.683-.61.636-1.412.954-2.406.954-.355 0-.712-.035-1.07-.103a4.794 4.794 0 0 1-1.022-.314l.15-.684c.31.146.617.25.92.314a4.98 4.98 0 0 0 1.022.096zm.137-3.308c.592 0 1.088-.152 1.487-.455.398-.303.682-.678.85-1.125v-1.052c0-.944-.205-1.665-.618-2.164-.412-.499-.972-.748-1.678-.748-.643 0-1.172.278-1.59.834-.416.556-.625 1.228-.625 2.016 0 .766.196 1.406.588 1.921.392.515.92.773 1.586.773zM283.357 310h-6.18v-.629l3.261-3.698c.602-.68 1.027-1.248 1.275-1.706.249-.458.373-.896.373-1.316 0-.62-.174-1.116-.523-1.49-.349-.374-.842-.56-1.48-.56-.757 0-1.33.21-1.723.628-.392.42-.588.98-.588 1.682h-.758l-.014-.04c-.023-.83.246-1.532.807-2.106.56-.575 1.319-.862 2.276-.862.857 0 1.543.246 2.058.739.515.492.772 1.153.772 1.982 0 .547-.172 1.102-.516 1.665-.344.562-.824 1.19-1.439 1.883l-2.741 3.103.013.035h5.127v.69zm5.278.048h-.82V300.9l-2.53.294v-.574l3.35-.601v10.028zM307.357 310h-6.18v-.629l3.261-3.698c.602-.68 1.027-1.248 1.275-1.706.249-.458.373-.896.373-1.316 0-.62-.174-1.116-.523-1.49-.349-.374-.842-.56-1.48-.56-.757 0-1.33.21-1.723.628-.392.42-.588.98-.588 1.682h-.758l-.014-.04c-.023-.83.246-1.532.807-2.106.56-.575 1.319-.862 2.276-.862.857 0 1.543.246 2.058.739.515.492.772 1.153.772 1.982 0 .547-.172 1.102-.516 1.665-.344.562-.824 1.19-1.439 1.883l-2.741 3.103.013.035h5.127v.69zm3.398-5.42h.95c.725 0 1.274-.182 1.648-.544.373-.363.56-.829.56-1.398 0-.62-.175-1.115-.526-1.484-.351-.369-.873-.553-1.566-.553-.638 0-1.16.188-1.569.564-.407.376-.611.871-.611 1.486h-.766l-.014-.04c-.022-.775.249-1.42.814-1.935.565-.515 1.28-.773 2.146-.773.889 0 1.596.244 2.123.732.526.487.79 1.164.79 2.03 0 .47-.146.91-.438 1.323-.292.412-.702.719-1.23.92.62.177 1.083.477 1.39.898.308.422.462.92.462 1.494 0 .884-.286 1.579-.858 2.085-.572.506-1.307.759-2.205.759-.87 0-1.617-.248-2.242-.742-.624-.495-.925-1.182-.902-2.061l.014-.041h.765c0 .633.22 1.15.66 1.552.44.4 1.008.601 1.705.601.707 0 1.258-.183 1.655-.55.396-.367.594-.892.594-1.576 0-.697-.207-1.213-.622-1.548-.414-.335-1.007-.503-1.777-.503h-.95v-.697zM331.357 310h-6.18v-.629l3.261-3.698c.602-.68 1.027-1.248 1.275-1.706.249-.458.373-.896.373-1.316 0-.62-.174-1.116-.523-1.49-.349-.374-.842-.56-1.48-.56-.757 0-1.33.21-1.723.628-.392.42-.588.98-.588 1.682h-.758l-.014-.04c-.023-.83.246-1.532.807-2.106.56-.575 1.319-.862 2.276-.862.857 0 1.543.246 2.058.739.515.492.772 1.153.772 1.982 0 .547-.172 1.102-.516 1.665-.344.562-.824 1.19-1.439 1.883l-2.741 3.103.013.035h5.127v.69zm1.935-4.505l.554-5.448h4.833v.759h-4.136l-.37 3.548a2.8 2.8 0 0 1 .828-.527c.3-.123.709-.191 1.224-.205.847-.014 1.53.271 2.05.855.52.583.78 1.367.78 2.351 0 1.007-.252 1.812-.756 2.413-.503.602-1.26.903-2.273.903-.82 0-1.504-.23-2.05-.687-.547-.458-.81-1.136-.787-2.034l.014-.041h.732c0 .67.19 1.182.57 1.538.38.355.888.533 1.521.533.739 0 1.291-.223 1.658-.67.367-.446.55-1.094.55-1.941 0-.743-.183-1.339-.55-1.788-.367-.449-.88-.673-1.541-.673-.638 0-1.125.101-1.46.304-.335.203-.578.51-.728.92l-.663-.11zM353.357 310h-6.18v-.629l3.261-3.698c.602-.68 1.027-1.248 1.275-1.706.249-.458.373-.896.373-1.316 0-.62-.174-1.116-.523-1.49-.349-.374-.842-.56-1.48-.56-.757 0-1.33.21-1.723.628-.392.42-.588.98-.588 1.682h-.758l-.014-.04c-.023-.83.246-1.532.807-2.106.56-.575 1.319-.862 2.276-.862.857 0 1.543.246 2.058.739.515.492.772 1.153.772 1.982 0 .547-.172 1.102-.516 1.665-.344.562-.824 1.19-1.439 1.883l-2.741 3.103.013.035h5.127v.69zm7.698-9.256c-1.076 1.276-1.898 2.572-2.468 3.886-.57 1.315-.95 2.827-1.142 4.536l-.075.834h-.82l.075-.834c.191-1.686.588-3.212 1.19-4.577a16.33 16.33 0 0 1 2.392-3.845h-5.68v-.697h6.528v.697zM377.357 310h-6.18v-.629l3.261-3.698c.602-.68 1.027-1.248 1.275-1.706.249-.458.373-.896.373-1.316 0-.62-.174-1.116-.523-1.49-.349-.374-.842-.56-1.48-.56-.757 0-1.33.21-1.723.628-.392.42-.588.98-.588 1.682h-.758l-.014-.04c-.023-.83.246-1.532.807-2.106.56-.575 1.319-.862 2.276-.862.857 0 1.543.246 2.058.739.515.492.772 1.153.772 1.982 0 .547-.172 1.102-.516 1.665-.344.562-.824 1.19-1.439 1.883l-2.741 3.103.013.035h5.127v.69zm4.136-.547c.757 0 1.358-.253 1.805-.759.446-.506.67-1.23.67-2.173v-.999c-.242.42-.566.743-.974.971a2.748 2.748 0 0 1-1.364.342c-.907 0-1.637-.314-2.191-.943-.554-.63-.83-1.443-.83-2.44 0-1.008.29-1.851.871-2.53.581-.68 1.3-1.019 2.157-1.019.961 0 1.731.314 2.31.94.579.627.868 1.537.868 2.731v2.933c0 1.153-.305 2.047-.916 2.683-.61.636-1.412.954-2.406.954-.355 0-.712-.035-1.07-.103a4.794 4.794 0 0 1-1.022-.314l.15-.684c.31.146.617.25.92.314a4.98 4.98 0 0 0 1.022.096zm.137-3.308c.592 0 1.088-.152 1.487-.455.398-.303.682-.678.85-1.125v-1.052c0-.944-.205-1.665-.618-2.164-.412-.499-.972-.748-1.678-.748-.643 0-1.172.278-1.59.834-.416.556-.625 1.228-.625 2.016 0 .766.196 1.406.588 1.921.392.515.92.773 1.586.773zM396.996 304.58h.95c.725 0 1.274-.182 1.648-.544.373-.363.56-.829.56-1.398 0-.62-.175-1.115-.526-1.484-.351-.369-.873-.553-1.565-.553-.639 0-1.161.188-1.57.564-.407.376-.611.871-.611 1.486h-.766l-.013-.04c-.023-.775.248-1.42.813-1.935.565-.515 1.28-.773 2.147-.773.888 0 1.596.244 2.122.732.526.487.79 1.164.79 2.03 0 .47-.146.91-.438 1.323-.292.412-.702.719-1.23.92.62.177 1.083.477 1.39.898.308.422.462.92.462 1.494 0 .884-.286 1.579-.858 2.085-.572.506-1.307.759-2.204.759-.87 0-1.618-.248-2.243-.742-.624-.495-.925-1.182-.902-2.061l.014-.041h.765c0 .633.22 1.15.66 1.552.44.4 1.008.601 1.706.601.706 0 1.257-.183 1.654-.55.396-.367.595-.892.595-1.576 0-.697-.208-1.213-.622-1.548-.415-.335-1.008-.503-1.778-.503h-.95v-.697zm9.639 5.468h-.82V300.9l-2.53.294v-.574l3.35-.601v10.028zM419.996 304.58h.95c.725 0 1.274-.182 1.648-.544.373-.363.56-.829.56-1.398 0-.62-.175-1.115-.526-1.484-.351-.369-.873-.553-1.565-.553-.639 0-1.161.188-1.57.564-.407.376-.611.871-.611 1.486h-.766l-.013-.04c-.023-.775.248-1.42.813-1.935.565-.515 1.28-.773 2.147-.773.888 0 1.596.244 2.122.732.526.487.79 1.164.79 2.03 0 .47-.146.91-.438 1.323-.292.412-.702.719-1.23.92.62.177 1.083.477 1.39.898.308.422.462.92.462 1.494 0 .884-.286 1.579-.858 2.085-.572.506-1.307.759-2.204.759-.87 0-1.618-.248-2.243-.742-.624-.495-.925-1.182-.902-2.061l.014-.041h.765c0 .633.22 1.15.66 1.552.44.4 1.008.601 1.706.601.706 0 1.257-.183 1.654-.55.396-.367.595-.892.595-1.576 0-.697-.208-1.213-.622-1.548-.415-.335-1.008-.503-1.778-.503h-.95v-.697zm7.759 0h.95c.725 0 1.274-.182 1.648-.544.373-.363.56-.829.56-1.398 0-.62-.175-1.115-.526-1.484-.351-.369-.873-.553-1.566-.553-.638 0-1.16.188-1.569.564-.407.376-.611.871-.611 1.486h-.766l-.014-.04c-.022-.775.249-1.42.814-1.935.565-.515 1.28-.773 2.146-.773.889 0 1.596.244 2.123.732.526.487.79 1.164.79 2.03 0 .47-.146.91-.438 1.323-.292.412-.702.719-1.23.92.62.177 1.083.477 1.39.898.308.422.462.92.462 1.494 0 .884-.286 1.579-.858 2.085-.572.506-1.307.759-2.205.759-.87 0-1.617-.248-2.242-.742-.624-.495-.925-1.182-.902-2.061l.014-.041h.765c0 .633.22 1.15.66 1.552.44.4 1.008.601 1.705.601.707 0 1.258-.183 1.655-.55.396-.367.594-.892.594-1.576 0-.697-.207-1.213-.622-1.548-.414-.335-1.007-.503-1.777-.503h-.95v-.697zM442.996 304.58h.95c.725 0 1.274-.182 1.648-.544.373-.363.56-.829.56-1.398 0-.62-.175-1.115-.526-1.484-.351-.369-.873-.553-1.565-.553-.639 0-1.161.188-1.57.564-.407.376-.611.871-.611 1.486h-.766l-.013-.04c-.023-.775.248-1.42.813-1.935.565-.515 1.28-.773 2.147-.773.888 0 1.596.244 2.122.732.526.487.79 1.164.79 2.03 0 .47-.146.91-.438 1.323-.292.412-.702.719-1.23.92.62.177 1.083.477 1.39.898.308.422.462.92.462 1.494 0 .884-.286 1.579-.858 2.085-.572.506-1.307.759-2.204.759-.87 0-1.618-.248-2.243-.742-.624-.495-.925-1.182-.902-2.061l.014-.041h.765c0 .633.22 1.15.66 1.552.44.4 1.008.601 1.706.601.706 0 1.257-.183 1.654-.55.396-.367.595-.892.595-1.576 0-.697-.208-1.213-.622-1.548-.415-.335-1.008-.503-1.778-.503h-.95v-.697zm6.296.915l.554-5.448h4.833v.759h-4.136l-.37 3.548a2.8 2.8 0 0 1 .828-.527c.3-.123.709-.191 1.224-.205.847-.014 1.53.271 2.05.855.52.583.78 1.367.78 2.351 0 1.007-.252 1.812-.756 2.413-.503.602-1.26.903-2.273.903-.82 0-1.504-.23-2.05-.687-.547-.458-.81-1.136-.787-2.034l.014-.041h.732c0 .67.19 1.182.57 1.538.38.355.888.533 1.521.533.739 0 1.291-.223 1.658-.67.367-.446.55-1.094.55-1.941 0-.743-.183-1.339-.55-1.788-.367-.449-.88-.673-1.541-.673-.638 0-1.125.101-1.46.304-.335.203-.578.51-.728.92l-.663-.11zM466.996 304.58h.95c.725 0 1.274-.182 1.648-.544.373-.363.56-.829.56-1.398 0-.62-.175-1.115-.526-1.484-.351-.369-.873-.553-1.565-.553-.639 0-1.161.188-1.57.564-.407.376-.611.871-.611 1.486h-.766l-.013-.04c-.023-.775.248-1.42.813-1.935.565-.515 1.28-.773 2.147-.773.888 0 1.596.244 2.122.732.526.487.79 1.164.79 2.03 0 .47-.146.91-.438 1.323-.292.412-.702.719-1.23.92.62.177 1.083.477 1.39.898.308.422.462.92.462 1.494 0 .884-.286 1.579-.858 2.085-.572.506-1.307.759-2.204.759-.87 0-1.618-.248-2.243-.742-.624-.495-.925-1.182-.902-2.061l.014-.041h.765c0 .633.22 1.15.66 1.552.44.4 1.008.601 1.706.601.706 0 1.257-.183 1.654-.55.396-.367.595-.892.595-1.576 0-.697-.208-1.213-.622-1.548-.415-.335-1.008-.503-1.778-.503h-.95v-.697zm12.059-3.836c-1.076 1.276-1.898 2.572-2.468 3.886-.57 1.315-.95 2.827-1.142 4.536l-.075.834h-.82l.075-.834c.191-1.686.588-3.212 1.19-4.577a16.33 16.33 0 0 1 2.392-3.845h-5.68v-.697h6.528v.697zM490.996 304.58h.95c.725 0 1.274-.182 1.648-.544.373-.363.56-.829.56-1.398 0-.62-.175-1.115-.526-1.484-.351-.369-.873-.553-1.565-.553-.639 0-1.161.188-1.57.564-.407.376-.611.871-.611 1.486h-.766l-.013-.04c-.023-.775.248-1.42.813-1.935.565-.515 1.28-.773 2.147-.773.888 0 1.596.244 2.122.732.526.487.79 1.164.79 2.03 0 .47-.146.91-.438 1.323-.292.412-.702.719-1.23.92.62.177 1.083.477 1.39.898.308.422.462.92.462 1.494 0 .884-.286 1.579-.858 2.085-.572.506-1.307.759-2.204.759-.87 0-1.618-.248-2.243-.742-.624-.495-.925-1.182-.902-2.061l.014-.041h.765c0 .633.22 1.15.66 1.552.44.4 1.008.601 1.706.601.706 0 1.257-.183 1.654-.55.396-.367.595-.892.595-1.576 0-.697-.208-1.213-.622-1.548-.415-.335-1.008-.503-1.778-.503h-.95v-.697zm8.497 4.873c.757 0 1.358-.253 1.805-.759.446-.506.67-1.23.67-2.173v-.999c-.242.42-.566.743-.974.971a2.748 2.748 0 0 1-1.364.342c-.907 0-1.637-.314-2.191-.943-.554-.63-.83-1.443-.83-2.44 0-1.008.29-1.851.871-2.53.581-.68 1.3-1.019 2.157-1.019.961 0 1.731.314 2.31.94.579.627.868 1.537.868 2.731v2.933c0 1.153-.305 2.047-.916 2.683-.61.636-1.412.954-2.406.954-.355 0-.712-.035-1.07-.103a4.794 4.794 0 0 1-1.022-.314l.15-.684c.31.146.617.25.92.314a4.98 4.98 0 0 0 1.022.096zm.137-3.308c.592 0 1.088-.152 1.487-.455.398-.303.682-.678.85-1.125v-1.052c0-.944-.205-1.665-.618-2.164-.412-.499-.972-.748-1.678-.748-.643 0-1.172.278-1.59.834-.416.556-.625 1.228-.625 2.016 0 .766.196 1.406.588 1.921.392.515.92.773 1.586.773zM265.578 336v-11.375h3.688c1.442 0 2.616.45 3.52 1.352.903.9 1.355 2.06 1.355 3.476v1.727c0 1.422-.452 2.58-1.356 3.476-.903.896-2.077 1.344-3.52 1.344h-3.687zm1.899-9.852v8.336h1.734c.943 0 1.684-.307 2.223-.921.539-.615.808-1.41.808-2.383v-1.743c0-.963-.27-1.752-.808-2.367-.54-.614-1.28-.922-2.223-.922h-1.734zm13.46 9.852a7.006 7.006 0 0 1-.167-.625 4.468 4.468 0 0 1-.09-.61c-.26.396-.603.728-1.028.997-.424.268-.9.402-1.425.402-.88 0-1.556-.226-2.028-.68-.471-.453-.707-1.075-.707-1.867 0-.818.323-1.454.969-1.91.646-.456 1.555-.684 2.726-.684h1.477v-.742c0-.442-.13-.789-.39-1.039-.261-.25-.633-.375-1.118-.375-.432 0-.776.104-1.031.313a.992.992 0 0 0-.383.804h-1.828l-.008-.046c-.036-.667.262-1.258.895-1.774s1.457-.773 2.472-.773c.985 0 1.78.25 2.383.75.604.5.906 1.218.906 2.156v3.758c0 .349.024.683.07 1.004.048.32.123.634.227.941h-1.921zm-2.328-1.36c.48 0 .91-.12 1.293-.359.383-.24.637-.513.762-.82v-1.25h-1.508c-.552 0-.984.137-1.297.41-.312.274-.468.595-.468.965 0 .323.105.58.316.77.211.19.512.285.902.285zm8.75-2.03l.188.843h.047l1.851-5.906h2.078l-3.5 9.734a4.34 4.34 0 0 1-.945 1.508c-.406.417-.982.625-1.726.625a2.95 2.95 0 0 1-.504-.047 7.299 7.299 0 0 1-.52-.11l.211-1.468.29.024c.124.01.218.015.28.015.344 0 .619-.117.825-.351.205-.235.373-.506.503-.813l.313-.766-3.07-8.351h2.07l1.61 5.062zM91.258 6.162h-3.733v2.701h4.33V10h-5.753V1.469h5.712V2.61h-4.289V5.02h3.733v1.142zM96.689 10a5.255 5.255 0 0 1-.126-.469 3.35 3.35 0 0 1-.067-.457 2.516 2.516 0 0 1-.77.747 1.96 1.96 0 0 1-1.07.302c-.66 0-1.167-.17-1.52-.51-.354-.34-.53-.806-.53-1.4 0-.613.242-1.09.726-1.433.484-.342 1.166-.512 2.045-.512h1.107V5.71c0-.332-.097-.592-.293-.78-.195-.187-.474-.28-.837-.28-.325 0-.583.078-.774.234a.744.744 0 0 0-.287.603h-1.371l-.006-.035c-.027-.5.196-.943.67-1.33.476-.387 1.094-.58 1.855-.58.739 0 1.334.187 1.788.562.453.375.68.915.68 1.618V8.54c0 .262.017.513.052.753.035.24.092.476.17.706h-1.442zm-1.746-1.02c.36 0 .683-.09.97-.27.287-.179.478-.384.571-.614v-.938h-1.13c-.415 0-.739.103-.973.308-.235.205-.352.446-.352.723 0 .243.08.435.238.578.158.142.383.213.676.213zm7.618-4.037l-.61-.023c-.277 0-.509.059-.694.176-.186.117-.33.283-.43.498V10h-1.425V3.66h1.301l.094.92c.16-.324.366-.578.618-.762.252-.183.542-.275.87-.275.086 0 .166.007.24.02.075.014.143.03.205.05l-.17 1.33zM105.074 10h-1.424V.86h1.424V10zm3.697-2.543l.141.633h.035l1.389-4.43h1.559l-2.625 7.3a3.255 3.255 0 0 1-.71 1.132c-.304.312-.736.469-1.294.469-.118 0-.244-.012-.378-.036a5.474 5.474 0 0 1-.39-.082l.158-1.101.217.017c.094.008.164.012.211.012a.782.782 0 0 0 .618-.264 2.24 2.24 0 0 0 .378-.609l.234-.574-2.302-6.264h1.552l1.207 3.797zM60.994 28v-8.531h2.766c1.082 0 1.962.338 2.64 1.013.677.676 1.016 1.545 1.016 2.608v1.295c0 1.066-.339 1.935-1.017 2.607-.677.672-1.557 1.008-2.64 1.008h-2.765zm1.424-7.389v6.252h1.3c.708 0 1.263-.23 1.668-.691.404-.461.606-1.057.606-1.787v-1.307c0-.723-.202-1.314-.606-1.775-.405-.461-.96-.692-1.667-.692h-1.301zm9 7.512c-.898 0-1.614-.294-2.147-.882-.534-.588-.8-1.343-.8-2.264v-.235c0-.922.264-1.686.794-2.294.529-.607 1.192-.909 1.989-.905.855 0 1.51.259 1.966.776.455.518.682 1.212.682 2.083v.838h-3.955l-.011.03c.023.503.17.916.442 1.236.271.32.647.48 1.128.48.383 0 .71-.047.984-.14.274-.094.537-.229.791-.405l.457.932c-.238.211-.554.389-.949.533-.394.145-.851.217-1.371.217zm-.164-5.437c-.352 0-.64.14-.867.418-.227.28-.367.634-.422 1.064l.012.03h2.513v-.147c0-.403-.102-.73-.307-.985-.205-.254-.515-.38-.93-.38zm5.566-2.567v1.541h1.137v1.055H76.82v3.504c0 .261.057.448.17.56a.616.616 0 0 0 .451.166 1.259 1.259 0 0 0 .44-.076l.152 1.043a1.633 1.633 0 0 1-.433.155 2.41 2.41 0 0 1-.522.056c-.523 0-.933-.153-1.23-.46-.297-.307-.446-.788-.446-1.444v-3.504h-.966V21.66h.966v-1.54h1.418zm5.121 8.004c-.898 0-1.614-.294-2.147-.882-.533-.588-.8-1.343-.8-2.264v-.235c0-.922.265-1.686.794-2.294.53-.607 1.192-.909 1.99-.905.855 0 1.51.259 1.965.776.455.518.683 1.212.683 2.083v.838H80.47l-.012.03c.023.503.17.916.442 1.236.272.32.648.48 1.128.48.383 0 .711-.047.985-.14.273-.094.537-.229.79-.405l.458.932c-.239.211-.555.389-.95.533-.394.145-.851.217-1.37.217zm-.164-5.437c-.351 0-.64.14-.867.418-.226.28-.367.634-.422 1.064l.012.03h2.514v-.147c0-.403-.103-.73-.308-.985-.205-.254-.515-.38-.929-.38zm6.416 4.3a1.3 1.3 0 0 0 .88-.307.975.975 0 0 0 .357-.77h1.289l.011.034c.02.594-.221 1.106-.723 1.536-.502.43-1.107.644-1.814.644-.933 0-1.65-.3-2.147-.902-.498-.602-.747-1.364-.747-2.285v-.206c0-.918.249-1.678.747-2.282.498-.603 1.214-.905 2.147-.905.762 0 1.38.222 1.855.665.474.443.704 1.007.688 1.69l-.011.036H89.43c0-.348-.115-.643-.343-.885-.229-.242-.526-.363-.894-.363-.535 0-.914.194-1.136.583-.223.388-.334.876-.334 1.461v.206c0 .597.111 1.088.334 1.473.222.385.601.577 1.136.577zm5.45-6.867v1.541h1.136v1.055h-1.136v3.504c0 .261.056.448.17.56a.616.616 0 0 0 .45.166 1.259 1.259 0 0 0 .44-.076l.152 1.043a1.633 1.633 0 0 1-.433.155 2.41 2.41 0 0 1-.522.056c-.523 0-.933-.153-1.23-.46-.297-.307-.445-.788-.445-1.444v-3.504h-.967V21.66h.967v-1.54h1.418zM97.563 28h-1.424v-6.34h1.424V28zm0-7.893h-1.424V18.86h1.424v1.248zm1.33 4.664c0-.94.257-1.714.773-2.32.523-.605 1.232-.908 2.127-.908.91 0 1.623.303 2.139.908.52.602.779 1.375.779 2.32v.124c0 .953-.26 1.73-.78 2.332-.515.597-1.224.896-2.126.896-.907 0-1.62-.3-2.139-.902-.516-.602-.773-1.377-.773-2.326v-.124zm1.423.124c0 .617.121 1.12.364 1.511.238.387.613.58 1.125.58.496 0 .867-.193 1.113-.58.25-.39.375-.894.375-1.511v-.124c0-.605-.125-1.103-.375-1.494-.246-.394-.621-.591-1.125-.591-.496 0-.867.197-1.113.591-.243.395-.364.893-.364 1.494v.124zm6.926-3.235l.082.914c.207-.324.468-.577.782-.759a2.087 2.087 0 0 1 1.064-.272c.66 0 1.175.2 1.544.6.369.4.554 1.025.554 1.873V28h-1.424v-3.973c0-.476-.099-.815-.296-1.016-.197-.201-.497-.302-.9-.302a1.491 1.491 0 0 0-1.283.691V28h-1.424v-6.34h1.301zM160.355 6.46V10h-1.423V1.469h3.152c.953 0 1.69.215 2.209.644.52.43.78 1.043.78 1.84 0 .442-.115.821-.344 1.14-.228.318-.561.573-.999.764.48.153.827.402 1.038.747.21.346.316.771.316 1.275v.709c0 .25.031.494.094.732.062.239.168.42.316.545V10h-1.465c-.156-.129-.257-.332-.301-.61a5.09 5.09 0 0 1-.068-.814v-.685c0-.438-.125-.786-.375-1.043-.25-.258-.594-.387-1.031-.387h-1.899zm0-1.142h1.653c.57 0 .986-.109 1.248-.328.262-.219.392-.552.392-1.002 0-.43-.128-.766-.386-1.01-.258-.245-.65-.367-1.178-.367h-1.729v2.707zM170.51 10a5.254 5.254 0 0 1-.126-.469 3.351 3.351 0 0 1-.068-.457 2.516 2.516 0 0 1-.77.747 1.96 1.96 0 0 1-1.07.302c-.66 0-1.166-.17-1.52-.51-.353-.34-.53-.806-.53-1.4 0-.613.242-1.09.726-1.433.485-.342 1.166-.512 2.045-.512h1.108V5.71c0-.332-.098-.592-.293-.78-.196-.187-.475-.28-.838-.28-.324 0-.582.078-.774.234a.744.744 0 0 0-.287.603h-1.37l-.007-.035c-.027-.5.197-.943.671-1.33.475-.387 1.093-.58 1.855-.58.738 0 1.334.187 1.787.562.453.375.68.915.68 1.618V8.54c0 .262.017.513.052.753.035.24.092.476.17.706h-1.441zm-1.746-1.02c.359 0 .682-.09.97-.27.287-.179.477-.384.57-.614v-.938h-1.13c-.414 0-.738.103-.973.308-.234.205-.351.446-.351.723 0 .243.079.435.237.578.158.142.384.213.677.213zm10.013-1.939c0 .922-.216 1.666-.65 2.232-.434.567-1.037.85-1.81.85-.36 0-.678-.064-.956-.193a1.965 1.965 0 0 1-.715-.569v3.076h-1.423V3.66h1.2l.141.797c.204-.297.449-.523.736-.68.287-.156.62-.234.999-.234.781 0 1.39.31 1.825.929.436.619.653 1.434.653 2.446v.123zm-1.418-.123c0-.648-.122-1.179-.366-1.59-.244-.413-.608-.619-1.093-.619a1.42 1.42 0 0 0-.755.19 1.402 1.402 0 0 0-.499.53v2.866c.125.223.291.393.499.513.207.119.462.178.767.178.484 0 .847-.178 1.087-.536.24-.357.36-.827.36-1.409v-.123zM181.537 10h-1.424V3.66h1.424V10zm0-7.893h-1.424V.86h1.424v1.248zm1.33 4.811c0-1.012.217-1.827.65-2.446.434-.62 1.044-.929 1.829-.929a2 2 0 0 1 .923.208c.271.139.506.337.706.595V.859h1.423V10h-1.195l-.14-.785a2.095 2.095 0 0 1-.733.677 2.061 2.061 0 0 1-.996.231c-.777 0-1.383-.283-1.816-.85-.434-.566-.65-1.31-.65-2.232v-.123zm1.424.123c0 .586.112 1.053.337 1.4.225.348.581.522 1.07.522.3 0 .555-.065.764-.193.209-.13.38-.313.513-.551V5.453a1.5 1.5 0 0 0-.516-.548c-.211-.13-.461-.196-.75-.196-.484 0-.842.204-1.072.612-.23.408-.346.94-.346 1.597v.123zm-23.936 17.42V28h-1.423v-8.531h3.152c.953 0 1.69.215 2.209.644.52.43.78 1.043.78 1.84 0 .442-.115.821-.344 1.14-.228.318-.561.573-.999.764.48.153.827.402 1.038.747.21.346.316.771.316 1.275v.709c0 .25.031.494.094.732.062.239.168.42.316.545V28h-1.465c-.156-.129-.257-.332-.301-.61a5.09 5.09 0 0 1-.068-.814v-.685c0-.438-.125-.786-.375-1.043-.25-.258-.594-.387-1.031-.387h-1.899zm0-1.143h1.653c.57 0 .986-.109 1.248-.328.262-.219.392-.552.392-1.002 0-.43-.128-.766-.386-1.01-.258-.245-.65-.367-1.178-.367h-1.729v2.707zm9.06 4.805c-.9 0-1.615-.294-2.148-.882-.534-.588-.8-1.343-.8-2.264v-.235c0-.922.264-1.686.794-2.294.529-.607 1.192-.909 1.989-.905.855 0 1.51.259 1.966.776.455.518.682 1.212.682 2.083v.838h-3.955l-.011.03c.023.503.17.916.442 1.236.272.32.647.48 1.128.48.383 0 .71-.047.984-.14.274-.094.537-.229.791-.405l.457.932c-.238.211-.554.389-.949.533-.394.145-.851.217-1.37.217zm-.165-5.437c-.352 0-.64.14-.867.418-.227.28-.367.634-.422 1.064l.012.03h2.513v-.147c0-.403-.102-.73-.307-.985-.205-.254-.515-.38-.929-.38zm7.36 3.591c0-.218-.094-.4-.282-.545-.187-.144-.537-.271-1.049-.38-.758-.16-1.33-.388-1.72-.683-.388-.295-.582-.696-.582-1.204 0-.531.224-.985.673-1.36.45-.375 1.041-.562 1.776-.562.773 0 1.387.19 1.843.571.455.381.672.853.653 1.415l-.012.035h-1.365c0-.261-.1-.486-.299-.673-.2-.188-.473-.282-.82-.282-.344 0-.606.078-.785.232a.718.718 0 0 0-.27.565c0 .223.085.4.255.53.17.131.515.248 1.034.35.797.163 1.388.395 1.773.693.384.3.577.707.577 1.222 0 .57-.236 1.033-.706 1.389-.471.355-1.091.533-1.86.533-.825 0-1.475-.21-1.952-.633-.476-.422-.703-.906-.68-1.453l.012-.035h1.324c.016.367.149.635.399.803.25.168.555.252.914.252.367 0 .65-.07.85-.211.199-.14.298-.33.298-.569zm8.232-1.236c0 .922-.217 1.666-.65 2.232-.434.567-1.038.85-1.811.85-.36 0-.678-.064-.955-.193a1.965 1.965 0 0 1-.715-.569v3.076h-1.424V21.66h1.201l.14.797c.204-.297.45-.523.736-.68.287-.156.62-.234 1-.234.78 0 1.389.31 1.824.929.436.619.654 1.434.654 2.446v.123zm-1.418-.123c0-.648-.122-1.179-.366-1.59-.245-.413-.609-.619-1.093-.619a1.42 1.42 0 0 0-.756.19 1.402 1.402 0 0 0-.498.53v2.866c.125.223.291.393.498.513.207.119.463.178.768.178.484 0 .846-.178 1.086-.536.24-.357.36-.827.36-1.409v-.123zm2.396-.147c0-.94.258-1.714.774-2.32.523-.605 1.232-.908 2.127-.908.91 0 1.623.303 2.138.908.52.602.78 1.375.78 2.32v.124c0 .953-.26 1.73-.78 2.332-.515.597-1.224.896-2.127.896-.906 0-1.619-.3-2.138-.902-.516-.602-.774-1.377-.774-2.326v-.124zm1.424.124c0 .617.121 1.12.363 1.511.239.387.614.58 1.125.58.497 0 .868-.193 1.114-.58.25-.39.375-.894.375-1.511v-.124c0-.605-.125-1.103-.375-1.494-.246-.394-.621-.591-1.125-.591-.496 0-.867.197-1.114.591-.242.395-.363.893-.363 1.494v.124zm6.926-3.235l.082.914c.207-.324.468-.577.782-.759a2.087 2.087 0 0 1 1.064-.272c.66 0 1.174.2 1.544.6.369.4.553 1.025.553 1.873V28h-1.424v-3.973c0-.476-.098-.815-.295-1.016-.198-.201-.497-.302-.9-.302a1.491 1.491 0 0 0-1.283.691V28h-1.424v-6.34h1.3zm9.07 4.617c0-.218-.094-.4-.281-.545-.188-.144-.537-.271-1.049-.38-.758-.16-1.33-.388-1.72-.683-.388-.295-.583-.696-.583-1.204 0-.531.225-.985.674-1.36.45-.375 1.041-.562 1.776-.562.773 0 1.387.19 1.842.571.455.381.673.853.654 1.415l-.012.035h-1.365c0-.261-.1-.486-.299-.673-.2-.188-.473-.282-.82-.282-.344 0-.606.078-.786.232a.718.718 0 0 0-.269.565c0 .223.085.4.255.53.17.131.514.248 1.034.35.797.163 1.388.395 1.772.693.385.3.578.707.578 1.222 0 .57-.236 1.033-.706 1.389-.471.355-1.091.533-1.86.533-.825 0-1.475-.21-1.952-.633-.477-.422-.703-.906-.68-1.453l.012-.035h1.324c.016.367.149.635.399.803.25.168.554.252.914.252.367 0 .65-.07.85-.211.199-.14.298-.33.298-.569zm5.397 1.846c-.899 0-1.615-.294-2.148-.882-.533-.588-.8-1.343-.8-2.264v-.235c0-.922.265-1.686.794-2.294.53-.607 1.193-.909 1.99-.905.855 0 1.51.259 1.965.776.456.518.683 1.212.683 2.083v.838h-3.955l-.012.03c.024.503.171.916.443 1.236.271.32.647.48 1.128.48.382 0 .71-.047.984-.14.273-.094.537-.229.791-.405l.457.932c-.238.211-.555.389-.95.533-.394.145-.85.217-1.37.217zm-.164-5.437c-.352 0-.641.14-.868.418-.226.28-.367.634-.421 1.064l.011.03h2.514v-.147c0-.403-.103-.73-.308-.985-.205-.254-.514-.38-.928-.38zM7.977 186.828l.046-.016c1.151-.02 2.088.353 2.809 1.122.721.768 1.082 1.808 1.082 3.12 0 1.329-.447 2.408-1.34 3.239-.893.83-2.035 1.246-3.426 1.246H4.984c-1.385 0-2.527-.41-3.425-1.23-.899-.82-1.348-1.887-1.348-3.2 0-1.343.353-2.402 1.059-3.175.705-.774 1.654-1.15 2.847-1.13l.047.016v1.836c-.766 0-1.362.207-1.789.621-.427.414-.64 1.025-.64 1.832 0 .776.307 1.392.921 1.848.615.456 1.386.684 2.313.684h2.18c.937 0 1.713-.233 2.328-.7.614-.466.921-1.095.921-1.886 0-.787-.21-1.383-.632-1.79-.422-.406-1.019-.609-1.79-.609v-1.828zm3.773-6.719a7.006 7.006 0 0 1-.625.168 4.468 4.468 0 0 1-.61.09c.396.26.728.603.997 1.028.268.424.402.9.402 1.425 0 .88-.226 1.556-.68 2.028-.453.471-1.075.707-1.867.707-.818 0-1.454-.323-1.91-.97-.456-.645-.684-1.554-.684-2.726v-1.476h-.742c-.442 0-.789.13-1.039.39-.25.26-.375.633-.375 1.118 0 .432.104.776.313 1.03a.992.992 0 0 0 .804.384v1.828l-.046.008c-.667.036-1.258-.262-1.774-.895s-.773-1.457-.773-2.473c0-.984.25-1.778.75-2.382.5-.605 1.218-.907 2.156-.907h3.758a6.93 6.93 0 0 0 1.004-.07 5.33 5.33 0 0 0 .941-.226v1.921zm-1.36 2.328c0-.479-.12-.91-.359-1.292-.24-.383-.513-.637-.82-.762H7.96v1.508c0 .552.137.984.41 1.297.274.312.595.468.965.468.323 0 .58-.105.77-.316.19-.211.285-.512.285-.903zm-.937-10.695c-.292 0-.534.125-.726.375-.193.25-.362.716-.508 1.399-.214 1.01-.517 1.774-.91 2.293-.394.518-.929.777-1.606.777-.708 0-1.312-.3-1.812-.899-.5-.598-.75-1.388-.75-2.367 0-1.03.254-1.85.761-2.457.508-.606 1.137-.897 1.887-.87l.047.015v1.82a1.19 1.19 0 0 0-.899.399c-.25.265-.375.63-.375 1.093 0 .459.103.808.31 1.047.205.24.456.36.753.36a.846.846 0 0 0 .707-.34c.175-.227.33-.686.465-1.38.219-1.062.527-1.85.926-2.362.398-.513.941-.77 1.629-.77.76 0 1.377.314 1.851.941.474.628.711 1.455.711 2.48 0 1.1-.281 1.967-.844 2.602-.562.636-1.208.938-1.937.907l-.047-.016v-1.766c.49-.02.846-.197 1.07-.53.224-.334.336-.74.336-1.22 0-.49-.094-.867-.281-1.132a.882.882 0 0 0-.758-.399zm2.461-7.195c0 1.198-.392 2.152-1.176 2.863-.784.711-1.79 1.067-3.02 1.067h-.312c-1.229 0-2.248-.353-3.058-1.059-.81-.706-1.213-1.59-1.207-2.652 0-1.141.345-2.015 1.035-2.621.69-.607 1.616-.91 2.777-.91H8.07v5.273l.04.015c.671-.03 1.22-.227 1.648-.59.427-.361.64-.863.64-1.503 0-.51-.062-.948-.187-1.313a4.3 4.3 0 0 0-.54-1.054l1.243-.61c.281.318.518.74.711 1.266.193.526.29 1.135.29 1.828zm-7.25.219c0 .468.186.854.559 1.156.372.302.845.49 1.418.562l.039-.015v-3.352h-.196c-.536 0-.974.137-1.312.41-.339.274-.508.687-.508 1.239zm4.79-9.813c-.293 0-.535.125-.727.375-.193.25-.362.716-.508 1.399-.214 1.01-.517 1.774-.91 2.293-.394.518-.929.777-1.606.777-.708 0-1.312-.3-1.812-.899s-.75-1.388-.75-2.367c0-1.031.254-1.85.761-2.457.508-.607 1.137-.897 1.887-.87l.047.015v1.82a1.19 1.19 0 0 0-.899.399c-.25.265-.375.63-.375 1.093 0 .459.103.808.31 1.047.205.24.456.36.753.36a.846.846 0 0 0 .707-.34c.175-.227.33-.687.465-1.38.219-1.062.527-1.85.926-2.363.398-.513.941-.77 1.629-.77.76 0 1.377.315 1.851.942.474.628.711 1.455.711 2.48 0 1.1-.281 1.967-.844 2.602-.562.636-1.208.938-1.937.907L9.086 160v-1.766c.49-.02.846-.198 1.07-.53.224-.334.336-.74.336-1.22 0-.49-.094-.867-.281-1.132a.882.882 0 0 0-.758-.399z"/>
        <path stroke="#D8E5EF" stroke-linecap="square" d="M48.5 296V57.5M60.5 296v-4.5M73.25 296v-5M85.25 296v-5M96.5 296v-5M108.25 296v-5M120.25 296v-5M131.5 296v-5M144.25 296v-5M42.574 57.5h464.852"/>
        <path fill="#3F424F" d="M28.888 81.61a2.23 2.23 0 0 1-.472 1.412 2.66 2.66 0 0 1-1.258.878c.606.187 1.093.498 1.46.933.367.436.55.945.55 1.528 0 .894-.299 1.58-.896 2.061-.597.481-1.364.722-2.303.722-.957 0-1.73-.24-2.321-.718-.59-.479-.885-1.167-.885-2.065 0-.588.18-1.1.54-1.534.36-.436.843-.747 1.449-.933-.524-.183-.94-.474-1.248-.875a2.248 2.248 0 0 1-.461-1.409c0-.856.27-1.522.81-1.996s1.24-.71 2.102-.71c.857 0 1.56.237 2.109.714.55.476.824 1.14.824 1.992zm-.54 4.758c0-.629-.228-1.14-.684-1.535-.456-.394-1.025-.59-1.709-.59-.693 0-1.262.196-1.709.59-.447.395-.67.906-.67 1.535 0 .652.221 1.162.663 1.531.442.37 1.019.554 1.73.554.692 0 1.262-.186 1.709-.557.446-.371.67-.88.67-1.528zm-.28-4.764c0-.575-.202-1.052-.606-1.433-.403-.38-.905-.57-1.507-.57-.615 0-1.119.182-1.51.546-.393.365-.589.85-.589 1.457 0 .587.198 1.058.592 1.411.394.353.901.53 1.52.53.607 0 1.108-.177 1.505-.53.396-.353.594-.824.594-1.411zm9.01 3.534c0 1.285-.279 2.274-.835 2.966-.556.693-1.328 1.04-2.317 1.04-.985 0-1.758-.348-2.321-1.043-.563-.695-.844-1.683-.844-2.963v-2.222c0-1.28.278-2.27.834-2.967.556-.697 1.328-1.046 2.317-1.046.989 0 1.764.349 2.324 1.046.56.697.841 1.686.841 2.967v2.222zm-.821-2.359c0-1.02-.2-1.806-.602-2.355-.4-.549-.982-.823-1.743-.823-.761 0-1.34.274-1.736.823-.397.55-.595 1.334-.595 2.355v2.482c0 1.011.202 1.796.605 2.355.403.558.983.837 1.74.837.756 0 1.334-.278 1.733-.834.398-.556.598-1.342.598-2.358v-2.482z"/>
        <path stroke="#D8E5EF" stroke-linecap="square" d="M42.574 83.5h464.852"/>
        <path fill="#3F424F" d="M29.134 104.744c-1.076 1.276-1.898 2.572-2.468 3.886-.57 1.315-.95 2.827-1.142 4.536l-.075.834h-.82l.075-.834c.192-1.686.588-3.212 1.19-4.577a16.33 16.33 0 0 1 2.392-3.845h-5.68v-.697h6.528v.697zm7.943 5.394c0 1.285-.278 2.274-.834 2.966-.556.693-1.328 1.04-2.317 1.04-.985 0-1.758-.348-2.321-1.043-.563-.695-.844-1.683-.844-2.963v-2.222c0-1.28.278-2.27.834-2.967.556-.697 1.328-1.046 2.317-1.046.989 0 1.764.349 2.324 1.046.56.697.841 1.686.841 2.967v2.222zm-.82-2.359c0-1.02-.2-1.806-.602-2.355-.4-.549-.982-.823-1.743-.823-.761 0-1.34.274-1.736.823-.397.55-.595 1.334-.595 2.355v2.482c0 1.011.202 1.796.605 2.355.403.558.983.837 1.74.837.756 0 1.334-.278 1.733-.834.398-.556.598-1.342.598-2.358v-2.482z"/>
        <path stroke="#D8E5EF" stroke-linecap="square" d="M42.574 109.5h464.852M42.574 212.5h464.852"/>
        <path fill="#3F424F" d="M28.033 188.794h1.559v.69h-1.559V192h-.813v-2.516h-4.67v-.464l4.588-6.973h.895v6.747zm-4.512 0h3.699v-5.674l-.041-.014-.349.746-3.309 4.942zm13.556-.656c0 1.285-.278 2.274-.834 2.966-.556.693-1.328 1.04-2.317 1.04-.985 0-1.758-.348-2.321-1.043-.563-.695-.844-1.683-.844-2.963v-2.222c0-1.28.278-2.27.834-2.967.556-.697 1.328-1.046 2.317-1.046.989 0 1.764.349 2.324 1.046.56.697.841 1.686.841 2.967v2.222zm-.82-2.359c0-1.02-.2-1.806-.602-2.355-.4-.549-.982-.823-1.743-.823-.761 0-1.34.274-1.736.823-.397.55-.595 1.334-.595 2.355v2.482c0 1.011.202 1.796.605 2.355.403.558.983.837 1.74.837.756 0 1.334-.278 1.733-.834.398-.556.598-1.342.598-2.358v-2.482z"/>
        <path stroke="#D8E5EF" stroke-linecap="square" d="M42.574 186.5h464.852M42.574 161.5h464.852"/>
        <path fill="#3F424F" d="M26.502 129.903c.342 0 .679.04 1.012.117.332.077.629.189.888.334l-.212.67a3.353 3.353 0 0 0-.772-.32 3.576 3.576 0 0 0-.916-.103c-.738 0-1.35.287-1.835.86-.486.575-.729 1.33-.729 2.264v.881a3.01 3.01 0 0 1 1.046-.854 3.077 3.077 0 0 1 1.409-.321c.893 0 1.6.307 2.119.923.52.615.779 1.417.779 2.406 0 .98-.28 1.788-.837 2.427-.559.638-1.284.957-2.178.957-.916 0-1.671-.342-2.266-1.026-.594-.683-.892-1.62-.892-2.81V133.8c0-1.149.326-2.085.978-2.81.651-.724 1.453-1.087 2.406-1.087zm-.273 4.198c-.552 0-1.034.143-1.446.43a2.157 2.157 0 0 0-.845 1.108v.731c0 .953.22 1.705.657 2.256.437.551.998.827 1.681.827.666 0 1.198-.26 1.597-.783.398-.521.598-1.158.598-1.91 0-.798-.194-1.44-.581-1.928-.388-.488-.941-.731-1.661-.731zm10.848 2.037c0 1.285-.278 2.274-.834 2.966-.556.693-1.328 1.04-2.317 1.04-.985 0-1.758-.348-2.321-1.043-.563-.695-.844-1.683-.844-2.963v-2.222c0-1.28.278-2.27.834-2.967.556-.697 1.328-1.046 2.317-1.046.989 0 1.764.349 2.324 1.046.56.697.841 1.686.841 2.967v2.222zm-.82-2.359c0-1.02-.2-1.806-.602-2.355-.4-.549-.982-.823-1.743-.823-.761 0-1.34.274-1.736.823-.397.55-.595 1.334-.595 2.355v2.482c0 1.011.202 1.796.605 2.355.403.558.983.837 1.74.837.756 0 1.334-.278 1.733-.834.398-.556.598-1.342.598-2.358v-2.482z"/>
        <path stroke="#D8E5EF" stroke-linecap="square" d="M42.574 135.5h464.852M42.574 238.5h464.852"/>
        <path fill="#3F424F" d="M26.714 268.048h-.82V258.9l-2.53.294v-.574l3.35-.601v10.028zm10.363-3.91c0 1.285-.278 2.274-.834 2.966-.556.693-1.328 1.04-2.317 1.04-.985 0-1.758-.348-2.321-1.043-.563-.695-.844-1.683-.844-2.963v-2.222c0-1.28.278-2.27.834-2.967.556-.697 1.328-1.046 2.317-1.046.989 0 1.764.349 2.324 1.046.56.697.841 1.686.841 2.967v2.222zm-.82-2.359c0-1.02-.2-1.806-.602-2.355-.4-.549-.982-.823-1.743-.823-.761 0-1.34.274-1.736.823-.397.55-.595 1.334-.595 2.355v2.482c0 1.011.202 1.796.605 2.355.403.558.983.837 1.74.837.756 0 1.334-.278 1.733-.834.398-.556.598-1.342.598-2.358v-2.482z"/>
        <path stroke="#D8E5EF" stroke-linecap="square" d="M42.574 264.5h464.852M155.25 296v-5M166.5 296v-5M179.25 296v-5M190.25 296v-5M201.5 296v-5M214.25 296v-5"/>
        <path fill="#E84D4D" fill-rule="nonzero" d="M109.563 290.297V282H84.16l-11.07 2.227H60.588L49 287.148v3.149z"/>
        <path fill="#E84D4D" fill-rule="nonzero" d="M108 290.17h52V266l-5.702 7.368H141.96l-11.412 5.716-11.567 2.736H108zM160 290.727h94.617l-36.37-20.21-16.079-21.89L186.108 234l-8.335 14.627-11.799 10.167L160 266.18z"/>
        <path stroke="#D8E5EF" stroke-linecap="square" d="M42.574 290.5h464.852"/>
        <path fill-rule="nonzero" stroke="#3784F4" stroke-dasharray="4,4" stroke-linecap="square" stroke-width="2" d="M108.25 37.5v252M160.25 37.5v252"/>
        <path stroke="#D8E5EF" stroke-linecap="square" d="M225.5 296v-5M238.25 296v-5M249.25 296v-5M260.5 296v-5M273.25 296v-5M284.25 296v-5M295.5 296v-5M308.25 296v-5M319.5 296v-5M331.25 296v-5M343.25 296v-5M354.5 296v-5M367.25 296v-5M378.25 296v-5M389.5 296v-5M402.25 296v-5M413.5 296v-5M425.25 296v-5M437.25 296v-5M448.5 296v-5M461.25 296v-5M472.25 296v-5M483.5 296v-5M496.25 296v-5"/>
        <path fill="#3F424F" d="M23.371 160.495l.554-5.448h4.833v.759h-4.136l-.37 3.548a2.8 2.8 0 0 1 .828-.527c.3-.123.709-.191 1.224-.205.847-.014 1.531.271 2.05.855.52.583.78 1.367.78 2.351 0 1.007-.252 1.812-.756 2.413-.503.602-1.26.903-2.273.903-.82 0-1.503-.23-2.05-.687-.547-.458-.81-1.136-.786-2.034l.013-.041h.732c0 .67.19 1.182.57 1.538.381.355.888.533 1.521.533.739 0 1.291-.223 1.658-.67.367-.446.55-1.094.55-1.941 0-.743-.183-1.339-.55-1.788-.367-.449-.88-.673-1.541-.673-.638 0-1.125.101-1.46.304-.335.203-.577.51-.728.92l-.663-.11zm13.706.643c0 1.285-.278 2.274-.834 2.966-.556.693-1.328 1.04-2.317 1.04-.985 0-1.758-.348-2.321-1.043-.563-.695-.844-1.683-.844-2.963v-2.222c0-1.28.278-2.27.834-2.967.556-.697 1.328-1.046 2.317-1.046.989 0 1.764.349 2.324 1.046.56.697.841 1.686.841 2.967v2.222zm-.82-2.359c0-1.02-.2-1.806-.602-2.355-.4-.549-.982-.823-1.743-.823-.761 0-1.34.274-1.736.823-.397.55-.595 1.334-.595 2.355v2.482c0 1.011.202 1.796.605 2.355.403.558.983.837 1.74.837.756 0 1.334-.278 1.733-.834.398-.556.598-1.342.598-2.358v-2.482z"/>
        <path stroke="#D8E5EF" stroke-linecap="square" d="M48.5 296V57.5M60.5 296v-4.5M73.25 296v-5M85.25 296v-5M96.5 296v-5M108.25 296v-5M120.25 296v-5M131.5 296v-5M144.25 296v-5M155.25 296v-5M166.5 296v-5M179.25 296v-5M190.25 296v-5M201.5 296v-5M214.25 296v-5"/>
        <path fill="#E84D4D" fill-rule="nonzero" d="M109.563 290.297V282H84.16l-11.07 2.227H60.588L49 287.148v3.149z"/>
        <path fill="#E84D4D" fill-rule="nonzero" d="M108 290.17h52V266l-5.702 7.368H141.96l-11.412 5.716-11.567 2.736H108zM160 290.727h94.617l-36.37-20.21-16.079-21.89L186.108 234l-8.335 14.627-11.799 10.167L160 266.18z"/>
    </g>
</svg>
