<?xml version="1.0" encoding="utf-8"?>
<!-- Generator: Adobe Illustrator 23.0.1, SVG Export Plug-In . SVG Version: 6.00 Build 0)  -->
<svg version="1.1" id="Layer_1" xmlns="http://www.w3.org/2000/svg" xmlns:xlink="http://www.w3.org/1999/xlink" x="0px" y="0px"
	 width="320px" height="525px" viewBox="0 0 320 525" style="enable-background:new 0 0 320 525;" xml:space="preserve">
<style type="text/css">
	.st0{fill:#37B2F4;}
	.st1{opacity:0.22;fill-rule:evenodd;clip-rule:evenodd;fill:#37B2F4;enable-background:new    ;}
	.st2{fill-rule:evenodd;clip-rule:evenodd;fill:#3F424F;}
	.st3{fill-rule:evenodd;clip-rule:evenodd;fill:#37B2F4;}
	.st4{fill-rule:evenodd;clip-rule:evenodd;fill:#FFFFFF;}
	.st5{fill:none;stroke:#37B2F4;stroke-width:2;}
	.st6{fill:#FFFFFF;}
	.st7{fill:none;}
</style>
<path class="st0" d="M169.2,106l7-14h-14L169.2,106z M168.2,54v40h2V53h-2V54z"/>
<path class="st1" d="M99,107h140v38H99V107z"/>
<path class="st2" d="M141.2,130H140v-6h-1.4v-0.9l2.6-0.3V130z M145.3,130h-1.2v-1.1h1.2V130z M151.7,128.1l0.1,0.5h0l0.1-0.5
	l1.7-5.3h1.3l-2.5,7.1h-1.1l-2.5-7.1h1.3L151.7,128.1z M157.9,130.1c-0.7,0-1.3-0.2-1.8-0.7c-0.4-0.5-0.7-1.1-0.7-1.9v-0.2
	c0-0.8,0.2-1.4,0.7-1.9c0.4-0.5,1-0.8,1.7-0.8c0.7,0,1.3,0.2,1.6,0.6c0.4,0.4,0.6,1,0.6,1.7v0.7h-3.3l0,0c0,0.4,0.1,0.8,0.4,1
	c0.2,0.3,0.5,0.4,0.9,0.4c0.3,0,0.6,0,0.8-0.1c0.2-0.1,0.4-0.2,0.7-0.3l0.4,0.8c-0.2,0.2-0.5,0.3-0.8,0.4
	C158.7,130,158.4,130.1,157.9,130.1L157.9,130.1z M157.8,125.6c-0.3,0-0.6,0.1-0.7,0.3c-0.2,0.2-0.3,0.5-0.4,0.9l0,0h2.1v-0.1
	c0-0.3-0.1-0.6-0.3-0.8C158.4,125.7,158.1,125.6,157.8,125.6L157.8,125.6z M163.6,125.8l-0.5,0c-0.2,0-0.4,0.1-0.6,0.1
	c-0.2,0.1-0.3,0.2-0.4,0.4v3.7h-1.2v-5.3h1.1l0.1,0.8c0.1-0.3,0.3-0.5,0.5-0.6c0.2-0.2,0.5-0.2,0.7-0.2c0.1,0,0.1,0,0.2,0
	c0.1,0,0.1,0,0.2,0L163.6,125.8L163.6,125.8z M165.7,130h-1.2v-5.3h1.2V130z M165.7,123.4h-1.2v-1h1.2V123.4z M167.3,130v-4.4h-0.8
	v-0.9h0.8v-0.4c0-0.6,0.2-1.1,0.6-1.5c0.4-0.3,0.9-0.5,1.6-0.5c0.2,0,0.5,0,0.7,0.1c0.2,0.1,0.5,0.1,0.8,0.2l-0.2,1
	c-0.2-0.1-0.4-0.1-0.6-0.2c-0.2,0-0.4-0.1-0.6-0.1c-0.4,0-0.6,0.1-0.8,0.2c-0.2,0.2-0.2,0.4-0.2,0.7v0.4h1v0.9h-1v4.4H167.3
	L167.3,130z M171.5,130h-1.2v-5.3h1.2L171.5,130L171.5,130z M175,129.2c0.3,0,0.5-0.1,0.7-0.3c0.2-0.2,0.3-0.4,0.3-0.6h1.1l0,0
	c0,0.5-0.2,0.9-0.6,1.3c-0.4,0.4-0.9,0.5-1.5,0.5c-0.8,0-1.4-0.3-1.8-0.8c-0.4-0.5-0.6-1.1-0.6-1.9v-0.2c0-0.8,0.2-1.4,0.6-1.9
	c0.4-0.5,1-0.8,1.8-0.8c0.6,0,1.1,0.2,1.5,0.6c0.4,0.4,0.6,0.8,0.6,1.4l0,0H176c0-0.3-0.1-0.5-0.3-0.7c-0.2-0.2-0.4-0.3-0.7-0.3
	c-0.4,0-0.8,0.2-0.9,0.5c-0.2,0.3-0.3,0.7-0.3,1.2v0.2c0,0.5,0.1,0.9,0.3,1.2C174.2,129,174.6,129.2,175,129.2L175,129.2z
	 M181.2,130c0-0.1-0.1-0.3-0.1-0.4c0-0.1,0-0.3-0.1-0.4c-0.2,0.3-0.4,0.5-0.6,0.6c-0.3,0.2-0.6,0.3-0.9,0.3c-0.6,0-1-0.1-1.3-0.4
	c-0.3-0.3-0.4-0.7-0.4-1.2c0-0.5,0.2-0.9,0.6-1.2c0.4-0.3,1-0.4,1.7-0.4h0.9v-0.5c0-0.3-0.1-0.5-0.2-0.7c-0.2-0.2-0.4-0.2-0.7-0.2
	c-0.3,0-0.5,0.1-0.6,0.2c-0.2,0.1-0.2,0.3-0.2,0.5h-1.1l0,0c0-0.4,0.2-0.8,0.6-1.1c0.4-0.3,0.9-0.5,1.5-0.5c0.6,0,1.1,0.2,1.5,0.5
	c0.4,0.3,0.6,0.8,0.6,1.3v2.3c0,0.2,0,0.4,0,0.6c0,0.2,0.1,0.4,0.1,0.6L181.2,130L181.2,130z M179.8,129.1c0.3,0,0.6-0.1,0.8-0.2
	c0.2-0.1,0.4-0.3,0.5-0.5v-0.8h-0.9c-0.3,0-0.6,0.1-0.8,0.3c-0.2,0.2-0.3,0.4-0.3,0.6c0,0.2,0.1,0.4,0.2,0.5
	S179.6,129.1,179.8,129.1L179.8,129.1z M185,123.4v1.3h0.9v0.9H185v2.9c0,0.2,0,0.4,0.1,0.5s0.2,0.1,0.4,0.1c0.1,0,0.2,0,0.4-0.1
	l0.1,0.9c-0.1,0.1-0.2,0.1-0.4,0.1c-0.1,0-0.3,0-0.4,0c-0.4,0-0.8-0.1-1-0.4c-0.2-0.3-0.4-0.7-0.4-1.2v-2.9H183v-0.9h0.8v-1.3
	L185,123.4L185,123.4z M188.3,130h-1.2v-5.3h1.2V130L188.3,130z M188.3,123.4h-1.2v-1h1.2V123.4z M189.4,127.3
	c0-0.8,0.2-1.4,0.6-1.9c0.4-0.5,1-0.8,1.8-0.8c0.8,0,1.4,0.3,1.8,0.8c0.4,0.5,0.6,1.1,0.6,1.9v0.1c0,0.8-0.2,1.4-0.6,1.9
	c-0.4,0.5-1,0.7-1.8,0.7c-0.8,0-1.4-0.3-1.8-0.8c-0.4-0.5-0.6-1.1-0.6-1.9L189.4,127.3L189.4,127.3z M190.5,127.4
	c0,0.5,0.1,0.9,0.3,1.3c0.2,0.3,0.5,0.5,0.9,0.5c0.4,0,0.7-0.2,0.9-0.5c0.2-0.3,0.3-0.7,0.3-1.3v-0.1c0-0.5-0.1-0.9-0.3-1.2
	c-0.2-0.3-0.5-0.5-0.9-0.5c-0.4,0-0.7,0.2-0.9,0.5c-0.2,0.3-0.3,0.7-0.3,1.2L190.5,127.4L190.5,127.4z M196.3,124.7l0.1,0.8
	c0.2-0.3,0.4-0.5,0.7-0.6c0.3-0.2,0.6-0.2,0.9-0.2c0.6,0,1,0.2,1.3,0.5c0.3,0.3,0.5,0.9,0.5,1.6v3.3h-1.2v-3.3
	c0-0.4-0.1-0.7-0.2-0.8c-0.2-0.2-0.4-0.3-0.8-0.3c-0.4,0-0.8,0.2-1.1,0.6v3.8h-1.2v-5.3L196.3,124.7L196.3,124.7z M183,165.1v2.9
	h-1.2v-7.1h2.6c0.8,0,1.4,0.2,1.8,0.5s0.6,0.9,0.6,1.5c0,0.4-0.1,0.7-0.3,0.9c-0.2,0.3-0.5,0.5-0.8,0.6c0.4,0.1,0.7,0.3,0.9,0.6
	c0.2,0.3,0.3,0.6,0.3,1.1v0.6c0,0.2,0,0.4,0.1,0.6c0.1,0.2,0.1,0.4,0.3,0.5v0.1H186c-0.1-0.1-0.2-0.3-0.3-0.5c0-0.2-0.1-0.5-0.1-0.7
	v-0.6c0-0.4-0.1-0.7-0.3-0.9c-0.2-0.2-0.5-0.3-0.9-0.3L183,165.1L183,165.1z M183,164.1h1.4c0.5,0,0.8-0.1,1-0.3
	c0.2-0.2,0.3-0.5,0.3-0.8c0-0.4-0.1-0.6-0.3-0.8c-0.2-0.2-0.5-0.3-1-0.3H183L183,164.1L183,164.1z M189.5,168h-1.2v-5.3h1.2V168z
	 M189.5,161.4h-1.2v-1h1.2V161.4z M193.8,166.6c0-0.2-0.1-0.4-0.2-0.5c-0.2-0.1-0.4-0.2-0.9-0.3c-0.6-0.1-1.1-0.3-1.4-0.6
	s-0.5-0.6-0.5-1c0-0.4,0.2-0.8,0.6-1.1c0.4-0.3,0.9-0.5,1.5-0.5c0.6,0,1.2,0.2,1.5,0.5c0.4,0.3,0.6,0.7,0.5,1.2l0,0h-1.1
	c0-0.2-0.1-0.4-0.2-0.6c-0.2-0.2-0.4-0.2-0.7-0.2c-0.3,0-0.5,0.1-0.7,0.2c-0.1,0.1-0.2,0.3-0.2,0.5c0,0.2,0.1,0.3,0.2,0.4
	c0.1,0.1,0.4,0.2,0.9,0.3c0.7,0.1,1.2,0.3,1.5,0.6c0.3,0.2,0.5,0.6,0.5,1c0,0.5-0.2,0.9-0.6,1.2s-0.9,0.4-1.6,0.4
	c-0.7,0-1.2-0.2-1.6-0.5c-0.4-0.4-0.6-0.8-0.6-1.2l0,0h1.1c0,0.3,0.1,0.5,0.3,0.7c0.2,0.1,0.5,0.2,0.8,0.2c0.3,0,0.5-0.1,0.7-0.2
	C193.7,166.9,193.8,166.8,193.8,166.6L193.8,166.6z M197.8,165.7h-0.5v2.3H196v-7.6h1.2v4.4h0.5l1.3-2h1.4l-1.7,2.4l2,2.9h-1.4
	L197.8,165.7L197.8,165.7z M207.8,166.3H205l-0.6,1.7h-1.2l2.6-7.1h1.1l2.6,7.1h-1.2L207.8,166.3z M205.3,165.3h2.1l-1-3h0
	L205.3,165.3z M213.2,166.6c0-0.2-0.1-0.4-0.2-0.5c-0.2-0.1-0.4-0.2-0.9-0.3c-0.6-0.1-1.1-0.3-1.4-0.6s-0.5-0.6-0.5-1
	c0-0.4,0.2-0.8,0.6-1.1c0.4-0.3,0.9-0.5,1.5-0.5c0.6,0,1.2,0.2,1.5,0.5c0.4,0.3,0.6,0.7,0.5,1.2l0,0h-1.1c0-0.2-0.1-0.4-0.2-0.6
	c-0.2-0.2-0.4-0.2-0.7-0.2c-0.3,0-0.5,0.1-0.7,0.2c-0.1,0.1-0.2,0.3-0.2,0.5c0,0.2,0.1,0.3,0.2,0.4s0.4,0.2,0.9,0.3
	c0.7,0.1,1.2,0.3,1.5,0.6c0.3,0.2,0.5,0.6,0.5,1c0,0.5-0.2,0.9-0.6,1.2c-0.4,0.3-0.9,0.4-1.6,0.4c-0.7,0-1.2-0.2-1.6-0.5
	c-0.4-0.4-0.6-0.8-0.6-1.2l0,0h1.1c0,0.3,0.1,0.5,0.3,0.7c0.2,0.1,0.5,0.2,0.8,0.2c0.3,0,0.5-0.1,0.7-0.2
	C213.1,166.9,213.2,166.8,213.2,166.6L213.2,166.6z M218.4,166.6c0-0.2-0.1-0.4-0.2-0.5c-0.2-0.1-0.4-0.2-0.9-0.3
	c-0.6-0.1-1.1-0.3-1.4-0.6c-0.3-0.2-0.5-0.6-0.5-1c0-0.4,0.2-0.8,0.6-1.1c0.4-0.3,0.9-0.5,1.5-0.5c0.6,0,1.2,0.2,1.5,0.5
	c0.4,0.3,0.6,0.7,0.5,1.2l0,0h-1.1c0-0.2-0.1-0.4-0.2-0.6c-0.2-0.2-0.4-0.2-0.7-0.2c-0.3,0-0.5,0.1-0.7,0.2
	c-0.1,0.1-0.2,0.3-0.2,0.5c0,0.2,0.1,0.3,0.2,0.4s0.4,0.2,0.9,0.3c0.7,0.1,1.2,0.3,1.5,0.6c0.3,0.2,0.5,0.6,0.5,1
	c0,0.5-0.2,0.9-0.6,1.2c-0.4,0.3-0.9,0.4-1.6,0.4c-0.7,0-1.2-0.2-1.6-0.5c-0.4-0.4-0.6-0.8-0.6-1.2l0,0h1.1c0,0.3,0.1,0.5,0.3,0.7
	c0.2,0.1,0.5,0.2,0.8,0.2c0.3,0,0.5-0.1,0.7-0.2C218.3,166.9,218.4,166.8,218.4,166.6L218.4,166.6z M222.9,168.1
	c-0.7,0-1.3-0.2-1.8-0.7c-0.4-0.5-0.7-1.1-0.7-1.9v-0.2c0-0.8,0.2-1.4,0.7-1.9c0.4-0.5,1-0.8,1.7-0.8c0.7,0,1.3,0.2,1.6,0.6
	c0.4,0.4,0.6,1,0.6,1.7v0.7h-3.3l0,0c0,0.4,0.1,0.8,0.4,1c0.2,0.3,0.5,0.4,0.9,0.4c0.3,0,0.6,0,0.8-0.1c0.2-0.1,0.4-0.2,0.7-0.3
	l0.4,0.8c-0.2,0.2-0.5,0.3-0.8,0.4C223.7,168,223.3,168.1,222.9,168.1L222.9,168.1z M222.7,163.6c-0.3,0-0.6,0.1-0.7,0.4
	c-0.2,0.2-0.3,0.5-0.4,0.9l0,0h2.1v-0.1c0-0.3-0.1-0.6-0.3-0.8C223.3,163.7,223.1,163.6,222.7,163.6L222.7,163.6z M228.9,166.6
	c0-0.2-0.1-0.4-0.2-0.5c-0.2-0.1-0.4-0.2-0.9-0.3c-0.6-0.1-1.1-0.3-1.4-0.6c-0.3-0.2-0.5-0.6-0.5-1c0-0.4,0.2-0.8,0.6-1.1
	c0.4-0.3,0.9-0.5,1.5-0.5c0.6,0,1.2,0.2,1.5,0.5c0.4,0.3,0.6,0.7,0.5,1.2l0,0h-1.1c0-0.2-0.1-0.4-0.2-0.6c-0.2-0.2-0.4-0.2-0.7-0.2
	c-0.3,0-0.5,0.1-0.7,0.2c-0.1,0.1-0.2,0.3-0.2,0.5c0,0.2,0.1,0.3,0.2,0.4s0.4,0.2,0.9,0.3c0.7,0.1,1.2,0.3,1.5,0.6
	c0.3,0.2,0.5,0.6,0.5,1c0,0.5-0.2,0.9-0.6,1.2c-0.4,0.3-0.9,0.4-1.6,0.4c-0.7,0-1.2-0.2-1.6-0.5c-0.4-0.4-0.6-0.8-0.6-1.2l0,0h1.1
	c0,0.3,0.1,0.5,0.3,0.7c0.2,0.1,0.5,0.2,0.8,0.2c0.3,0,0.5-0.1,0.7-0.2C228.8,166.9,228.9,166.8,228.9,166.6L228.9,166.6z
	 M234.1,166.6c0-0.2-0.1-0.4-0.2-0.5c-0.2-0.1-0.4-0.2-0.9-0.3c-0.6-0.1-1.1-0.3-1.4-0.6c-0.3-0.2-0.5-0.6-0.5-1
	c0-0.4,0.2-0.8,0.6-1.1c0.4-0.3,0.9-0.5,1.5-0.5c0.6,0,1.2,0.2,1.5,0.5c0.4,0.3,0.6,0.7,0.5,1.2l0,0H234c0-0.2-0.1-0.4-0.2-0.6
	c-0.2-0.2-0.4-0.2-0.7-0.2c-0.3,0-0.5,0.1-0.7,0.2c-0.1,0.1-0.2,0.3-0.2,0.5c0,0.2,0.1,0.3,0.2,0.4s0.4,0.2,0.9,0.3
	c0.7,0.1,1.2,0.3,1.5,0.6c0.3,0.2,0.5,0.6,0.5,1c0,0.5-0.2,0.9-0.6,1.2s-0.9,0.4-1.6,0.4c-0.7,0-1.2-0.2-1.6-0.5
	c-0.4-0.4-0.6-0.8-0.6-1.2l0,0h1.1c0,0.3,0.1,0.5,0.3,0.7c0.2,0.1,0.5,0.2,0.8,0.2c0.3,0,0.5-0.1,0.7-0.2
	C234,166.9,234.1,166.8,234.1,166.6L234.1,166.6z M237.4,162.7l0.1,0.7c0.2-0.2,0.4-0.4,0.6-0.6c0.3-0.1,0.6-0.2,0.9-0.2
	c0.3,0,0.6,0.1,0.9,0.2c0.2,0.2,0.4,0.4,0.6,0.7c0.2-0.3,0.4-0.5,0.6-0.7s0.6-0.2,0.9-0.2c0.5,0,0.9,0.2,1.3,0.5
	c0.3,0.4,0.5,0.9,0.5,1.7v3.2h-1.2v-3.2c0-0.4-0.1-0.8-0.2-0.9c-0.2-0.2-0.4-0.3-0.7-0.3c-0.3,0-0.5,0.1-0.6,0.2
	c-0.2,0.1-0.3,0.3-0.4,0.6c0,0,0,0.1,0,0.1c0,0,0,0.1,0,0.1v3.4h-1.2v-3.2c0-0.4-0.1-0.7-0.2-0.9c-0.2-0.2-0.4-0.3-0.7-0.3
	c-0.2,0-0.4,0-0.6,0.1c-0.2,0.1-0.3,0.2-0.4,0.4v3.9h-1.2v-5.3L237.4,162.7L237.4,162.7z M247.3,168.1c-0.8,0-1.3-0.2-1.8-0.7
	s-0.7-1.1-0.7-1.9v-0.2c0-0.8,0.2-1.4,0.7-1.9c0.4-0.5,1-0.8,1.7-0.8c0.7,0,1.3,0.2,1.6,0.6c0.4,0.4,0.6,1,0.6,1.7v0.7H246l0,0
	c0,0.4,0.1,0.8,0.4,1s0.5,0.4,0.9,0.4c0.3,0,0.6,0,0.8-0.1c0.2-0.1,0.4-0.2,0.7-0.3l0.4,0.8c-0.2,0.2-0.5,0.3-0.8,0.4
	C248.1,168,247.7,168.1,247.3,168.1L247.3,168.1z M247.1,163.6c-0.3,0-0.6,0.1-0.7,0.4c-0.2,0.2-0.3,0.5-0.4,0.9l0,0h2.1v-0.1
	c0-0.3-0.1-0.6-0.3-0.8C247.7,163.7,247.5,163.6,247.1,163.6L247.1,163.6z M251.4,162.7l0.1,0.8c0.2-0.3,0.4-0.5,0.7-0.6
	c0.3-0.2,0.6-0.2,0.9-0.2c0.6,0,1,0.2,1.3,0.5c0.3,0.3,0.5,0.9,0.5,1.6v3.3h-1.2v-3.3c0-0.4-0.1-0.7-0.2-0.8
	c-0.2-0.2-0.4-0.3-0.8-0.3c-0.4,0-0.8,0.2-1.1,0.6v3.8h-1.2v-5.3L251.4,162.7L251.4,162.7z M257.4,161.4v1.3h0.9v0.9h-0.9v2.9
	c0,0.2,0,0.4,0.1,0.5c0.1,0.1,0.2,0.1,0.4,0.1c0.1,0,0.2,0,0.4-0.1l0.1,0.9c-0.1,0.1-0.2,0.1-0.4,0.1c-0.1,0-0.3,0-0.4,0
	c-0.4,0-0.8-0.1-1-0.4c-0.2-0.3-0.4-0.7-0.4-1.2v-2.9h-0.8v-0.9h0.8v-1.3H257.4L257.4,161.4z M177.7,162c0-0.1-0.1-0.2-0.1-0.3
	c0-0.1,0-0.2,0-0.3c-0.1,0.2-0.3,0.4-0.5,0.5s-0.4,0.2-0.7,0.2c-0.4,0-0.8-0.1-1-0.3c-0.2-0.2-0.4-0.5-0.4-0.9c0-0.4,0.2-0.7,0.5-1
	c0.3-0.2,0.8-0.3,1.4-0.3h0.7v-0.4c0-0.2-0.1-0.4-0.2-0.5c-0.1-0.1-0.3-0.2-0.6-0.2c-0.2,0-0.4,0.1-0.5,0.2
	c-0.1,0.1-0.2,0.2-0.2,0.4h-0.9l0,0c0-0.3,0.1-0.6,0.4-0.9c0.3-0.3,0.7-0.4,1.2-0.4c0.5,0,0.9,0.1,1.2,0.4s0.5,0.6,0.5,1.1v1.9
	c0,0.2,0,0.3,0,0.5c0,0.2,0.1,0.3,0.1,0.5L177.7,162L177.7,162z M176.5,161.3c0.2,0,0.5-0.1,0.6-0.2c0.2-0.1,0.3-0.3,0.4-0.4v-0.6
	h-0.8c-0.3,0-0.5,0.1-0.6,0.2c-0.1,0.1-0.2,0.3-0.2,0.5c0,0.2,0.1,0.3,0.2,0.4C176.2,161.3,176.3,161.3,176.5,161.3L176.5,161.3z
	 M5.6,130v-7.1h2.3c0.9,0,1.6,0.3,2.2,0.8c0.6,0.6,0.8,1.3,0.8,2.2v1.1c0,0.9-0.3,1.6-0.8,2.2S8.8,130,7.9,130H5.6z M6.8,123.8v5.2
	h1.1c0.6,0,1.1-0.2,1.4-0.6c0.3-0.4,0.5-0.9,0.5-1.5v-1.1c0-0.6-0.2-1.1-0.5-1.5c-0.3-0.4-0.8-0.6-1.4-0.6
	C7.9,123.8,6.8,123.8,6.8,123.8z M13.3,130h-1.2v-5.3h1.2L13.3,130L13.3,130z M13.3,123.4h-1.2v-1h1.2L13.3,123.4L13.3,123.4z
	 M17.6,128.6c0-0.2-0.1-0.4-0.2-0.5c-0.2-0.1-0.4-0.2-0.9-0.3c-0.6-0.1-1.1-0.3-1.4-0.6c-0.3-0.2-0.5-0.6-0.5-1
	c0-0.4,0.2-0.8,0.6-1.1c0.4-0.3,0.9-0.5,1.5-0.5c0.6,0,1.2,0.2,1.5,0.5c0.4,0.3,0.6,0.7,0.5,1.2l0,0h-1.1c0-0.2-0.1-0.4-0.2-0.6
	c-0.2-0.2-0.4-0.2-0.7-0.2c-0.3,0-0.5,0.1-0.7,0.2c-0.1,0.1-0.2,0.3-0.2,0.5c0,0.2,0.1,0.3,0.2,0.4s0.4,0.2,0.9,0.3
	c0.7,0.1,1.2,0.3,1.5,0.6c0.3,0.2,0.5,0.6,0.5,1c0,0.5-0.2,0.9-0.6,1.2c-0.4,0.3-0.9,0.4-1.5,0.4c-0.7,0-1.2-0.2-1.6-0.5
	c-0.4-0.4-0.6-0.8-0.6-1.2l0,0h1.1c0,0.3,0.1,0.5,0.3,0.7c0.2,0.1,0.5,0.2,0.8,0.2c0.3,0,0.5-0.1,0.7-0.2
	C17.5,128.9,17.6,128.8,17.6,128.6L17.6,128.6z M22,129.2c0.3,0,0.5-0.1,0.7-0.3c0.2-0.2,0.3-0.4,0.3-0.6h1.1l0,0
	c0,0.5-0.2,0.9-0.6,1.3c-0.4,0.4-0.9,0.5-1.5,0.5c-0.8,0-1.4-0.3-1.8-0.8c-0.4-0.5-0.6-1.1-0.6-1.9v-0.2c0-0.8,0.2-1.4,0.6-1.9
	c0.4-0.5,1-0.8,1.8-0.8c0.6,0,1.1,0.2,1.5,0.6c0.4,0.4,0.6,0.8,0.6,1.4l0,0H23c0-0.3-0.1-0.5-0.3-0.7c-0.2-0.2-0.4-0.3-0.7-0.3
	c-0.4,0-0.8,0.2-0.9,0.5c-0.2,0.3-0.3,0.7-0.3,1.2v0.2c0,0.5,0.1,0.9,0.3,1.2C21.2,129,21.5,129.2,22,129.2z M28.2,130
	c0-0.1-0.1-0.3-0.1-0.4c0-0.1,0-0.3-0.1-0.4c-0.2,0.3-0.4,0.5-0.6,0.6c-0.3,0.2-0.6,0.3-0.9,0.3c-0.5,0-1-0.1-1.3-0.4
	c-0.3-0.3-0.4-0.7-0.4-1.2c0-0.5,0.2-0.9,0.6-1.2c0.4-0.3,1-0.4,1.7-0.4h0.9v-0.5c0-0.3-0.1-0.5-0.2-0.7c-0.2-0.2-0.4-0.2-0.7-0.2
	c-0.3,0-0.5,0.1-0.6,0.2c-0.2,0.1-0.2,0.3-0.2,0.5h-1.1l0,0c0-0.4,0.2-0.8,0.6-1.1c0.4-0.3,0.9-0.5,1.5-0.5c0.6,0,1.1,0.2,1.5,0.5
	c0.4,0.3,0.6,0.8,0.6,1.3v2.3c0,0.2,0,0.4,0,0.6c0,0.2,0.1,0.4,0.1,0.6L28.2,130L28.2,130z M26.8,129.1c0.3,0,0.6-0.1,0.8-0.2
	c0.2-0.1,0.4-0.3,0.5-0.5v-0.8h-0.9c-0.3,0-0.6,0.1-0.8,0.3c-0.2,0.2-0.3,0.4-0.3,0.6c0,0.2,0.1,0.4,0.2,0.5S26.5,129.1,26.8,129.1z
	 M33.1,125.8l-0.5,0c-0.2,0-0.4,0.1-0.6,0.1c-0.2,0.1-0.3,0.2-0.4,0.4v3.7h-1.2v-5.3h1.1l0.1,0.8c0.1-0.3,0.3-0.5,0.5-0.6
	c0.2-0.2,0.5-0.2,0.7-0.2c0.1,0,0.1,0,0.2,0c0.1,0,0.1,0,0.2,0C33.3,124.7,33.1,125.8,33.1,125.8z M33.7,127.4c0-0.8,0.2-1.5,0.5-2
	s0.9-0.8,1.5-0.8c0.3,0,0.5,0.1,0.8,0.2c0.2,0.1,0.4,0.3,0.6,0.5v-2.9h1.2v7.6h-1l-0.1-0.7c-0.2,0.2-0.4,0.4-0.6,0.6
	c-0.3,0.1-0.5,0.2-0.8,0.2c-0.6,0-1.2-0.2-1.5-0.7c-0.4-0.5-0.5-1.1-0.5-1.9C33.7,127.5,33.7,127.4,33.7,127.4z M34.9,127.5
	c0,0.5,0.1,0.9,0.3,1.2c0.2,0.3,0.5,0.4,0.9,0.4c0.2,0,0.5-0.1,0.6-0.2c0.2-0.1,0.3-0.3,0.4-0.5v-2.3c-0.1-0.2-0.3-0.3-0.4-0.5
	c-0.2-0.1-0.4-0.2-0.6-0.2c-0.4,0-0.7,0.2-0.9,0.5c-0.2,0.3-0.3,0.8-0.3,1.3C34.9,127.4,34.9,127.5,34.9,127.5z M2,124.3
	c0.2,0,0.4-0.1,0.6-0.2c0.2-0.1,0.2-0.3,0.2-0.5h0.9l0,0c0,0.4-0.1,0.7-0.5,1c-0.3,0.3-0.7,0.4-1.2,0.4c-0.6,0-1.1-0.2-1.4-0.6
	c-0.3-0.4-0.5-0.9-0.5-1.5v-0.1c0-0.6,0.2-1.1,0.5-1.5c0.3-0.4,0.8-0.6,1.4-0.6c0.5,0,0.9,0.1,1.2,0.4c0.3,0.3,0.5,0.7,0.5,1.1l0,0
	H2.9c0-0.2-0.1-0.4-0.2-0.6c-0.2-0.2-0.4-0.3-0.6-0.2c-0.4,0-0.6,0.1-0.8,0.4s-0.2,0.6-0.2,1v0.1c0,0.4,0.1,0.7,0.2,1
	C1.4,124.2,1.7,124.3,2,124.3L2,124.3z"/>
<path class="st0" d="M169.2,197l7-14h-14L169.2,197z M168.2,145v40h2v-41h-2V145z M47.2,126.3l14,7v-14
	C61.2,119.3,47.2,126.3,47.2,126.3z M99,125.3H59.2v2H100v-2H99z"/>
<path class="st1" d="M99,198h140v38H99V198z"/>
<path class="st2" d="M129.9,221h-4.7v-0.8l2.3-2.5c0.4-0.4,0.6-0.8,0.8-1c0.1-0.3,0.2-0.5,0.2-0.8c0-0.3-0.1-0.6-0.3-0.8
	c-0.2-0.2-0.4-0.3-0.8-0.3c-0.4,0-0.7,0.1-0.9,0.4c-0.2,0.2-0.3,0.6-0.3,1H125l0,0c0-0.6,0.2-1.2,0.6-1.6c0.4-0.4,1-0.6,1.8-0.6
	c0.7,0,1.2,0.2,1.6,0.6c0.4,0.4,0.6,0.9,0.6,1.5c0,0.4-0.1,0.8-0.3,1.2c-0.2,0.4-0.6,0.8-1.1,1.4l-1.6,1.7l0,0h3.2L129.9,221
	L129.9,221z M132.2,221H131v-1.1h1.2V221z M137.5,218.1v2.9h-1.2v-7.1h2.6c0.8,0,1.4,0.2,1.8,0.5c0.4,0.4,0.6,0.9,0.6,1.5
	c0,0.4-0.1,0.7-0.3,0.9c-0.2,0.3-0.5,0.5-0.8,0.6c0.4,0.1,0.7,0.3,0.9,0.6s0.3,0.6,0.3,1.1v0.6c0,0.2,0,0.4,0.1,0.6
	c0.1,0.2,0.1,0.4,0.3,0.5v0.1h-1.2c-0.1-0.1-0.2-0.3-0.3-0.5c0-0.2-0.1-0.5-0.1-0.7v-0.6c0-0.4-0.1-0.7-0.3-0.9s-0.5-0.3-0.9-0.3
	L137.5,218.1L137.5,218.1z M137.5,217.1h1.4c0.5,0,0.8-0.1,1-0.3c0.2-0.2,0.3-0.5,0.3-0.8c0-0.4-0.1-0.6-0.3-0.8
	c-0.2-0.2-0.5-0.3-1-0.3h-1.4L137.5,217.1L137.5,217.1z M144.1,221h-1.2v-5.3h1.2V221z M144.1,214.4h-1.2v-1h1.2V214.4z
	 M148.4,219.6c0-0.2-0.1-0.4-0.2-0.5c-0.2-0.1-0.4-0.2-0.9-0.3c-0.6-0.1-1.1-0.3-1.4-0.6c-0.3-0.2-0.5-0.6-0.5-1
	c0-0.4,0.2-0.8,0.6-1.1c0.4-0.3,0.9-0.5,1.5-0.5c0.6,0,1.2,0.2,1.5,0.5c0.4,0.3,0.6,0.7,0.5,1.2l0,0h-1.1c0-0.2-0.1-0.4-0.2-0.6
	c-0.2-0.2-0.4-0.2-0.7-0.2c-0.3,0-0.5,0.1-0.7,0.2c-0.1,0.1-0.2,0.3-0.2,0.5c0,0.2,0.1,0.3,0.2,0.4s0.4,0.2,0.9,0.3
	c0.7,0.1,1.2,0.3,1.5,0.6s0.5,0.6,0.5,1c0,0.5-0.2,0.9-0.6,1.2s-0.9,0.4-1.6,0.4c-0.7,0-1.2-0.2-1.6-0.5c-0.4-0.4-0.6-0.8-0.6-1.2
	l0,0h1.1c0,0.3,0.1,0.5,0.3,0.7c0.2,0.1,0.5,0.2,0.8,0.2c0.3,0,0.5-0.1,0.7-0.2C148.3,219.9,148.4,219.8,148.4,219.6L148.4,219.6z
	 M152.3,218.7h-0.5v2.3h-1.2v-7.6h1.2v4.4h0.5l1.3-2h1.4l-1.7,2.4l2,2.9h-1.4L152.3,218.7L152.3,218.7z M162.3,219.3h-2.8L159,221
	h-1.2l2.6-7.1h1.1l2.6,7.1h-1.2L162.3,219.3L162.3,219.3z M159.9,218.3h2.1l-1-3h0L159.9,218.3z M167.8,219.6c0-0.2-0.1-0.4-0.2-0.5
	c-0.2-0.1-0.4-0.2-0.9-0.3c-0.6-0.1-1.1-0.3-1.4-0.6c-0.3-0.2-0.5-0.6-0.5-1c0-0.4,0.2-0.8,0.6-1.1c0.4-0.3,0.9-0.5,1.5-0.5
	c0.6,0,1.2,0.2,1.5,0.5c0.4,0.3,0.6,0.7,0.5,1.2l0,0h-1.1c0-0.2-0.1-0.4-0.2-0.6c-0.2-0.2-0.4-0.2-0.7-0.2c-0.3,0-0.5,0.1-0.7,0.2
	c-0.1,0.1-0.2,0.3-0.2,0.5c0,0.2,0.1,0.3,0.2,0.4s0.4,0.2,0.9,0.3c0.7,0.1,1.2,0.3,1.5,0.6c0.3,0.2,0.5,0.6,0.5,1
	c0,0.5-0.2,0.9-0.6,1.2s-0.9,0.4-1.6,0.4c-0.7,0-1.2-0.2-1.6-0.5c-0.4-0.4-0.6-0.8-0.6-1.2l0,0h1.1c0,0.3,0.1,0.5,0.3,0.7
	c0.2,0.1,0.5,0.2,0.8,0.2c0.3,0,0.5-0.1,0.7-0.2C167.7,219.9,167.8,219.8,167.8,219.6L167.8,219.6z M173,219.6
	c0-0.2-0.1-0.4-0.2-0.5c-0.2-0.1-0.4-0.2-0.9-0.3c-0.6-0.1-1.1-0.3-1.4-0.6c-0.3-0.2-0.5-0.6-0.5-1c0-0.4,0.2-0.8,0.6-1.1
	c0.4-0.3,0.9-0.5,1.5-0.5c0.6,0,1.2,0.2,1.5,0.5c0.4,0.3,0.6,0.7,0.5,1.2l0,0h-1.1c0-0.2-0.1-0.4-0.2-0.6c-0.2-0.2-0.4-0.2-0.7-0.2
	c-0.3,0-0.5,0.1-0.7,0.2c-0.1,0.1-0.2,0.3-0.2,0.5c0,0.2,0.1,0.3,0.2,0.4c0.1,0.1,0.4,0.2,0.9,0.3c0.7,0.1,1.2,0.3,1.5,0.6
	c0.3,0.2,0.5,0.6,0.5,1c0,0.5-0.2,0.9-0.6,1.2s-0.9,0.4-1.6,0.4c-0.7,0-1.2-0.2-1.6-0.5c-0.4-0.4-0.6-0.8-0.6-1.2l0,0h1.1
	c0,0.3,0.1,0.5,0.3,0.7c0.2,0.1,0.5,0.2,0.8,0.2c0.3,0,0.5-0.1,0.7-0.2C172.9,219.9,173,219.8,173,219.6L173,219.6z M177.5,221.1
	c-0.8,0-1.3-0.2-1.8-0.7s-0.7-1.1-0.7-1.9v-0.2c0-0.8,0.2-1.4,0.7-1.9c0.4-0.5,1-0.8,1.7-0.8c0.7,0,1.3,0.2,1.6,0.6
	c0.4,0.4,0.6,1,0.6,1.7v0.7h-3.3l0,0c0,0.4,0.1,0.8,0.4,1s0.5,0.4,0.9,0.4c0.3,0,0.6,0,0.8-0.1c0.2-0.1,0.4-0.2,0.7-0.3l0.4,0.8
	c-0.2,0.2-0.5,0.3-0.8,0.4C178.3,221,177.9,221.1,177.5,221.1L177.5,221.1z M177.3,216.6c-0.3,0-0.6,0.1-0.7,0.4
	c-0.2,0.2-0.3,0.5-0.4,0.9l0,0h2.1v-0.1c0-0.3-0.1-0.6-0.3-0.8C177.9,216.7,177.7,216.6,177.3,216.6L177.3,216.6z M183.5,219.6
	c0-0.2-0.1-0.4-0.2-0.5c-0.2-0.1-0.4-0.2-0.9-0.3c-0.6-0.1-1.1-0.3-1.4-0.6s-0.5-0.6-0.5-1c0-0.4,0.2-0.8,0.6-1.1
	c0.4-0.3,0.9-0.5,1.5-0.5c0.6,0,1.2,0.2,1.5,0.5c0.4,0.3,0.6,0.7,0.5,1.2l0,0h-1.1c0-0.2-0.1-0.4-0.2-0.6c-0.2-0.2-0.4-0.2-0.7-0.2
	c-0.3,0-0.5,0.1-0.7,0.2c-0.1,0.1-0.2,0.3-0.2,0.5c0,0.2,0.1,0.3,0.2,0.4c0.1,0.1,0.4,0.2,0.9,0.3c0.7,0.1,1.2,0.3,1.5,0.6
	c0.3,0.2,0.5,0.6,0.5,1c0,0.5-0.2,0.9-0.6,1.2c-0.4,0.3-0.9,0.4-1.6,0.4c-0.7,0-1.2-0.2-1.6-0.5c-0.4-0.4-0.6-0.8-0.6-1.2l0,0h1.1
	c0,0.3,0.1,0.5,0.3,0.7c0.2,0.1,0.5,0.2,0.8,0.2c0.3,0,0.5-0.1,0.7-0.2C183.4,219.9,183.5,219.8,183.5,219.6L183.5,219.6z
	 M188.7,219.6c0-0.2-0.1-0.4-0.2-0.5c-0.2-0.1-0.4-0.2-0.9-0.3c-0.6-0.1-1.1-0.3-1.4-0.6s-0.5-0.6-0.5-1c0-0.4,0.2-0.8,0.6-1.1
	c0.4-0.3,0.9-0.5,1.5-0.5c0.6,0,1.2,0.2,1.5,0.5c0.4,0.3,0.6,0.7,0.5,1.2l0,0h-1.1c0-0.2-0.1-0.4-0.2-0.6c-0.2-0.2-0.4-0.2-0.7-0.2
	c-0.3,0-0.5,0.1-0.7,0.2c-0.1,0.1-0.2,0.3-0.2,0.5c0,0.2,0.1,0.3,0.2,0.4s0.4,0.2,0.9,0.3c0.7,0.1,1.2,0.3,1.5,0.6
	c0.3,0.2,0.5,0.6,0.5,1c0,0.5-0.2,0.9-0.6,1.2c-0.4,0.3-0.9,0.4-1.6,0.4c-0.7,0-1.2-0.2-1.6-0.5c-0.4-0.4-0.6-0.8-0.6-1.2l0,0h1.1
	c0,0.3,0.1,0.5,0.3,0.7c0.2,0.1,0.5,0.2,0.8,0.2c0.3,0,0.5-0.1,0.7-0.2C188.6,219.9,188.7,219.8,188.7,219.6L188.7,219.6z
	 M192,215.7l0.1,0.7c0.2-0.2,0.4-0.4,0.6-0.6c0.3-0.1,0.6-0.2,0.9-0.2c0.3,0,0.6,0.1,0.9,0.2c0.2,0.2,0.4,0.4,0.6,0.7
	c0.2-0.3,0.4-0.5,0.6-0.7s0.6-0.2,0.9-0.2c0.5,0,0.9,0.2,1.3,0.5c0.3,0.4,0.5,0.9,0.5,1.7v3.2h-1.2v-3.2c0-0.4-0.1-0.8-0.2-0.9
	c-0.2-0.2-0.4-0.3-0.7-0.3c-0.3,0-0.5,0.1-0.6,0.2c-0.2,0.1-0.3,0.3-0.4,0.6c0,0,0,0.1,0,0.1c0,0,0,0.1,0,0.1v3.4H194v-3.2
	c0-0.4-0.1-0.7-0.2-0.9c-0.2-0.2-0.4-0.3-0.7-0.3c-0.2,0-0.4,0-0.6,0.1c-0.2,0.1-0.3,0.2-0.4,0.4v3.9h-1.2v-5.3L192,215.7L192,215.7
	z M201.8,221.1c-0.7,0-1.3-0.2-1.8-0.7c-0.4-0.5-0.7-1.1-0.7-1.9v-0.2c0-0.8,0.2-1.4,0.7-1.9c0.4-0.5,1-0.8,1.7-0.8
	c0.7,0,1.3,0.2,1.6,0.6c0.4,0.4,0.6,1,0.6,1.7v0.7h-3.3l0,0c0,0.4,0.1,0.8,0.4,1c0.2,0.3,0.5,0.4,0.9,0.4c0.3,0,0.6,0,0.8-0.1
	c0.2-0.1,0.4-0.2,0.7-0.3l0.4,0.8c-0.2,0.2-0.5,0.3-0.8,0.4C202.7,221,202.3,221.1,201.8,221.1L201.8,221.1z M201.7,216.6
	c-0.3,0-0.6,0.1-0.7,0.4c-0.2,0.2-0.3,0.5-0.4,0.9l0,0h2.1v-0.1c0-0.3-0.1-0.6-0.3-0.8C202.3,216.7,202.1,216.6,201.7,216.6
	L201.7,216.6z M205.9,215.7l0.1,0.8c0.2-0.3,0.4-0.5,0.7-0.6c0.3-0.2,0.6-0.2,0.9-0.2c0.6,0,1,0.2,1.3,0.5c0.3,0.3,0.5,0.9,0.5,1.6
	v3.3h-1.2v-3.3c0-0.4-0.1-0.7-0.2-0.8c-0.2-0.2-0.4-0.3-0.8-0.3c-0.4,0-0.8,0.2-1.1,0.6v3.8h-1.2v-5.3L205.9,215.7L205.9,215.7z
	 M212,214.4v1.3h0.9v0.9H212v2.9c0,0.2,0,0.4,0.1,0.5c0.1,0.1,0.2,0.1,0.4,0.1c0.1,0,0.2,0,0.4-0.1l0.1,0.9
	c-0.1,0.1-0.2,0.1-0.4,0.1c-0.1,0-0.3,0-0.4,0c-0.4,0-0.8-0.1-1-0.4c-0.2-0.3-0.4-0.7-0.4-1.2v-2.9H210v-0.9h0.8v-1.3H212L212,214.4
	z"/>
<path class="st0" d="M169.2,288l7-14h-14L169.2,288z M168.2,236v40h2v-41h-2V236z"/>
<path class="st1" d="M99,289h140v38H99V289z"/>
<path class="st2" d="M117.1,307.9h0.8c0.4,0,0.7-0.1,0.8-0.3c0.2-0.2,0.3-0.5,0.3-0.8c0-0.3-0.1-0.6-0.3-0.8
	c-0.2-0.2-0.4-0.3-0.8-0.3c-0.3,0-0.6,0.1-0.8,0.3c-0.2,0.2-0.3,0.5-0.3,0.7h-1.1l0,0c0-0.5,0.2-1,0.6-1.4c0.4-0.4,1-0.6,1.6-0.6
	c0.7,0,1.2,0.2,1.7,0.5c0.4,0.4,0.6,0.9,0.6,1.5c0,0.3-0.1,0.6-0.3,0.9c-0.2,0.3-0.4,0.5-0.8,0.7c0.4,0.1,0.7,0.4,0.9,0.7
	c0.2,0.3,0.3,0.6,0.3,1c0,0.7-0.2,1.2-0.7,1.5c-0.4,0.4-1,0.6-1.7,0.6c-0.7,0-1.2-0.2-1.7-0.5s-0.7-0.8-0.6-1.5l0,0h1.1
	c0,0.3,0.1,0.6,0.3,0.8c0.2,0.2,0.5,0.3,0.8,0.3c0.4,0,0.7-0.1,0.9-0.3c0.2-0.2,0.3-0.5,0.3-0.8c0-0.4-0.1-0.7-0.3-0.9
	c-0.2-0.2-0.5-0.3-0.9-0.3h-0.8L117.1,307.9L117.1,307.9z M122.8,312h-1.2v-1.1h1.2V312z M128.1,309v3H127v-7.1h2.6
	c0.8,0,1.4,0.2,1.8,0.5c0.4,0.4,0.6,0.9,0.6,1.5c0,0.4-0.1,0.7-0.3,1c-0.2,0.3-0.5,0.5-0.8,0.6c0.4,0.1,0.7,0.3,0.9,0.6
	c0.2,0.3,0.3,0.6,0.3,1.1v0.6c0,0.2,0,0.4,0.1,0.6c0.1,0.2,0.1,0.4,0.3,0.5v0.1h-1.2c-0.1-0.1-0.2-0.3-0.3-0.5
	c0-0.2-0.1-0.5-0.1-0.7v-0.6c0-0.4-0.1-0.7-0.3-0.9c-0.2-0.2-0.5-0.3-0.9-0.3L128.1,309L128.1,309z M128.1,308.1h1.4
	c0.5,0,0.8-0.1,1-0.3c0.2-0.2,0.3-0.5,0.3-0.8c0-0.4-0.1-0.6-0.3-0.8c-0.2-0.2-0.5-0.3-1-0.3h-1.4L128.1,308.1L128.1,308.1z
	 M134.7,312h-1.2v-5.3h1.2V312z M134.7,305.4h-1.2v-1h1.2V305.4z M139,310.6c0-0.2-0.1-0.4-0.2-0.5c-0.2-0.1-0.4-0.2-0.9-0.3
	c-0.6-0.1-1.1-0.3-1.4-0.6c-0.3-0.2-0.5-0.6-0.5-1c0-0.4,0.2-0.8,0.6-1.1c0.4-0.3,0.9-0.5,1.5-0.5c0.6,0,1.2,0.2,1.5,0.5
	c0.4,0.3,0.6,0.7,0.5,1.2l0,0h-1.1c0-0.2-0.1-0.4-0.2-0.6c-0.2-0.2-0.4-0.2-0.7-0.2c-0.3,0-0.5,0.1-0.7,0.2
	c-0.1,0.1-0.2,0.3-0.2,0.5c0,0.2,0.1,0.3,0.2,0.4c0.1,0.1,0.4,0.2,0.9,0.3c0.7,0.1,1.2,0.3,1.5,0.6c0.3,0.2,0.5,0.6,0.5,1
	c0,0.5-0.2,0.9-0.6,1.2c-0.4,0.3-0.9,0.4-1.6,0.4c-0.7,0-1.2-0.2-1.6-0.5c-0.4-0.4-0.6-0.8-0.6-1.2l0,0h1.1c0,0.3,0.1,0.5,0.3,0.7
	c0.2,0.1,0.5,0.2,0.8,0.2c0.3,0,0.5-0.1,0.7-0.2C138.9,310.9,139,310.8,139,310.6L139,310.6z M142.9,309.7h-0.5v2.3h-1.2v-7.6h1.2
	v4.4h0.5l1.3-2h1.4l-1.7,2.4l2,2.9h-1.4L142.9,309.7L142.9,309.7z M154.3,309.6L154.3,309.6c0,0.7-0.2,1.3-0.7,1.8
	c-0.5,0.5-1.1,0.7-2,0.7c-0.8,0-1.5-0.3-2-0.8c-0.5-0.6-0.8-1.3-0.8-2.1v-1.4c0-0.9,0.3-1.6,0.8-2.1c0.5-0.6,1.2-0.8,2-0.8
	c0.8,0,1.5,0.2,2,0.7c0.5,0.4,0.7,1,0.7,1.8l0,0h-1.1c0-0.5-0.1-0.9-0.4-1.1c-0.3-0.3-0.6-0.4-1.1-0.4c-0.5,0-0.9,0.2-1.2,0.6
	c-0.3,0.4-0.4,0.9-0.4,1.4v1.4c0,0.6,0.1,1.1,0.4,1.5c0.3,0.4,0.7,0.6,1.2,0.6c0.5,0,0.9-0.1,1.1-0.4c0.3-0.3,0.4-0.6,0.4-1.1
	L154.3,309.6L154.3,309.6z M156.5,307.4c0.2-0.2,0.4-0.4,0.6-0.6c0.3-0.1,0.5-0.2,0.8-0.2c0.6,0,1,0.2,1.3,0.5
	c0.3,0.4,0.5,0.9,0.5,1.6v3.2h-1.2v-3.2c0-0.4-0.1-0.7-0.2-0.9c-0.2-0.2-0.4-0.3-0.7-0.3c-0.4,0-0.8,0.2-1.1,0.5v3.9h-1.2v-7.6h1.2
	L156.5,307.4L156.5,307.4z M164.1,312c0-0.1-0.1-0.3-0.1-0.4c0-0.1,0-0.3-0.1-0.4c-0.2,0.3-0.4,0.5-0.6,0.6
	c-0.3,0.2-0.6,0.3-0.9,0.3c-0.6,0-1-0.1-1.3-0.4c-0.3-0.3-0.4-0.7-0.4-1.2c0-0.5,0.2-0.9,0.6-1.2c0.4-0.3,1-0.4,1.7-0.4h0.9v-0.5
	c0-0.3-0.1-0.5-0.2-0.6c-0.2-0.2-0.4-0.2-0.7-0.2c-0.3,0-0.5,0.1-0.6,0.2c-0.2,0.1-0.2,0.3-0.2,0.5H161l0,0c0-0.4,0.2-0.8,0.6-1.1
	c0.4-0.3,0.9-0.5,1.5-0.5c0.6,0,1.1,0.2,1.5,0.5c0.4,0.3,0.6,0.8,0.6,1.3v2.3c0,0.2,0,0.4,0,0.6c0,0.2,0.1,0.4,0.1,0.6H164.1
	L164.1,312z M162.7,311.1c0.3,0,0.6-0.1,0.8-0.2c0.2-0.1,0.4-0.3,0.5-0.5v-0.8H163c-0.3,0-0.6,0.1-0.8,0.3c-0.2,0.2-0.3,0.4-0.3,0.6
	c0,0.2,0.1,0.4,0.2,0.5C162.3,311.1,162.4,311.1,162.7,311.1z M169,307.8l-0.5,0c-0.2,0-0.4,0-0.6,0.1c-0.2,0.1-0.3,0.2-0.4,0.4v3.7
	h-1.2v-5.3h1.1l0.1,0.8c0.1-0.3,0.3-0.5,0.5-0.6c0.2-0.2,0.5-0.2,0.7-0.2c0.1,0,0.1,0,0.2,0c0.1,0,0.1,0,0.2,0L169,307.8L169,307.8z
	 M173,312c0-0.1-0.1-0.3-0.1-0.4c0-0.1,0-0.3-0.1-0.4c-0.2,0.3-0.4,0.5-0.6,0.6c-0.3,0.2-0.6,0.3-0.9,0.3c-0.6,0-1-0.1-1.3-0.4
	c-0.3-0.3-0.4-0.7-0.4-1.2c0-0.5,0.2-0.9,0.6-1.2c0.4-0.3,1-0.4,1.7-0.4h0.9v-0.5c0-0.3-0.1-0.5-0.2-0.6c-0.2-0.2-0.4-0.2-0.7-0.2
	c-0.3,0-0.5,0.1-0.6,0.2c-0.2,0.1-0.2,0.3-0.2,0.5h-1.1l0,0c0-0.4,0.2-0.8,0.6-1.1c0.4-0.3,0.9-0.5,1.5-0.5c0.6,0,1.1,0.2,1.5,0.5
	c0.4,0.3,0.6,0.8,0.6,1.3v2.3c0,0.2,0,0.4,0,0.6c0,0.2,0.1,0.4,0.1,0.6H173L173,312z M171.6,311.1c0.3,0,0.6-0.1,0.8-0.2
	c0.2-0.1,0.4-0.3,0.5-0.5v-0.8h-0.9c-0.3,0-0.6,0.1-0.8,0.3c-0.2,0.2-0.3,0.4-0.3,0.6c0,0.2,0.1,0.4,0.2,0.5
	S171.3,311.1,171.6,311.1L171.6,311.1z M177.5,311.2c0.3,0,0.5-0.1,0.7-0.3c0.2-0.2,0.3-0.4,0.3-0.6h1.1l0,0c0,0.5-0.2,0.9-0.6,1.3
	c-0.4,0.4-0.9,0.5-1.5,0.5c-0.8,0-1.4-0.3-1.8-0.8c-0.4-0.5-0.6-1.1-0.6-1.9v-0.2c0-0.8,0.2-1.4,0.6-1.9c0.4-0.5,1-0.8,1.8-0.8
	c0.6,0,1.1,0.2,1.5,0.6c0.4,0.4,0.6,0.8,0.6,1.4l0,0h-1.1c0-0.3-0.1-0.5-0.3-0.7s-0.4-0.3-0.7-0.3c-0.4,0-0.8,0.2-0.9,0.5
	c-0.2,0.3-0.3,0.7-0.3,1.2v0.2c0,0.5,0.1,0.9,0.3,1.2C176.7,311,177,311.2,177.5,311.2L177.5,311.2z M182,305.4v1.3h0.9v0.9H182v2.9
	c0,0.2,0,0.4,0.1,0.5c0.1,0.1,0.2,0.1,0.4,0.1c0.1,0,0.2,0,0.4-0.1l0.1,0.9c-0.1,0.1-0.2,0.1-0.4,0.1c-0.1,0-0.3,0-0.4,0
	c-0.4,0-0.8-0.1-1-0.4c-0.2-0.3-0.4-0.7-0.4-1.2v-2.9H180v-0.9h0.8v-1.3H182L182,305.4z M186.3,312.1c-0.7,0-1.3-0.2-1.8-0.7
	c-0.4-0.5-0.7-1.1-0.7-1.9v-0.2c0-0.8,0.2-1.4,0.7-1.9c0.4-0.5,1-0.8,1.7-0.8c0.7,0,1.3,0.2,1.6,0.6c0.4,0.4,0.6,1,0.6,1.7v0.7h-3.3
	l0,0c0,0.4,0.1,0.8,0.4,1c0.2,0.3,0.5,0.4,0.9,0.4c0.3,0,0.6,0,0.8-0.1c0.2-0.1,0.4-0.2,0.7-0.3l0.4,0.8c-0.2,0.2-0.5,0.3-0.8,0.4
	C187.1,312,186.7,312.1,186.3,312.1L186.3,312.1z M186.2,307.6c-0.3,0-0.6,0.1-0.7,0.4c-0.2,0.2-0.3,0.5-0.4,0.9l0,0h2.1v-0.1
	c0-0.3-0.1-0.6-0.3-0.8C186.8,307.7,186.5,307.6,186.2,307.6L186.2,307.6z M192,307.8l-0.5,0c-0.2,0-0.4,0-0.6,0.1
	c-0.2,0.1-0.3,0.2-0.4,0.4v3.7h-1.2v-5.3h1.1l0.1,0.8c0.1-0.3,0.3-0.5,0.5-0.6c0.2-0.2,0.5-0.2,0.7-0.2c0.1,0,0.1,0,0.2,0
	c0.1,0,0.1,0,0.2,0L192,307.8L192,307.8z M194.1,312h-1.2v-5.3h1.2V312z M194.1,305.4h-1.2v-1h1.2V305.4z M198.3,310.6
	c0-0.2-0.1-0.4-0.2-0.5c-0.2-0.1-0.4-0.2-0.9-0.3c-0.6-0.1-1.1-0.3-1.4-0.6s-0.5-0.6-0.5-1c0-0.4,0.2-0.8,0.6-1.1s0.9-0.5,1.5-0.5
	c0.6,0,1.2,0.2,1.5,0.5c0.4,0.3,0.6,0.7,0.5,1.2l0,0h-1.1c0-0.2-0.1-0.4-0.2-0.6c-0.2-0.2-0.4-0.2-0.7-0.2c-0.3,0-0.5,0.1-0.7,0.2
	c-0.1,0.1-0.2,0.3-0.2,0.5c0,0.2,0.1,0.3,0.2,0.4c0.1,0.1,0.4,0.2,0.9,0.3c0.7,0.1,1.2,0.3,1.5,0.6c0.3,0.2,0.5,0.6,0.5,1
	c0,0.5-0.2,0.9-0.6,1.2c-0.4,0.3-0.9,0.4-1.6,0.4c-0.7,0-1.2-0.2-1.6-0.5c-0.4-0.4-0.6-0.8-0.6-1.2l0,0h1.1c0,0.3,0.1,0.5,0.3,0.7
	c0.2,0.1,0.5,0.2,0.8,0.2c0.3,0,0.5-0.1,0.7-0.2C198.3,310.9,198.4,310.8,198.3,310.6L198.3,310.6z M203.8,312
	c0-0.1-0.1-0.3-0.1-0.4c0-0.1,0-0.3-0.1-0.4c-0.2,0.3-0.4,0.5-0.6,0.6c-0.3,0.2-0.6,0.3-0.9,0.3c-0.6,0-1-0.1-1.3-0.4
	c-0.3-0.3-0.4-0.7-0.4-1.2c0-0.5,0.2-0.9,0.6-1.2c0.4-0.3,1-0.4,1.7-0.4h0.9v-0.5c0-0.3-0.1-0.5-0.2-0.6c-0.2-0.2-0.4-0.2-0.7-0.2
	c-0.3,0-0.5,0.1-0.6,0.2c-0.2,0.1-0.2,0.3-0.2,0.5h-1.1l0,0c0-0.4,0.2-0.8,0.6-1.1c0.4-0.3,0.9-0.5,1.5-0.5c0.6,0,1.1,0.2,1.5,0.5
	c0.4,0.3,0.6,0.8,0.6,1.3v2.3c0,0.2,0,0.4,0,0.6c0,0.2,0.1,0.4,0.1,0.6H203.8L203.8,312z M202.3,311.1c0.3,0,0.6-0.1,0.8-0.2
	c0.2-0.1,0.4-0.3,0.5-0.5v-0.8h-0.9c-0.3,0-0.6,0.1-0.8,0.3c-0.2,0.2-0.3,0.4-0.3,0.6c0,0.2,0.1,0.4,0.2,0.5
	S202.1,311.1,202.3,311.1L202.3,311.1z M207.5,305.4v1.3h0.9v0.9h-0.9v2.9c0,0.2,0,0.4,0.1,0.5c0.1,0.1,0.2,0.1,0.4,0.1
	c0.1,0,0.2,0,0.4-0.1l0.1,0.9c-0.1,0.1-0.2,0.1-0.4,0.1c-0.1,0-0.3,0-0.4,0c-0.4,0-0.8-0.1-1-0.4c-0.2-0.3-0.4-0.7-0.4-1.2v-2.9
	h-0.8v-0.9h0.8v-1.3H207.5L207.5,305.4z M210.8,312h-1.2v-5.3h1.2V312L210.8,312z M210.8,305.4h-1.2v-1h1.2V305.4z M211.9,309.3
	c0-0.8,0.2-1.4,0.6-1.9c0.4-0.5,1-0.8,1.8-0.8c0.8,0,1.4,0.3,1.8,0.8c0.4,0.5,0.6,1.1,0.6,1.9v0.1c0,0.8-0.2,1.4-0.6,1.9
	c-0.4,0.5-1,0.7-1.8,0.7c-0.8,0-1.4-0.3-1.8-0.8c-0.4-0.5-0.6-1.1-0.6-1.9V309.3L211.9,309.3z M213.1,309.4c0,0.5,0.1,0.9,0.3,1.3
	c0.2,0.3,0.5,0.5,0.9,0.5c0.4,0,0.7-0.2,0.9-0.5c0.2-0.3,0.3-0.7,0.3-1.3v-0.1c0-0.5-0.1-0.9-0.3-1.2c-0.2-0.3-0.5-0.5-0.9-0.5
	c-0.4,0-0.7,0.2-0.9,0.5c-0.2,0.3-0.3,0.7-0.3,1.2V309.4z M218.8,306.7l0.1,0.8c0.2-0.3,0.4-0.5,0.7-0.6c0.3-0.2,0.6-0.2,0.9-0.2
	c0.6,0,1,0.2,1.3,0.5c0.3,0.3,0.5,0.9,0.5,1.6v3.3H221v-3.3c0-0.4-0.1-0.7-0.2-0.8c-0.2-0.2-0.4-0.3-0.8-0.3c-0.4,0-0.8,0.2-1.1,0.6
	v3.8h-1.2v-5.3L218.8,306.7L218.8,306.7z"/>
<path class="st0" d="M169.2,379l7-14h-14L169.2,379z M168.2,327v40h2v-41h-2V327z"/>
<path class="st3" d="M67,0h204v54H67V0z"/>
<path class="st4" d="M123.6,29.3h-4.5l-0.9,2.7h-1.9l4.2-11.4h1.8l4.1,11.4h-1.9C124.5,32,123.6,29.3,123.6,29.3z M119.7,27.8h3.4
	l-1.6-4.9h0L119.7,27.8z M129.5,32h-1.9V19.8h1.9V32z M135.3,32.2c-1.2,0-2.2-0.4-2.9-1.2c-0.7-0.8-1.1-1.8-1.1-3v-0.3
	c0-1.2,0.4-2.2,1.1-3.1c0.7-0.8,1.6-1.2,2.7-1.2c1.1,0,2,0.3,2.6,1c0.6,0.7,0.9,1.6,0.9,2.8v1.1h-5.3l0,0c0,0.7,0.2,1.2,0.6,1.6
	c0.4,0.4,0.9,0.6,1.5,0.6c0.5,0,0.9-0.1,1.3-0.2c0.4-0.1,0.7-0.3,1.1-0.5l0.6,1.2c-0.3,0.3-0.7,0.5-1.3,0.7S136,32.2,135.3,32.2
	L135.3,32.2z M135.1,24.9c-0.5,0-0.9,0.2-1.2,0.6c-0.3,0.4-0.5,0.8-0.6,1.4l0,0h3.4v-0.2c0-0.5-0.1-1-0.4-1.3
	C136,25.1,135.6,24.9,135.1,24.9z M144.3,25.3l-0.8,0c-0.4,0-0.7,0.1-0.9,0.2c-0.3,0.2-0.5,0.4-0.6,0.7V32h-1.9v-8.5h1.7l0.1,1.2
	c0.2-0.4,0.5-0.8,0.8-1c0.3-0.2,0.7-0.4,1.2-0.4c0.1,0,0.2,0,0.3,0c0.1,0,0.2,0,0.3,0.1L144.3,25.3L144.3,25.3z M148,21.5v2.1h1.5
	V25H148v4.7c0,0.3,0.1,0.6,0.2,0.7c0.2,0.1,0.4,0.2,0.6,0.2c0.2,0,0.4,0,0.6-0.1l0.2,1.4c-0.2,0.1-0.4,0.2-0.6,0.2
	c-0.2,0-0.5,0.1-0.7,0.1c-0.7,0-1.2-0.2-1.6-0.6c-0.4-0.4-0.6-1.1-0.6-1.9V25h-1.3v-1.4h1.3v-2.1L148,21.5L148,21.5z M163.2,22.1
	h-3.4V32h-1.9v-9.9h-3.4v-1.5h8.8C163.2,20.6,163.2,22.1,163.2,22.1z M168.7,25.3l-0.8,0c-0.4,0-0.7,0.1-0.9,0.2
	c-0.3,0.2-0.5,0.4-0.6,0.7V32h-1.9v-8.5h1.7l0.1,1.2c0.2-0.4,0.5-0.8,0.8-1c0.3-0.2,0.7-0.4,1.2-0.4c0.1,0,0.2,0,0.3,0
	c0.1,0,0.2,0,0.3,0.1L168.7,25.3z M172,32h-1.9v-8.5h1.9V32z M172,21.5h-1.9v-1.7h1.9V21.5z M173.8,27.9c0-1.3,0.3-2.4,0.9-3.3
	c0.6-0.8,1.4-1.2,2.5-1.2c0.5,0,0.9,0.1,1.3,0.3c0.4,0.2,0.7,0.5,1,0.9l0.2-1.1h1.6V32c0,1.1-0.3,1.9-1,2.5
	c-0.7,0.6-1.6,0.9-2.9,0.9c-0.4,0-0.9-0.1-1.3-0.2c-0.4-0.1-0.9-0.3-1.3-0.5l0.4-1.5c0.3,0.2,0.7,0.3,1,0.4c0.4,0.1,0.8,0.1,1.2,0.1
	c0.7,0,1.2-0.1,1.5-0.4c0.3-0.3,0.5-0.7,0.5-1.4v-0.9c-0.3,0.3-0.6,0.6-0.9,0.8c-0.4,0.2-0.8,0.3-1.2,0.3c-1,0-1.8-0.4-2.4-1.1
	c-0.6-0.8-0.9-1.7-0.9-3L173.8,27.9L173.8,27.9z M175.7,28.1c0,0.8,0.2,1.4,0.5,1.9c0.3,0.5,0.8,0.7,1.4,0.7c0.4,0,0.8-0.1,1-0.3
	c0.3-0.2,0.5-0.4,0.7-0.7v-3.7c-0.2-0.3-0.4-0.5-0.7-0.7c-0.3-0.2-0.6-0.3-1-0.3c-0.7,0-1.1,0.3-1.4,0.8c-0.3,0.5-0.5,1.3-0.5,2.1
	V28.1z M182.9,27.9c0-1.3,0.3-2.4,0.9-3.3c0.6-0.8,1.4-1.2,2.5-1.2c0.5,0,0.9,0.1,1.3,0.3c0.4,0.2,0.7,0.5,1,0.9l0.2-1.1h1.6V32
	c0,1.1-0.3,1.9-1,2.5c-0.7,0.6-1.6,0.9-2.9,0.9c-0.4,0-0.9-0.1-1.3-0.2c-0.4-0.1-0.9-0.3-1.3-0.5l0.4-1.5c0.3,0.2,0.7,0.3,1,0.4
	c0.4,0.1,0.8,0.1,1.2,0.1c0.7,0,1.2-0.1,1.5-0.4c0.3-0.3,0.5-0.7,0.5-1.4v-0.9c-0.3,0.3-0.6,0.6-0.9,0.8c-0.4,0.2-0.8,0.3-1.2,0.3
	c-1,0-1.9-0.4-2.4-1.1c-0.6-0.8-0.9-1.7-0.9-3L182.9,27.9L182.9,27.9z M184.8,28.1c0,0.8,0.2,1.4,0.5,1.9c0.3,0.5,0.8,0.7,1.4,0.7
	c0.4,0,0.7-0.1,1-0.3c0.3-0.2,0.5-0.4,0.7-0.7v-3.7c-0.2-0.3-0.4-0.5-0.7-0.7c-0.3-0.2-0.6-0.3-1-0.3c-0.6,0-1.1,0.3-1.4,0.8
	c-0.3,0.5-0.5,1.3-0.5,2.1L184.8,28.1L184.8,28.1z M195.9,32.2c-1.2,0-2.2-0.4-2.9-1.2c-0.7-0.8-1.1-1.8-1.1-3v-0.3
	c0-1.2,0.4-2.2,1.1-3.1c0.7-0.8,1.6-1.2,2.7-1.2c1.1,0,2,0.3,2.6,1c0.6,0.7,0.9,1.6,0.9,2.8v1.1h-5.3l0,0c0,0.7,0.2,1.2,0.6,1.6
	c0.4,0.4,0.9,0.6,1.5,0.6c0.5,0,0.9-0.1,1.3-0.2c0.4-0.1,0.7-0.3,1.1-0.5l0.6,1.2c-0.3,0.3-0.7,0.5-1.3,0.7S196.6,32.2,195.9,32.2
	L195.9,32.2z M195.7,24.9c-0.5,0-0.9,0.2-1.2,0.6c-0.3,0.4-0.5,0.8-0.6,1.4l0,0h3.4v-0.2c0-0.5-0.1-1-0.4-1.3
	C196.6,25.1,196.2,24.9,195.7,24.9L195.7,24.9z M205,25.3l-0.8,0c-0.4,0-0.7,0.1-0.9,0.2c-0.3,0.2-0.5,0.4-0.6,0.7V32h-1.9v-8.5h1.7
	l0.1,1.2c0.2-0.4,0.5-0.8,0.8-1c0.3-0.2,0.7-0.4,1.2-0.4c0.1,0,0.2,0,0.3,0c0.1,0,0.2,0,0.3,0.1L205,25.3L205,25.3z M209.9,32.2
	c-1.2,0-2.2-0.4-2.9-1.2c-0.7-0.8-1.1-1.8-1.1-3v-0.3c0-1.2,0.4-2.2,1.1-3.1c0.7-0.8,1.6-1.2,2.7-1.2c1.1,0,2,0.3,2.6,1
	c0.6,0.7,0.9,1.6,0.9,2.8v1.1h-5.3l0,0c0,0.7,0.2,1.2,0.6,1.6c0.4,0.4,0.9,0.6,1.5,0.6c0.5,0,0.9-0.1,1.3-0.2
	c0.4-0.1,0.7-0.3,1.1-0.5l0.6,1.2c-0.3,0.3-0.7,0.5-1.3,0.7S210.6,32.2,209.9,32.2L209.9,32.2z M209.7,24.9c-0.5,0-0.9,0.2-1.2,0.6
	c-0.3,0.4-0.5,0.8-0.6,1.4l0,0h3.4v-0.2c0-0.5-0.1-1-0.4-1.3C210.7,25.1,210.2,24.9,209.7,24.9L209.7,24.9z M214.4,27.9
	c0-1.4,0.3-2.4,0.9-3.3c0.6-0.8,1.4-1.2,2.4-1.2c0.5,0,0.9,0.1,1.2,0.3c0.4,0.2,0.7,0.5,0.9,0.8v-4.6h1.9V32h-1.6l-0.2-1
	c-0.3,0.4-0.6,0.7-1,0.9c-0.4,0.2-0.8,0.3-1.3,0.3c-1,0-1.8-0.4-2.4-1.1c-0.6-0.8-0.9-1.7-0.9-3L214.4,27.9L214.4,27.9z M216.3,28.1
	c0,0.8,0.1,1.4,0.4,1.9c0.3,0.5,0.8,0.7,1.4,0.7c0.4,0,0.7-0.1,1-0.3c0.3-0.2,0.5-0.4,0.7-0.7v-3.7c-0.2-0.3-0.4-0.5-0.7-0.7
	c-0.3-0.2-0.6-0.3-1-0.3c-0.6,0-1.1,0.3-1.4,0.8c-0.3,0.5-0.5,1.3-0.5,2.1C216.3,27.9,216.3,28.1,216.3,28.1z"/>
<path class="st2" d="M286.3,122.9l2,5.5h0l2-5.5h1.5v7.1h-1.2v-2.4l0.1-3.1l0,0l-2.1,5.5H288l-2.1-5.5l0,0l0.1,3.1v2.4h-1.2v-7.1
	H286.3L286.3,122.9z M293.2,127.3c0-0.8,0.2-1.4,0.6-1.9c0.4-0.5,1-0.8,1.8-0.8c0.8,0,1.4,0.3,1.8,0.8c0.4,0.5,0.6,1.1,0.6,1.9v0.1
	c0,0.8-0.2,1.4-0.6,1.9c-0.4,0.5-1,0.7-1.8,0.7c-0.8,0-1.4-0.3-1.8-0.8c-0.4-0.5-0.6-1.1-0.6-1.9V127.3z M294.4,127.4
	c0,0.5,0.1,0.9,0.3,1.3c0.2,0.3,0.5,0.5,0.9,0.5c0.4,0,0.7-0.2,0.9-0.5c0.2-0.3,0.3-0.7,0.3-1.3v-0.1c0-0.5-0.1-0.9-0.3-1.2
	c-0.2-0.3-0.5-0.5-0.9-0.5c-0.4,0-0.7,0.2-0.9,0.5c-0.2,0.3-0.3,0.7-0.3,1.2V127.4z M300.1,124.7l0.1,0.8c0.2-0.3,0.4-0.5,0.7-0.6
	c0.3-0.2,0.6-0.2,0.9-0.2c0.5,0,1,0.2,1.3,0.5c0.3,0.3,0.5,0.9,0.5,1.6v3.3h-1.2v-3.3c0-0.4-0.1-0.7-0.2-0.8
	c-0.2-0.2-0.4-0.3-0.8-0.3c-0.4,0-0.8,0.2-1.1,0.6v3.8H299v-5.3L300.1,124.7L300.1,124.7z M306,130h-1.2v-5.3h1.2V130z M306,123.4
	h-1.2v-1h1.2V123.4z M308.8,123.4v1.3h0.9v0.9h-0.9v2.9c0,0.2,0,0.4,0.1,0.5c0.1,0.1,0.2,0.1,0.4,0.1c0.1,0,0.2,0,0.4-0.1l0.1,0.9
	c-0.1,0.1-0.2,0.1-0.4,0.1c-0.1,0-0.3,0-0.4,0c-0.4,0-0.8-0.1-1-0.4c-0.2-0.3-0.4-0.7-0.4-1.2v-2.9h-0.8v-0.9h0.8v-1.3L308.8,123.4
	L308.8,123.4z M310.6,127.3c0-0.8,0.2-1.4,0.6-1.9c0.4-0.5,1-0.8,1.8-0.8c0.8,0,1.4,0.3,1.8,0.8c0.4,0.5,0.6,1.1,0.6,1.9v0.1
	c0,0.8-0.2,1.4-0.6,1.9c-0.4,0.5-1,0.7-1.8,0.7c-0.8,0-1.3-0.3-1.8-0.8c-0.4-0.5-0.6-1.1-0.6-1.9L310.6,127.3L310.6,127.3z
	 M311.7,127.4c0,0.5,0.1,0.9,0.3,1.3c0.2,0.3,0.5,0.5,0.9,0.5c0.4,0,0.7-0.2,0.9-0.5c0.2-0.3,0.3-0.7,0.3-1.3v-0.1
	c0-0.5-0.1-0.9-0.3-1.2c-0.2-0.3-0.5-0.5-0.9-0.5c-0.4,0-0.7,0.2-0.9,0.5c-0.2,0.3-0.3,0.7-0.3,1.2L311.7,127.4L311.7,127.4z
	 M319.1,125.8l-0.5,0c-0.2,0-0.4,0.1-0.6,0.1c-0.2,0.1-0.3,0.2-0.4,0.4v3.7h-1.2v-5.3h1.1l0.1,0.8c0.1-0.3,0.3-0.5,0.5-0.6
	c0.2-0.2,0.5-0.2,0.7-0.2c0.1,0,0.1,0,0.2,0c0.1,0,0.1,0,0.2,0L319.1,125.8L319.1,125.8z M283.7,122c0,0.6-0.1,1.1-0.4,1.5
	c-0.3,0.4-0.7,0.6-1.2,0.6c-0.2,0-0.5,0-0.7-0.2c-0.2-0.1-0.4-0.3-0.5-0.5l-0.1,0.5H280v-6.1h0.9v2.3c0.1-0.2,0.3-0.3,0.5-0.4
	c0.2-0.1,0.4-0.1,0.6-0.1c0.5,0,0.9,0.2,1.2,0.6C283.5,120.7,283.7,121.3,283.7,122C283.7,121.9,283.7,122,283.7,122z M282.7,121.9
	c0-0.4-0.1-0.8-0.2-1.1c-0.2-0.3-0.4-0.4-0.7-0.4c-0.2,0-0.4,0-0.5,0.1c-0.1,0.1-0.3,0.2-0.3,0.4v1.8c0.1,0.2,0.2,0.3,0.3,0.4
	c0.2,0.1,0.3,0.1,0.5,0.1c0.3,0,0.6-0.1,0.7-0.3C282.7,122.7,282.7,122.4,282.7,121.9L282.7,121.9L282.7,121.9z"/>
<circle class="st5" cx="258.5" cy="126.5" r="11.5"/>
<path class="st6" d="M244,107h15v18h-15V107z"/>
<path class="st0" d="M252,115l8,4v-8L252,115z"/>
<rect class="st7" width="320" height="525"/>
</svg>
