<?xml version="1.0" encoding="utf-8"?>
<!-- Generator: Adobe Illustrator 23.0.2, SVG Export Plug-In . SVG Version: 6.00 Build 0)  -->
<svg version="1.1" id="Layer_1" xmlns="http://www.w3.org/2000/svg" xmlns:xlink="http://www.w3.org/1999/xlink" x="0px" y="0px"
	 width="550px" height="523px" viewBox="0 0 550 523" style="enable-background:new 0 0 550 523;" xml:space="preserve">
<style type="text/css">
	.st0{fill-rule:evenodd;clip-rule:evenodd;fill:#3F424F;}
	.st1{opacity:0.192;fill:#A6B3BC;enable-background:new    ;}
	.st2{fill:#3784F4;}
	.st3{fill:#A6B3BC;}
	.st4{fill-rule:evenodd;clip-rule:evenodd;fill:#3784F4;}
</style>
<g>
	<path class="st0" d="M130,1.9l4.9,13.1h0.1l4.9-13.1h3.7V19h-2.8v-5.8l0.3-7.4l-0.1,0L135.9,19h-1.9l-5-13.2l-0.1,0l0.3,7.4V19
		h-2.8V1.9L130,1.9L130,1.9z M154.6,19c-0.1-0.3-0.2-0.6-0.3-0.9c-0.1-0.3-0.1-0.6-0.1-0.9c-0.4,0.6-0.9,1.1-1.5,1.5
		c-0.6,0.4-1.4,0.6-2.1,0.6c-1.3,0-2.3-0.3-3-1c-0.7-0.7-1.1-1.6-1.1-2.8c0-1.2,0.5-2.2,1.5-2.9c1-0.7,2.3-1,4.1-1h2.2v-1.1
		c0-0.7-0.2-1.2-0.6-1.6c-0.4-0.4-0.9-0.6-1.7-0.6c-0.6,0-1.2,0.2-1.5,0.5c-0.4,0.3-0.6,0.7-0.6,1.2H147l0-0.1
		c-0.1-1,0.4-1.9,1.3-2.7c0.9-0.8,2.2-1.2,3.7-1.2c1.5,0,2.7,0.4,3.6,1.1S157,9,157,10.4v5.6c0,0.5,0,1,0.1,1.5
		c0.1,0.5,0.2,1,0.3,1.4L154.6,19L154.6,19z M151.1,17c0.7,0,1.4-0.2,1.9-0.5c0.6-0.4,1-0.8,1.1-1.2v-1.9h-2.3
		c-0.8,0-1.5,0.2-1.9,0.6c-0.5,0.4-0.7,0.9-0.7,1.4c0,0.5,0.2,0.9,0.5,1.2C150,16.8,150.5,17,151.1,17L151.1,17z M171.1,13.1
		c0,1.8-0.4,3.3-1.3,4.5s-2.1,1.7-3.6,1.7c-0.7,0-1.4-0.1-1.9-0.4c-0.6-0.3-1-0.7-1.4-1.1v6.2H160V6.3h2.4l0.3,1.6
		c0.4-0.6,0.9-1,1.5-1.4c0.6-0.3,1.2-0.5,2-0.5c1.6,0,2.8,0.6,3.6,1.9c0.9,1.2,1.3,2.9,1.3,4.9C171.1,12.8,171.1,13.1,171.1,13.1z
		 M168.3,12.8c0-1.3-0.2-2.4-0.7-3.2c-0.5-0.8-1.2-1.2-2.2-1.2c-0.6,0-1.1,0.1-1.5,0.4c-0.4,0.3-0.8,0.6-1,1.1v5.7
		c0.2,0.4,0.6,0.8,1,1c0.4,0.2,0.9,0.4,1.5,0.4c1,0,1.7-0.4,2.2-1.1c0.5-0.7,0.7-1.7,0.7-2.8L168.3,12.8L168.3,12.8z M190.7,19
		h-11.3v-2l5.6-6.1c0.9-1,1.5-1.8,1.9-2.4s0.5-1.3,0.5-1.9c0-0.8-0.2-1.4-0.7-1.9c-0.4-0.5-1-0.8-1.8-0.8c-1,0-1.7,0.3-2.2,0.8
		c-0.5,0.6-0.7,1.3-0.7,2.3h-2.8l0-0.1c0-1.5,0.5-2.8,1.5-3.8c1-1,2.4-1.6,4.2-1.6c1.6,0,2.9,0.5,3.9,1.4s1.4,2.1,1.4,3.5
		c0,1-0.3,1.9-0.8,2.8c-0.6,0.9-1.4,2-2.6,3.2l-3.8,4l0,0.1h7.7L190.7,19L190.7,19z M204.7,12.9h-6.2v-2.3h6.2V12.9z M223.7,11.3
		h-7.5v5.4h8.7V19h-11.5V1.9h11.4v2.3h-8.6V9h7.5V11.3L223.7,11.3z M231.5,10.7l2.3-4.3h3.3l-4,6.3l4.1,6.4H234l-2.4-4.5l-2.5,4.5
		h-3.3l4.1-6.4l-4-6.3h3.2L231.5,10.7L231.5,10.7z M241.9,8c0.4-0.6,0.9-1,1.5-1.4c0.6-0.3,1.3-0.5,2-0.5c1.3,0,2.4,0.4,3.1,1.3
		c0.8,0.8,1.1,2.2,1.1,3.9V19h-2.8v-7.7c0-1-0.2-1.7-0.6-2.2c-0.4-0.4-1-0.7-1.8-0.7c-0.5,0-1,0.1-1.5,0.3c-0.4,0.2-0.8,0.5-1.1,1
		V19h-2.8V0.7h2.8L241.9,8L241.9,8z M260.3,19c-0.1-0.3-0.2-0.6-0.3-0.9c-0.1-0.3-0.1-0.6-0.1-0.9c-0.4,0.6-0.9,1.1-1.5,1.5
		c-0.6,0.4-1.4,0.6-2.1,0.6c-1.3,0-2.3-0.3-3-1s-1.1-1.6-1.1-2.8c0-1.2,0.5-2.2,1.5-2.9c1-0.7,2.3-1,4.1-1h2.2v-1.1
		c0-0.7-0.2-1.2-0.6-1.6c-0.4-0.4-0.9-0.6-1.7-0.6c-0.6,0-1.2,0.2-1.5,0.5c-0.4,0.3-0.6,0.7-0.6,1.2h-2.7l0-0.1
		c-0.1-1,0.4-1.9,1.3-2.7c0.9-0.8,2.2-1.2,3.7-1.2c1.5,0,2.7,0.4,3.6,1.1c0.9,0.8,1.4,1.8,1.4,3.2v5.6c0,0.5,0,1,0.1,1.5
		c0.1,0.5,0.2,1,0.3,1.4L260.3,19L260.3,19z M256.8,17c0.7,0,1.4-0.2,1.9-0.5c0.6-0.4,1-0.8,1.1-1.2v-1.9h-2.3
		c-0.8,0-1.5,0.2-1.9,0.6c-0.5,0.4-0.7,0.9-0.7,1.4c0,0.5,0.2,0.9,0.5,1.2C255.8,16.8,256.2,17,256.8,17L256.8,17z M273.6,17.1
		c-0.4,0.7-0.9,1.2-1.5,1.6c-0.6,0.4-1.3,0.5-2.1,0.5c-1.4,0-2.4-0.4-3.2-1.3c-0.8-0.9-1.1-2.2-1.1-4V6.3h2.8v7.6
		c0,1.1,0.2,1.9,0.5,2.3c0.4,0.4,0.9,0.7,1.6,0.7c0.7,0,1.3-0.1,1.7-0.4c0.5-0.2,0.8-0.6,1.1-1.1V6.3h2.8V19h-2.5L273.6,17.1
		L273.6,17.1z M286.5,15.6c0-0.4-0.2-0.8-0.6-1.1c-0.4-0.3-1.1-0.5-2.1-0.8c-1.5-0.3-2.7-0.8-3.4-1.4c-0.8-0.6-1.2-1.4-1.2-2.4
		c0-1.1,0.5-2,1.3-2.7c0.9-0.8,2.1-1.1,3.5-1.1c1.5,0,2.8,0.4,3.7,1.1c0.9,0.8,1.3,1.7,1.3,2.8l0,0.1h-2.7c0-0.5-0.2-1-0.6-1.3
		c-0.4-0.4-0.9-0.6-1.6-0.6c-0.7,0-1.2,0.2-1.6,0.5C282.2,9,282,9.4,282,9.8c0,0.4,0.2,0.8,0.5,1.1c0.3,0.3,1,0.5,2.1,0.7
		c1.6,0.3,2.8,0.8,3.5,1.4c0.8,0.6,1.2,1.4,1.2,2.4c0,1.1-0.5,2.1-1.4,2.8c-0.9,0.7-2.2,1.1-3.7,1.1c-1.6,0-3-0.4-3.9-1.3
		c-1-0.8-1.4-1.8-1.4-2.9l0-0.1h2.6c0,0.7,0.3,1.3,0.8,1.6c0.5,0.3,1.1,0.5,1.8,0.5c0.7,0,1.3-0.1,1.7-0.4
		C286.3,16.4,286.5,16,286.5,15.6L286.5,15.6z M295.4,3.2v3.1h2.3v2.1h-2.3v7c0,0.5,0.1,0.9,0.3,1.1c0.2,0.2,0.5,0.3,0.9,0.3
		c0.2,0,0.3,0,0.5,0c0.1,0,0.3-0.1,0.4-0.1l0.3,2.1c-0.3,0.1-0.6,0.2-0.9,0.3c-0.3,0.1-0.7,0.1-1,0.1c-1,0-1.9-0.3-2.5-0.9
		c-0.6-0.6-0.9-1.6-0.9-2.9v-7h-1.9V6.3h1.9V3.2C292.5,3.2,295.4,3.2,295.4,3.2z M303.2,19h-2.8V6.3h2.8V19z M303.2,3.2h-2.8V0.7
		h2.8V3.2z M310.8,14.7l0.2,1h0.1l0.2-1l2.5-8.4h2.9L312.3,19h-2.5l-4.5-12.7h2.9L310.8,14.7L310.8,14.7z M324,19.2
		c-1.8,0-3.2-0.6-4.3-1.8c-1.1-1.2-1.6-2.7-1.6-4.5v-0.5c0-1.8,0.5-3.4,1.6-4.6c1.1-1.2,2.4-1.8,4-1.8c1.7,0,3,0.5,3.9,1.6
		s1.4,2.4,1.4,4.2v1.7H321l0,0.1c0,1,0.3,1.8,0.9,2.5c0.5,0.6,1.3,1,2.3,1c0.8,0,1.4-0.1,2-0.3c0.6-0.2,1.1-0.5,1.6-0.8l0.9,1.9
		c-0.5,0.4-1.1,0.8-1.9,1.1C325.9,19.1,325,19.2,324,19.2L324,19.2z M323.7,8.4c-0.7,0-1.3,0.3-1.7,0.8c-0.5,0.6-0.7,1.3-0.8,2.1
		l0,0.1h5v-0.3c0-0.8-0.2-1.5-0.6-2C325.1,8.6,324.5,8.4,323.7,8.4L323.7,8.4z M344.4,15.6c0-0.4-0.2-0.8-0.6-1.1
		c-0.4-0.3-1.1-0.5-2.1-0.8c-1.5-0.3-2.7-0.8-3.4-1.4c-0.8-0.6-1.2-1.4-1.2-2.4c0-1.1,0.5-2,1.3-2.7c0.9-0.8,2.1-1.1,3.5-1.1
		c1.5,0,2.8,0.4,3.7,1.1c0.9,0.8,1.3,1.7,1.3,2.8l0,0.1h-2.7c0-0.5-0.2-1-0.6-1.3c-0.4-0.4-0.9-0.6-1.6-0.6c-0.7,0-1.2,0.2-1.6,0.5
		c-0.4,0.3-0.5,0.7-0.5,1.1c0,0.4,0.2,0.8,0.5,1.1c0.3,0.3,1,0.5,2.1,0.7c1.6,0.3,2.8,0.8,3.5,1.4s1.2,1.4,1.2,2.4
		c0,1.1-0.5,2.1-1.4,2.8c-0.9,0.7-2.2,1.1-3.7,1.1c-1.6,0-3-0.4-3.9-1.3c-1-0.8-1.4-1.8-1.4-2.9l0-0.1h2.6c0,0.7,0.3,1.3,0.8,1.6
		c0.5,0.3,1.1,0.5,1.8,0.5c0.7,0,1.3-0.1,1.7-0.4C344.2,16.4,344.4,16,344.4,15.6L344.4,15.6z M357.6,17.1c-0.4,0.7-0.9,1.2-1.5,1.6
		c-0.6,0.4-1.3,0.5-2.1,0.5c-1.4,0-2.4-0.4-3.2-1.3c-0.8-0.9-1.1-2.2-1.1-4V6.3h2.8v7.6c0,1.1,0.2,1.9,0.5,2.3
		c0.4,0.4,0.9,0.7,1.6,0.7c0.7,0,1.3-0.1,1.7-0.4c0.5-0.2,0.8-0.6,1.1-1.1V6.3h2.8V19h-2.5L357.6,17.1L357.6,17.1z M369.6,8.9
		l-1.2,0c-0.6,0-1,0.1-1.4,0.4c-0.4,0.2-0.7,0.6-0.9,1V19h-2.8V6.3h2.6l0.2,1.8c0.3-0.6,0.7-1.2,1.2-1.5c0.5-0.4,1.1-0.6,1.7-0.6
		c0.2,0,0.3,0,0.5,0c0.1,0,0.3,0.1,0.4,0.1L369.6,8.9L369.6,8.9z M376,14.7l0.2,1h0.1l0.2-1l2.5-8.4h2.9L377.5,19H375l-4.5-12.7h2.9
		L376,14.7L376,14.7z M389.2,19.2c-1.8,0-3.2-0.6-4.3-1.8c-1.1-1.2-1.6-2.7-1.6-4.5v-0.5c0-1.8,0.5-3.4,1.6-4.6
		c1.1-1.2,2.4-1.8,4-1.8c1.7,0,3,0.5,3.9,1.6s1.4,2.4,1.4,4.2v1.7h-7.9l0,0.1c0,1,0.3,1.8,0.9,2.5c0.5,0.6,1.3,1,2.3,1
		c0.8,0,1.4-0.1,2-0.3c0.6-0.2,1.1-0.5,1.6-0.8l0.9,1.9c-0.5,0.4-1.1,0.8-1.9,1.1C391.2,19.1,390.3,19.2,389.2,19.2L389.2,19.2z
		 M388.9,8.4c-0.7,0-1.3,0.3-1.7,0.8c-0.5,0.6-0.7,1.3-0.8,2.1l0,0.1h5v-0.3c0-0.8-0.2-1.5-0.6-2C390.3,8.6,389.7,8.4,388.9,8.4
		L388.9,8.4z M399.5,19h-2.8V6.3h2.8V19z M399.5,3.2h-2.8V0.7h2.8V3.2z M405.7,19h-2.8V0.7h2.8V19z M412,19h-2.8V0.7h2.8V19z
		 M422.8,19c-0.1-0.3-0.2-0.6-0.3-0.9c-0.1-0.3-0.1-0.6-0.1-0.9c-0.4,0.6-0.9,1.1-1.5,1.5c-0.6,0.4-1.4,0.6-2.1,0.6
		c-1.3,0-2.3-0.3-3-1c-0.7-0.7-1.1-1.6-1.1-2.8c0-1.2,0.5-2.2,1.5-2.9c1-0.7,2.3-1,4.1-1h2.2v-1.1c0-0.7-0.2-1.2-0.6-1.6
		c-0.4-0.4-0.9-0.6-1.7-0.6c-0.6,0-1.2,0.2-1.5,0.5c-0.4,0.3-0.6,0.7-0.6,1.2h-2.7l0-0.1c-0.1-1,0.4-1.9,1.3-2.7
		c1-0.8,2.2-1.2,3.7-1.2c1.5,0,2.7,0.4,3.6,1.1c0.9,0.8,1.4,1.8,1.4,3.2v5.6c0,0.5,0,1,0.1,1.5c0.1,0.5,0.2,1,0.3,1.4L422.8,19
		L422.8,19z M419.3,17c0.7,0,1.4-0.2,1.9-0.5c0.6-0.4,1-0.8,1.1-1.2v-1.9h-2.3c-0.8,0-1.5,0.2-1.9,0.6c-0.5,0.4-0.7,0.9-0.7,1.4
		c0,0.5,0.2,0.9,0.5,1.2C418.2,16.8,418.7,17,419.3,17L419.3,17z M430.8,6.3l0.2,1.8c0.4-0.6,0.9-1.1,1.6-1.5
		c0.6-0.4,1.3-0.5,2.1-0.5c1.3,0,2.4,0.4,3.1,1.2c0.7,0.8,1.1,2,1.1,3.7v8H436v-7.9c0-1-0.2-1.6-0.6-2c-0.4-0.4-1-0.6-1.8-0.6
		c-0.6,0-1,0.1-1.5,0.4c-0.4,0.2-0.8,0.6-1.1,1V19h-2.8V6.3H430.8L430.8,6.3z M447,17c0.7,0,1.3-0.2,1.8-0.6
		c0.5-0.4,0.7-0.9,0.7-1.5h2.6l0,0.1c0,1.2-0.4,2.2-1.4,3.1s-2.2,1.3-3.6,1.3c-1.9,0-3.3-0.6-4.3-1.8c-1-1.2-1.5-2.7-1.5-4.6v-0.4
		c0-1.8,0.5-3.4,1.5-4.6c1-1.2,2.4-1.8,4.3-1.8c1.5,0,2.8,0.4,3.7,1.3c0.9,0.9,1.4,2,1.4,3.4l0,0.1h-2.6c0-0.7-0.2-1.3-0.7-1.8
		c-0.5-0.5-1.1-0.7-1.8-0.7c-1.1,0-1.8,0.4-2.3,1.2c-0.4,0.8-0.7,1.8-0.7,2.9v0.4c0,1.2,0.2,2.2,0.7,2.9C445.2,16.6,446,17,447,17z
		 M459.8,19.2c-1.8,0-3.2-0.6-4.3-1.8c-1.1-1.2-1.6-2.7-1.6-4.5v-0.5c0-1.8,0.5-3.4,1.6-4.6c1.1-1.2,2.4-1.8,4-1.8
		c1.7,0,3,0.5,3.9,1.6c0.9,1,1.4,2.4,1.4,4.2v1.7h-7.9l0,0.1c0,1,0.3,1.8,0.9,2.5c0.5,0.6,1.3,1,2.3,1c0.8,0,1.4-0.1,2-0.3
		c0.6-0.2,1.1-0.5,1.6-0.8l0.9,1.9c-0.5,0.4-1.1,0.8-1.9,1.1C461.8,19.1,460.9,19.2,459.8,19.2L459.8,19.2z M459.5,8.4
		c-0.7,0-1.3,0.3-1.7,0.8c-0.5,0.6-0.7,1.3-0.8,2.1l0,0.1h5v-0.3c0-0.8-0.2-1.5-0.6-2C461,8.6,460.3,8.4,459.5,8.4L459.5,8.4z"/>
	<path class="st1" d="M454.6,445l-44.9,47.8h-52.4l-47.9-30.4H194l-77.4,51.2L75.2,523l-9.7-9.3l-14.8-40.5l14.8-51.1l30-33.6
		l-10.1-43.8L35.5,303l-6.2-26.9L0,239.8v-31.3l50.7-83.7l14.8-62.4L106.3,38h36.4l84.5,31.4h74.1l25.8,31.6l30.1,9.4l16.3,14.3
		l66.2-14.3l50.6,37.1l34.8,8.5l16.4,60.1l-16.4,23.7l-25.5,36.3l25.5,55l24.8,38.2l-24.8,63h-34.8l-15.6-10.2L454.6,445z"/>
	<g transform="translate(174 484)">
		<path class="st0" d="M31.7,15.2h-4.6l-1,2.8h-0.8L29,8h0.8l3.8,10h-0.8C32.7,18,31.7,15.2,31.7,15.2z M27.4,14.5h4l-2-5.4h0
			L27.4,14.5z M37.6,17.5c0.5,0,1-0.2,1.4-0.5s0.6-0.7,0.6-1.3h0.7l0,0c0,0.7-0.2,1.3-0.8,1.7s-1.2,0.7-2,0.7c-1,0-1.8-0.3-2.3-1
			c-0.5-0.7-0.8-1.6-0.8-2.7v-0.3c0-1.1,0.3-2,0.8-2.7c0.6-0.7,1.3-1,2.3-1c0.8,0,1.5,0.2,2,0.7c0.5,0.5,0.8,1.1,0.8,1.9l0,0h-0.7
			c0-0.6-0.2-1.1-0.6-1.4c-0.4-0.4-0.9-0.5-1.5-0.5c-0.8,0-1.4,0.3-1.8,0.9c-0.4,0.6-0.6,1.3-0.6,2.1v0.3c0,0.9,0.2,1.6,0.6,2.2
			C36.2,17.2,36.8,17.5,37.6,17.5L37.6,17.5z M43.4,8.7v1.9H45v0.7h-1.6v4.8c0,0.5,0.1,0.8,0.3,1c0.2,0.2,0.4,0.3,0.7,0.3
			c0.1,0,0.3,0,0.4,0c0.1,0,0.3,0,0.4-0.1l0.1,0.6c-0.2,0.1-0.3,0.1-0.5,0.1c-0.2,0-0.4,0-0.6,0c-0.5,0-0.9-0.2-1.2-0.5
			s-0.4-0.8-0.4-1.6v-4.8h-1.3v-0.7h1.3V8.7C42.5,8.7,43.4,8.7,43.4,8.7z M47.6,18h-0.8v-7.4h0.8V18z M47.6,8.5h-0.8V7.3h0.8V8.5z
			 M52,16.1l0.2,0.9h0l0.3-0.9l2-5.5h0.8L52.6,18h-0.7l-2.8-7.4H50L52,16.1L52,16.1z M59.5,18.1c-0.9,0-1.7-0.3-2.3-1
			c-0.6-0.7-0.9-1.6-0.9-2.6v-0.4c0-1.1,0.3-1.9,0.9-2.6c0.6-0.7,1.3-1,2.2-1c0.9,0,1.6,0.3,2.1,0.9c0.5,0.6,0.8,1.3,0.8,2.3v0.7
			h-5.2v0.2c0,0.8,0.2,1.5,0.7,2.1c0.4,0.6,1,0.8,1.7,0.8c0.5,0,0.9-0.1,1.3-0.2c0.4-0.1,0.7-0.3,0.9-0.6l0.3,0.6
			c-0.3,0.3-0.6,0.5-1.1,0.7S60.1,18.1,59.5,18.1z M59.4,11.2c-0.6,0-1.1,0.2-1.5,0.7c-0.4,0.5-0.6,1-0.7,1.7l0,0h4.3v-0.2
			c0-0.6-0.2-1.2-0.6-1.6C60.6,11.4,60.1,11.2,59.4,11.2z"/>
		<circle class="st2" cx="8" cy="13" r="8"/>
		<path class="st0" d="M107.3,18h-0.8V8h0.8V18z M110.6,10.6l0.1,1.3c0.2-0.5,0.6-0.8,1-1.1c0.4-0.2,0.9-0.4,1.4-0.4
			c0.8,0,1.4,0.2,1.8,0.7c0.4,0.5,0.6,1.3,0.6,2.3V18h-0.8v-4.5c0-0.8-0.2-1.4-0.5-1.8c-0.3-0.4-0.8-0.5-1.3-0.5
			c-0.6,0-1,0.2-1.4,0.5c-0.4,0.3-0.6,0.7-0.8,1.2V18h-0.8v-7.4H110.6z M122.3,18c0-0.2-0.1-0.4-0.1-0.6c0-0.2,0-0.4,0-0.6
			c-0.3,0.4-0.7,0.7-1.1,1c-0.5,0.3-1,0.4-1.5,0.4c-0.7,0-1.3-0.2-1.7-0.6c-0.4-0.4-0.6-0.9-0.6-1.5c0-0.7,0.3-1.2,0.9-1.6
			c0.6-0.4,1.4-0.6,2.4-0.6h1.6v-0.9c0-0.5-0.2-0.9-0.5-1.2c-0.3-0.3-0.8-0.4-1.4-0.4c-0.6,0-1,0.1-1.4,0.4
			c-0.4,0.3-0.6,0.6-0.6,1.1l-0.8,0l0,0c0-0.6,0.2-1,0.8-1.5c0.5-0.4,1.2-0.7,2-0.7c0.8,0,1.5,0.2,2,0.6c0.5,0.4,0.7,1,0.7,1.8v3.6
			c0,0.3,0,0.5,0,0.8c0,0.2,0.1,0.5,0.1,0.7L122.3,18L122.3,18z M119.7,17.4c0.6,0,1.1-0.1,1.6-0.4c0.5-0.3,0.8-0.6,1-1.1v-1.5h-1.6
			c-0.7,0-1.3,0.2-1.8,0.5c-0.4,0.3-0.7,0.7-0.7,1.2c0,0.4,0.1,0.7,0.4,1C118.8,17.3,119.2,17.4,119.7,17.4z M127.9,17.5
			c0.5,0,1-0.2,1.4-0.5s0.6-0.7,0.6-1.3h0.7l0,0c0,0.7-0.3,1.3-0.8,1.7c-0.6,0.5-1.2,0.7-2,0.7c-1,0-1.8-0.3-2.3-1
			c-0.5-0.7-0.8-1.6-0.8-2.7v-0.3c0-1.1,0.3-2,0.8-2.7c0.6-0.7,1.3-1,2.3-1c0.8,0,1.5,0.2,2,0.7c0.5,0.5,0.8,1.1,0.8,1.9l0,0H130
			c0-0.6-0.2-1.1-0.6-1.4c-0.4-0.4-0.9-0.5-1.5-0.5c-0.8,0-1.4,0.3-1.8,0.9c-0.4,0.6-0.6,1.3-0.6,2.1v0.3c0,0.9,0.2,1.6,0.6,2.2
			C126.5,17.2,127.1,17.5,127.9,17.5L127.9,17.5z M133.7,8.7v1.9h1.6v0.7h-1.6v4.8c0,0.5,0.1,0.8,0.3,1c0.2,0.2,0.4,0.3,0.7,0.3
			c0.1,0,0.3,0,0.4,0c0.1,0,0.3,0,0.4-0.1l0.1,0.6c-0.2,0.1-0.3,0.1-0.5,0.1c-0.2,0-0.4,0-0.6,0c-0.5,0-0.9-0.2-1.2-0.5
			c-0.3-0.3-0.4-0.8-0.4-1.6v-4.8h-1.3v-0.7h1.3V8.7C132.9,8.7,133.7,8.7,133.7,8.7z M138,18h-0.8v-7.4h0.8V18z M138,8.5h-0.8V7.3
			h0.8V8.5z M142.4,16.1l0.2,0.9h0l0.3-0.9l2-5.5h0.8L143,18h-0.7l-2.8-7.4h0.8L142.4,16.1z M149.9,18.1c-0.9,0-1.7-0.3-2.3-1
			c-0.6-0.7-0.9-1.6-0.9-2.6v-0.4c0-1.1,0.3-1.9,0.9-2.6c0.6-0.7,1.3-1,2.2-1c0.9,0,1.6,0.3,2.1,0.9s0.8,1.3,0.8,2.3v0.7h-5.2v0.2
			c0,0.8,0.2,1.5,0.7,2.1c0.4,0.6,1,0.8,1.7,0.8c0.5,0,0.9-0.1,1.3-0.2c0.4-0.1,0.7-0.3,0.9-0.6l0.3,0.6c-0.3,0.3-0.6,0.5-1.1,0.7
			C151,18.1,150.5,18.1,149.9,18.1L149.9,18.1z M149.8,11.2c-0.6,0-1.1,0.2-1.5,0.7c-0.4,0.5-0.6,1-0.7,1.7l0,0h4.3v-0.2
			c0-0.6-0.2-1.2-0.6-1.6C150.9,11.4,150.4,11.2,149.8,11.2L149.8,11.2z"/>
		<circle class="st3" cx="88" cy="13" r="8"/>
	</g>
	<g>
		<path class="st4" d="M236.7,134c0.6-0.9,0.4-2.1-0.6-2.8l-17.5-10.9c-1-0.6-2.3-0.3-2.9,0.6c-0.6,0.9-0.4,2.1,0.6,2.8l17.5,10.9
			C234.7,135.2,236,134.9,236.7,134"/>
		<path class="st4" d="M197.3,134c-0.6-0.9-0.4-2.1,0.6-2.8l17.5-10.9c1-0.6,2.3-0.3,2.9,0.6c0.6,0.9,0.4,2.1-0.6,2.8l-17.5,10.9
			C199.3,135.2,198,134.9,197.3,134 M227.7,158.8h-8.3v8.3H213v-8.3h-8.3v-6.4h8.3v-8.3h6.4v8.3h8.3V158.8z M230.4,138.2H202
			c-1.8,0-3.3,1.5-3.3,3.3v28.2c0,1.8,1.5,3.3,3.3,3.3h28.4c1.8,0,3.3-1.5,3.3-3.3v-28.2C233.7,139.7,232.2,138.2,230.4,138.2
			C230.4,138.2,230.4,138.2,230.4,138.2L230.4,138.2z"/>
	</g>
	<g>
		<path class="st4" d="M236.4,366c0.6-0.9,0.4-2.2-0.6-2.8l-17.4-10.9c-1-0.6-2.3-0.4-2.9,0.6c-0.6,0.9-0.4,2.2,0.6,2.8l17.4,10.9
			C234.5,367.2,235.8,366.9,236.4,366"/>
		<path class="st4" d="M197.3,366c-0.6-0.9-0.4-2.2,0.6-2.8l17.4-10.9c1-0.6,2.3-0.4,2.9,0.6c0.6,0.9,0.4,2.2-0.6,2.8l-17.4,10.9
			C199.3,367.2,198,366.9,197.3,366 M227.5,390.8h-8.3v8.3h-6.4v-8.3h-8.3v-6.4h8.3v-8.3h6.4v8.3h8.3L227.5,390.8L227.5,390.8z
			 M230.2,370.2h-28.2c-1.8,0-3.3,1.5-3.3,3.3v28.2c0,1.8,1.5,3.3,3.3,3.3c0,0,0,0,0,0h28.2c1.8,0,3.3-1.5,3.3-3.3c0,0,0,0,0,0
			v-28.2C233.5,371.7,232,370.2,230.2,370.2L230.2,370.2z"/>
	</g>
	<g>
		<path class="st4" d="M422.7,268c0.6-0.9,0.4-2.1-0.6-2.8l-17.5-10.9c-1-0.6-2.3-0.4-2.9,0.6c-0.6,0.9-0.4,2.1,0.6,2.8l17.5,10.9
			C420.7,269.2,422,268.9,422.7,268"/>
		<path class="st4" d="M383.3,268c-0.6-0.9-0.4-2.1,0.6-2.8l17.5-10.9c1-0.6,2.3-0.4,2.9,0.6c0.6,0.9,0.4,2.1-0.6,2.8l-17.5,10.9
			C385.3,269.2,384,268.9,383.3,268 M413.7,292.8h-8.3v8.3H399v-8.3h-8.3v-6.4h8.3v-8.3h6.4v8.3h8.3V292.8z M416.4,272.2H388
			c-1.8,0-3.3,1.5-3.3,3.3v28.2c0,1.8,1.5,3.3,3.3,3.3h28.4c1.8,0,3.3-1.5,3.3-3.3v-28.2C419.7,273.7,418.2,272.2,416.4,272.2
			C416.4,272.2,416.4,272.2,416.4,272.2L416.4,272.2z"/>
	</g>
	<g>
		<path class="st4" d="M143.4,201c0.6-0.9,0.4-2.2-0.6-2.8l-17.4-10.9c-1-0.6-2.3-0.4-2.9,0.6c-0.6,0.9-0.4,2.2,0.6,2.8l17.4,10.9
			C141.5,202.2,142.8,201.9,143.4,201"/>
		<path class="st4" d="M104.3,201c-0.6-0.9-0.4-2.2,0.6-2.8l17.4-10.9c1-0.6,2.3-0.4,2.9,0.6c0.6,0.9,0.4,2.2-0.6,2.8l-17.4,10.9
			C106.3,202.2,105,201.9,104.3,201 M134.5,225.8h-8.3v8.3h-6.4v-8.3h-8.3v-6.4h8.3v-8.3h6.4v8.3h8.3L134.5,225.8L134.5,225.8z
			 M137.2,205.2h-28.2c-1.8,0-3.3,1.5-3.3,3.3v28.2c0,1.8,1.5,3.3,3.3,3.3c0,0,0,0,0,0h28.2c1.8,0,3.3-1.5,3.3-3.3c0,0,0,0,0,0
			v-28.2C140.5,206.7,139,205.2,137.2,205.2C137.2,205.2,137.2,205.2,137.2,205.2L137.2,205.2z"/>
	</g>
	<g>
		<path class="st4" d="M316.4,393c0.6-0.9,0.4-2.2-0.6-2.8l-17.4-10.9c-1-0.6-2.3-0.4-2.9,0.6c-0.6,0.9-0.4,2.2,0.6,2.8l17.4,10.9
			C314.5,394.2,315.8,393.9,316.4,393"/>
		<path class="st4" d="M277.3,393c-0.6-0.9-0.4-2.2,0.6-2.8l17.4-10.9c1-0.6,2.3-0.4,2.9,0.6c0.6,0.9,0.4,2.2-0.6,2.8l-17.4,10.9
			C279.3,394.2,278,393.9,277.3,393 M307.5,417.8h-8.3v8.3h-6.4v-8.3h-8.3v-6.4h8.3v-8.3h6.4v8.3h8.3L307.5,417.8L307.5,417.8z
			 M310.2,397.2h-28.2c-1.8,0-3.3,1.5-3.3,3.3v28.2c0,1.8,1.5,3.3,3.3,3.3c0,0,0,0,0,0h28.2c1.8,0,3.3-1.5,3.3-3.3c0,0,0,0,0,0
			v-28.2C313.5,398.7,312,397.2,310.2,397.2L310.2,397.2z"/>
	</g>
	<g>
		<path class="st4" d="M358.7,209c0.6-0.9,0.4-2.1-0.6-2.8l-17.5-10.9c-1-0.6-2.3-0.4-2.9,0.6c-0.6,0.9-0.4,2.1,0.6,2.8l17.5,10.9
			C356.7,210.2,358,209.9,358.7,209"/>
		<path class="st4" d="M319.3,209c-0.6-0.9-0.4-2.1,0.6-2.8l17.5-10.9c1-0.6,2.3-0.4,2.9,0.6c0.6,0.9,0.4,2.1-0.6,2.8l-17.5,10.9
			C321.3,210.2,320,209.9,319.3,209 M349.7,233.8h-8.3v8.3H335v-8.3h-8.3v-6.4h8.3v-8.3h6.4v8.3h8.3V233.8z M352.4,213.2H324
			c-1.8,0-3.3,1.5-3.3,3.3v28.2c0,1.8,1.5,3.3,3.3,3.3h28.4c1.8,0,3.3-1.5,3.3-3.3v-28.2C355.7,214.7,354.2,213.2,352.4,213.2
			C352.4,213.2,352.4,213.2,352.4,213.2L352.4,213.2z"/>
	</g>
</g>
</svg>
