<?xml version="1.0" encoding="utf-8"?>
<!-- Generator: Adobe Illustrator 23.0.2, SVG Export Plug-In . SVG Version: 6.00 Build 0)  -->
<svg version="1.1" id="Layer_1" xmlns="http://www.w3.org/2000/svg" xmlns:xlink="http://www.w3.org/1999/xlink" x="0px" y="0px"
	 viewBox="0 0 591 531" style="enable-background:new 0 0 591 531;" xml:space="preserve">
<style type="text/css">
	.st0{fill-rule:evenodd;clip-rule:evenodd;fill:#3F424F;stroke:#3784F4;stroke-width:28;}
	.st1{fill-rule:evenodd;clip-rule:evenodd;fill:#D7E6FD;stroke:#FFFFFF;stroke-width:8;}
	.st2{opacity:0.4;}
	.st3{fill-rule:evenodd;clip-rule:evenodd;fill:#3784F4;}
	.st4{fill:#3784F4;}
	.st5{fill:#FFFFFF;}
	.st6{filter:url(#Adobe_OpacityMaskFilter);}
	.st7{fill-rule:evenodd;clip-rule:evenodd;fill:#FFFFFF;}
	.st8{mask:url(#b_1_);fill-rule:evenodd;clip-rule:evenodd;fill:#3784F4;}
	.st9{opacity:0.8;}
	.st10{filter:url(#Adobe_OpacityMaskFilter_1_);}
	.st11{mask:url(#d_1_);fill-rule:evenodd;clip-rule:evenodd;fill:#FFFFFF;}
	.st12{filter:url(#Adobe_OpacityMaskFilter_2_);}
	.st13{mask:url(#f_1_);fill-rule:evenodd;clip-rule:evenodd;fill:#FFFFFF;}
	.st14{fill-rule:evenodd;clip-rule:evenodd;fill:#3F424F;}
	.st15{filter:url(#Adobe_OpacityMaskFilter_3_);}
	.st16{mask:url(#h_1_);fill-rule:evenodd;clip-rule:evenodd;fill:#3784F4;}
	.st17{fill:#E84D4D;}
	.st18{opacity:0.25;}
	.st19{fill:none;stroke:#E84D4D;stroke-width:2;}
</style>
<g transform="translate(1)">
	<path class="st0" d="M546.8,278.9l-6.3-26.9l-30-119.1l14.8-51.1l-14.8-40.5l-9.7-9.3l-41.5,9.3L382,92.5h-46.8l-27.8-7.2
		l-88.7-23.1h-52.5L121.4,110l-35.8,12.7H50.8l-24.8,63l24.8,38.2l25.5,55l-25.5,36.3l-16.4,23.7L50.8,399l34.8,8.5l50.6,37.1h82.5
		l18.3,5.7l11.8,3.7l25.8,31.6h74.1l84.5,31.4h36.5l40.8-24.3l14.8-62.4l50.7-83.7v-31.4L546.8,278.9z"/>
	<path class="st1" d="M285,402.7l36-9h11v-27l-31-43l10-29l9-25l7-29l20-16l6-16v-22L307.4,85.1L218.7,62h-52.5l-44.8,47.8
		l-35.8,12.7H50.8l-24.8,63l24.8,38.2l25.5,55l-25.5,36.3l-16.4,23.7l16.4,60.1l34.8,8.5l50.6,37.1h82.5L237,450v-23.3L285,402.7z"
		/>
	<g class="st2">
		<path class="st3" d="M99.7,342.9c0.5-0.8,0.3-1.8-0.5-2.3l-14.9-9.3c-0.8-0.5-1.9-0.3-2.5,0.5c-0.5,0.8-0.3,1.8,0.5,2.3l14.9,9.3
			C98.1,343.9,99.2,343.7,99.7,342.9"/>
		<path class="st3" d="M66.3,342.9c-0.5-0.8-0.3-1.8,0.5-2.3l14.9-9.3c0.8-0.5,1.9-0.3,2.5,0.5c0.5,0.8,0.3,1.8-0.5,2.3l-14.9,9.3
			C67.9,343.9,66.8,343.7,66.3,342.9 M92.1,363.9H85v7h-5.4v-7h-7.1v-5.4h7.1v-7H85v7h7.1V363.9z M94.4,346.5H70.2
			c-1.5,0-2.8,1.2-2.8,2.8v24c0,1.5,1.3,2.8,2.8,2.8c0,0,0,0,0,0h24.1c1.5,0,2.8-1.2,2.8-2.8c0,0,0,0,0,0v-24
			C97.2,347.7,95.9,346.5,94.4,346.5C94.4,346.5,94.4,346.5,94.4,346.5L94.4,346.5z"/>
	</g>
	<path class="st1" d="M546.8,278.9l-6.3-26.9l-30-119.1l14.8-51.1l-14.8-40.5l-9.7-9.3l-41.5,9.3L382,92.5h-46.8l-27.8-7.2L353,187
		v22l-6,16l-20,16l-7,29l-9,25l-10,29l31,43v27h-11l-36,9l-48,24v23.3l11.8,3.7l25.8,31.6h74.1l84.5,31.4h36.5l40.8-24.3l14.8-62.4
		l50.7-83.7v-31.4L546.8,278.9z"/>
	<circle class="st4" cx="329" cy="80" r="58"/>
	<circle class="st5" cx="205" cy="168" r="58"/>
	<g transform="translate(171 151.195)">
		<defs>
			<filter id="Adobe_OpacityMaskFilter" filterUnits="userSpaceOnUse" x="0" y="0.2" width="39.9" height="45.4">
				<feColorMatrix  type="matrix" values="1 0 0 0 0  0 1 0 0 0  0 0 1 0 0  0 0 0 1 0"/>
			</filter>
		</defs>
		<mask maskUnits="userSpaceOnUse" x="0" y="0.2" width="39.9" height="45.4" id="b_1_">
			<g class="st6">
				<path id="a_1_" class="st7" d="M0,0.2h39.9v45.4H0V0.2z"/>
			</g>
		</mask>
		<path class="st8" d="M29.3,22.4c2.4-2.4,3.8-5.7,3.8-9.1c0-7.2-5.9-13-13.2-13c-7.3,0-13.2,5.8-13.2,13c0,3.4,1.4,6.7,3.8,9.1
			C4.4,24.6,0,30.5,0,37.4v8.3h39.9v-8.3C39.9,30.5,35.5,24.6,29.3,22.4"/>
	</g>
	<path class="st7" d="M196.2,182.5c0,0.7-0.1,1.3-0.3,1.8l-3.7,7.9c-0.4,0.9-2,0.9-2.4,0l-3.8-7.9c-0.2-0.5-0.3-1.1-0.3-1.8
		c0-1.4,0.5-2.7,1.5-3.7c1-1,2.3-1.5,3.7-1.5c1.5,0,2.7,0.5,3.7,1.5C195.7,179.8,196.2,181,196.2,182.5 M192.8,184.3
		c0.5-0.5,0.8-1.1,0.8-1.8s-0.3-1.3-0.8-1.8c-0.5-0.5-1.2-0.8-1.9-0.8c-0.7,0-1.3,0.3-1.9,0.8c-0.5,0.5-0.8,1.2-0.8,1.8
		c0,0.7,0.3,1.3,0.8,1.8c0.5,0.5,1.1,0.8,1.9,0.8S192.3,184.8,192.8,184.3"/>
	<g transform="translate(253 226)">
		<path class="st4" d="M2,0h24c1.1,0,2,0.9,2,2v30c0,1.1-0.9,2-2,2H2c-1.1,0-2-0.9-2-2V2C0,0.9,0.9,0,2,0z"/>
		<path class="st7" d="M17,21.3h-5.1l-1,3.1H8L13,10h3l5,14.5H18L17,21.3z M12.6,19.1h3.6l-1.8-5.7h-0.1L12.6,19.1z"/>
	</g>
	<g transform="translate(134 319)">
		<path class="st4" d="M2,0h24c1.1,0,2,0.9,2,2v30c0,1.1-0.9,2-2,2H2c-1.1,0-2-0.9-2-2V2C0,0.9,0.9,0,2,0z"/>
		<path class="st7" d="M17,21.3h-5.1l-1,3.1H8L13,10h3l5,14.5H18L17,21.3z M12.6,19.1h3.6l-1.8-5.7h-0.1L12.6,19.1z"/>
	</g>
	<path class="st3" d="M124.9,357c2.1-2.1,3.2-4.9,3.2-7.8c0-6.2-5-11.1-11.2-11.1c-6.2,0-11.2,5-11.2,11.1c0,3,1.2,5.8,3.2,7.8
		c-5.2,1.9-9,6.9-9,12.8v7.1h33.9v-7.1C133.9,363.9,130.2,358.9,124.9,357"/>
	<path class="st7" d="M117.8,363.3l-6.5,6.5l-0.5,3l3-0.5l6.5-6.5L117.8,363.3z M119.8,361.4l-1,1l-0.4,0.4l0,0l2.5,2.5l0,0l0.4-0.4
		l1-1c0.3-0.3,0.3-0.8,0-1.1c0,0,0,0,0,0l-1.4-1.4C120.6,361.1,120.1,361.1,119.8,361.4"/>
	<g class="st9">
		<path class="st3" d="M218.7,249.9c0.5-0.8,0.3-1.8-0.5-2.3l-14.9-9.3c-0.8-0.5-1.9-0.3-2.5,0.5c-0.5,0.8-0.3,1.8,0.5,2.3l14.9,9.3
			C217.1,250.9,218.2,250.7,218.7,249.9"/>
		<path class="st3" d="M185.3,249.9c-0.5-0.8-0.3-1.8,0.5-2.3l14.9-9.3c0.8-0.5,1.9-0.3,2.5,0.5c0.5,0.8,0.3,1.8-0.5,2.3l-14.9,9.3
			C186.9,250.9,185.8,250.7,185.3,249.9 M211.1,270.9H204v7h-5.4v-7h-7.1v-5.4h7.1v-7h5.4v7h7.1V270.9z M213.4,253.5h-24.1
			c-1.5,0-2.8,1.2-2.8,2.8v24c0,1.5,1.3,2.8,2.8,2.8c0,0,0,0,0,0h24.1c1.5,0,2.8-1.2,2.8-2.8c0,0,0,0,0,0v-24
			C216.2,254.7,214.9,253.5,213.4,253.5C213.4,253.5,213.4,253.5,213.4,253.5z"/>
	</g>
	<g transform="translate(211 139)">
		<path class="st4" d="M2,0h24c1.1,0,2,0.9,2,2v30c0,1.1-0.9,2-2,2H2c-1.1,0-2-0.9-2-2V2C0,0.9,0.9,0,2,0z"/>
		<path class="st7" d="M17,21.3h-5.1l-1,3.1H8L13,10h3l5,14.5H18L17,21.3z M12.6,19.1h3.6l-1.8-5.7h-0.1L12.6,19.1z"/>
	</g>
	<g transform="translate(295 51)">
		<g transform="translate(6 12)">
			<defs>
				<filter id="Adobe_OpacityMaskFilter_1_" filterUnits="userSpaceOnUse" x="0.4" y="0.2" width="26.3" height="26.3">
					<feColorMatrix  type="matrix" values="1 0 0 0 0  0 1 0 0 0  0 0 1 0 0  0 0 0 1 0"/>
				</filter>
			</defs>
			<mask maskUnits="userSpaceOnUse" x="0.4" y="0.2" width="26.3" height="26.3" id="d_1_">
				<g class="st10">
					<path id="c_1_" class="st7" d="M0.4,0.2h26.3v26.3H0.4V0.2z"/>
				</g>
			</mask>
			<path class="st11" d="M26.7,13.3c0,7.3-5.9,13.2-13.2,13.2c-7.3,0-13.2-5.9-13.2-13.2c0-7.3,5.9-13.2,13.2-13.2
				C20.8,0.2,26.7,6.1,26.7,13.3"/>
		</g>
		<g transform="translate(0 33)">
			<defs>
				<filter id="Adobe_OpacityMaskFilter_2_" filterUnits="userSpaceOnUse" x="0" y="0" width="39.9" height="24.5">
					<feColorMatrix  type="matrix" values="1 0 0 0 0  0 1 0 0 0  0 0 1 0 0  0 0 0 1 0"/>
				</filter>
			</defs>
			<mask maskUnits="userSpaceOnUse" x="0" y="0" width="39.9" height="24.5" id="f_1_">
				<g class="st12">
					<path id="e_1_" class="st7" d="M0,0h39.9v24.5H0V0z"/>
				</g>
			</mask>
			<path class="st13" d="M39.9,16.2C39.9,7.3,32.6,0,23.7,0h-7.6C7.2,0,0,7.3,0,16.2v8.3h39.9V16.2z"/>
		</g>
		<path class="st3" d="M20.1,48.9c-2.1,0-3.8-1.7-3.8-3.8c0-2.1,1.7-3.8,3.8-3.8c2.1,0,3.8,1.7,3.8,3.8
			C23.9,47.2,22.2,48.9,20.1,48.9z M28.3,46.5v-2.7h-1.8c-0.2-0.8-0.5-1.5-0.9-2.2l1.3-1.3L25,38.4l-1.3,1.3
			c-0.7-0.4-1.4-0.7-2.2-0.9V37h-2.7v1.8c-0.8,0.2-1.5,0.5-2.2,0.9l-1.3-1.3l-1.9,1.9l1.3,1.3c-0.4,0.7-0.7,1.4-0.9,2.2H12v2.7h1.8
			c0.2,0.8,0.5,1.5,0.9,2.2L13.4,50l1.9,1.9l1.3-1.3c0.7,0.4,1.4,0.7,2.2,0.9v1.8h2.7v-1.8c0.8-0.2,1.5-0.5,2.2-0.9l1.3,1.3l1.9-1.9
			l-1.3-1.3c0.4-0.7,0.7-1.4,0.9-2.2H28.3z"/>
		<path class="st5" d="M42,0h24c1.1,0,2,0.9,2,2v30c0,1.1-0.9,2-2,2H42c-1.1,0-2-0.9-2-2V2C40,0.9,40.9,0,42,0z"/>
		<path class="st3" d="M57,21.3h-5.1l-1,3.1H48L53,10h3l5,14.5H58C58,24.5,57,21.3,57,21.3z M52.6,19.1h3.6l-1.8-5.7h-0.1L52.6,19.1
			z"/>
	</g>
	<path class="st3" d="M243.9,264c2.1-2.1,3.2-4.9,3.2-7.8c0-6.2-5-11.1-11.2-11.1c-6.2,0-11.2,5-11.2,11.2c0,3,1.2,5.8,3.2,7.8
		c-5.2,1.9-9,6.9-9,12.8v7.1h33.9v-7.1C252.9,270.9,249.2,265.9,243.9,264"/>
	<path class="st7" d="M236.8,270.3l-6.5,6.5l-0.5,3l3-0.5l6.5-6.5L236.8,270.3z M238.8,268.4l-1,1l-0.4,0.4l0,0l2.5,2.5l0,0l0.4-0.4
		l1-1c0.3-0.3,0.3-0.8,0-1.1c0,0,0,0,0,0l-1.4-1.4C239.6,268.1,239.1,268.1,238.8,268.4"/>
	<g class="st2">
		<path class="st3" d="M318.7,427.9c0.5-0.8,0.3-1.8-0.5-2.3l-14.9-9.3c-0.8-0.5-1.9-0.3-2.5,0.5c-0.5,0.8-0.3,1.8,0.5,2.3l14.9,9.3
			C317.1,428.9,318.2,428.7,318.7,427.9"/>
		<path class="st3" d="M285.3,427.9c-0.5-0.8-0.3-1.8,0.5-2.3l14.9-9.3c0.8-0.5,1.9-0.3,2.5,0.5c0.5,0.8,0.3,1.8-0.5,2.3l-14.9,9.3
			C286.9,428.9,285.8,428.7,285.3,427.9 M311.1,448.9H304v7h-5.4v-7h-7.1v-5.4h7.1v-7h5.4v7h7.1V448.9z M313.4,431.5h-24.1
			c-1.5,0-2.8,1.2-2.8,2.8v24c0,1.5,1.3,2.8,2.8,2.8c0,0,0,0,0,0h24.1c1.5,0,2.8-1.2,2.8-2.8c0,0,0,0,0,0v-24
			C316.2,432.7,314.9,431.5,313.4,431.5C313.4,431.5,313.4,431.5,313.4,431.5z"/>
	</g>
	<g transform="translate(506 358)">
		<path class="st4" d="M2,0h24c1.1,0,2,0.9,2,2v30c0,1.1-0.9,2-2,2H2c-1.1,0-2-0.9-2-2V2C0,0.9,0.9,0,2,0z"/>
		<path class="st7" d="M17,21.3h-5.1l-1,3.1H8L13,10h3l5,14.5H18L17,21.3z M12.6,19.1h3.6l-1.8-5.7h-0.1L12.6,19.1z"/>
	</g>
	<g transform="translate(408 260)">
		<path class="st4" d="M2,0h24c1.1,0,2,0.9,2,2v30c0,1.1-0.9,2-2,2H2c-1.1,0-2-0.9-2-2V2C0,0.9,0.9,0,2,0z"/>
		<path class="st7" d="M17,21.3h-5.1l-1,3.1H8L13,10h3l5,14.5H18L17,21.3z M12.6,19.1h3.6l-1.8-5.7h-0.1L12.6,19.1z"/>
	</g>
	<g transform="translate(353 404)">
		<path class="st4" d="M2,0h24c1.1,0,2,0.9,2,2v30c0,1.1-0.9,2-2,2H2c-1.1,0-2-0.9-2-2V2C0,0.9,0.9,0,2,0z"/>
		<path class="st7" d="M17,21.3h-5.1l-1,3.1H8L13,10h3l5,14.5H18L17,21.3z M12.6,19.1h3.6l-1.8-5.7h-0.1L12.6,19.1z"/>
	</g>
	<path class="st3" d="M343.9,442c2.1-2.1,3.2-4.9,3.2-7.8c0-6.2-5-11.1-11.2-11.1c-6.2,0-11.2,5-11.2,11.1c0,3,1.2,5.8,3.2,7.8
		c-5.2,1.9-9,6.9-9,12.8v7.1h33.9v-7.1C352.9,448.9,349.2,443.9,343.9,442"/>
	<path class="st7" d="M336.8,448.3l-6.5,6.5l-0.5,3l3-0.5l6.5-6.5L336.8,448.3z M338.8,446.4l-1,1l-0.4,0.4l0,0l2.5,2.5l0,0l0.4-0.4
		l1-1c0.3-0.3,0.3-0.8,0-1.1c0,0,0,0,0,0l-1.4-1.4C339.6,446.1,339.1,446.1,338.8,446.4"/>
	<g class="st9">
		<path class="st3" d="M471.7,381.9c0.5-0.8,0.3-1.8-0.5-2.3l-14.9-9.3c-0.8-0.5-1.9-0.3-2.5,0.5c-0.5,0.8-0.3,1.8,0.5,2.3l14.9,9.3
			C470.1,382.9,471.2,382.7,471.7,381.9"/>
		<path class="st3" d="M438.3,381.9c-0.5-0.8-0.3-1.8,0.5-2.3l14.9-9.3c0.8-0.5,1.9-0.3,2.5,0.5c0.5,0.8,0.3,1.8-0.5,2.3l-14.9,9.3
			C439.9,382.9,438.8,382.7,438.3,381.9 M464.1,402.9H457v7h-5.4v-7h-7.1v-5.4h7.1v-7h5.4v7h7.1V402.9z M466.4,385.5h-24.1
			c-1.5,0-2.8,1.2-2.8,2.8v24c0,1.5,1.3,2.8,2.8,2.8c0,0,0,0,0,0h24.1c1.5,0,2.8-1.2,2.8-2.8c0,0,0,0,0,0v-24
			C469.2,386.7,467.9,385.5,466.4,385.5C466.4,385.5,466.4,385.5,466.4,385.5z"/>
	</g>
	<path class="st3" d="M496.9,396c2.1-2.1,3.2-4.9,3.2-7.8c0-6.2-5-11.1-11.2-11.1c-6.2,0-11.2,5-11.2,11.1c0,3,1.2,5.8,3.2,7.8
		c-5.2,1.9-9,6.9-9,12.8v7.1h33.9v-7.1C505.9,402.9,502.2,397.9,496.9,396"/>
	<path class="st7" d="M489.8,402.3l-6.5,6.5l-0.5,3l3-0.5l6.5-6.5L489.8,402.3z M491.8,400.4l-1,1l-0.4,0.4l0,0l2.5,2.5l0,0l0.4-0.4
		l1-1c0.3-0.3,0.3-0.8,0-1.1c0,0,0,0,0,0l-1.4-1.4C492.6,400.1,492.1,400.1,491.8,400.4"/>
	<path class="st14" d="M174.1,104V92.6h3.7c1.4,0,2.6,0.4,3.5,1.4c0.9,0.9,1.4,2.1,1.4,3.5v1.7c0,1.4-0.5,2.6-1.4,3.5
		c-0.9,0.9-2.1,1.3-3.5,1.3C177.8,104,174.1,104,174.1,104z M176,94.1v8.3h1.7c0.9,0,1.7-0.3,2.2-0.9c0.5-0.6,0.8-1.4,0.8-2.4v-1.7
		c0-1-0.3-1.8-0.8-2.4c-0.5-0.6-1.3-0.9-2.2-0.9H176L176,94.1z M186.4,104h-1.9v-8.5h1.9V104z M186.4,93.5h-1.9v-1.7h1.9V93.5z
		 M193.3,101.7c0-0.3-0.1-0.5-0.4-0.7c-0.2-0.2-0.7-0.4-1.4-0.5c-1-0.2-1.8-0.5-2.3-0.9c-0.5-0.4-0.8-0.9-0.8-1.6
		c0-0.7,0.3-1.3,0.9-1.8c0.6-0.5,1.4-0.8,2.4-0.8c1,0,1.9,0.3,2.5,0.8c0.6,0.5,0.9,1.1,0.9,1.9l0,0h-1.8c0-0.3-0.1-0.7-0.4-0.9
		c-0.3-0.2-0.6-0.4-1.1-0.4c-0.5,0-0.8,0.1-1,0.3c-0.2,0.2-0.4,0.5-0.4,0.8c0,0.3,0.1,0.5,0.3,0.7c0.2,0.2,0.7,0.3,1.4,0.5
		c1.1,0.2,1.9,0.5,2.4,0.9c0.5,0.4,0.8,0.9,0.8,1.6c0,0.8-0.3,1.4-0.9,1.9c-0.6,0.5-1.5,0.7-2.5,0.7c-1.1,0-2-0.3-2.6-0.8
		c-0.6-0.6-0.9-1.2-0.9-1.9l0,0h1.8c0,0.5,0.2,0.8,0.5,1.1c0.3,0.2,0.7,0.3,1.2,0.3c0.5,0,0.9-0.1,1.1-0.3
		C193.1,102.3,193.3,102,193.3,101.7L193.3,101.7z M199.2,93.5v2.1h1.5V97h-1.5v4.7c0,0.3,0.1,0.6,0.2,0.7c0.1,0.1,0.4,0.2,0.6,0.2
		c0.2,0,0.4,0,0.6-0.1l0.2,1.4c-0.2,0.1-0.4,0.2-0.6,0.2c-0.2,0.1-0.5,0.1-0.7,0.1c-0.7,0-1.2-0.2-1.6-0.6c-0.4-0.4-0.6-1.1-0.6-1.9
		V97H196v-1.4h1.3v-2.1L199.2,93.5L199.2,93.5z M206.6,97.3l-0.8,0c-0.4,0-0.7,0.1-0.9,0.2c-0.3,0.2-0.5,0.4-0.6,0.7v5.9h-1.9v-8.5
		h1.7l0.1,1.2c0.2-0.4,0.5-0.8,0.8-1c0.3-0.2,0.7-0.4,1.2-0.4c0.1,0,0.2,0,0.3,0c0.1,0,0.2,0,0.3,0.1L206.6,97.3L206.6,97.3z
		 M210,104h-1.9v-8.5h1.9C210,95.5,210,104,210,104z M210,93.5h-1.9v-1.7h1.9V93.5z M215.6,102.6c0.5,0,0.9-0.1,1.2-0.4
		c0.3-0.3,0.5-0.6,0.5-1h1.7l0,0c0,0.8-0.3,1.5-1,2c-0.7,0.6-1.5,0.9-2.4,0.9c-1.2,0-2.2-0.4-2.9-1.2c-0.7-0.8-1-1.8-1-3v-0.3
		c0-1.2,0.3-2.2,1-3c0.7-0.8,1.6-1.2,2.9-1.2c1,0,1.8,0.3,2.5,0.9c0.6,0.6,0.9,1.3,0.9,2.3l0,0h-1.7c0-0.5-0.2-0.9-0.5-1.2
		c-0.3-0.3-0.7-0.5-1.2-0.5c-0.7,0-1.2,0.3-1.5,0.8c-0.3,0.5-0.4,1.2-0.4,1.9v0.3c0,0.8,0.1,1.5,0.4,2
		C214.4,102.4,214.9,102.6,215.6,102.6L215.6,102.6z M222.9,93.5v2.1h1.5V97h-1.5v4.7c0,0.3,0.1,0.6,0.2,0.7
		c0.2,0.1,0.4,0.2,0.6,0.2c0.2,0,0.4,0,0.6-0.1l0.2,1.4c-0.2,0.1-0.4,0.2-0.6,0.2c-0.2,0.1-0.5,0.1-0.7,0.1c-0.7,0-1.2-0.2-1.6-0.6
		c-0.4-0.4-0.6-1.1-0.6-1.9V97h-1.3v-1.4h1.3v-2.1H222.9L222.9,93.5z M234.7,104h-1.9v-9.6h-2.3V93l4.2-0.4V104z"/>
	<circle class="st5" cx="438" cy="181" r="58"/>
	<path class="st14" d="M310.8,8.2L310.8,8.2c0,1.2-0.3,2.1-1.1,2.9c-0.8,0.7-1.8,1.1-3.1,1.1c-1.3,0-2.4-0.4-3.2-1.3
		c-0.8-0.9-1.2-2-1.2-3.4V5.2c0-1.4,0.4-2.5,1.2-3.4c0.8-0.9,1.9-1.3,3.2-1.3c1.3,0,2.4,0.4,3.2,1.1c0.8,0.7,1.1,1.7,1.1,2.8l0,0
		h-1.8c0-0.8-0.2-1.4-0.6-1.8s-1-0.6-1.8-0.6c-0.8,0-1.4,0.3-1.8,0.9c-0.5,0.6-0.7,1.4-0.7,2.3v2.2c0,0.9,0.2,1.7,0.7,2.3
		c0.5,0.6,1.1,0.9,1.9,0.9c0.8,0,1.4-0.2,1.8-0.6c0.4-0.4,0.6-1,0.6-1.8L310.8,8.2L310.8,8.2z M312,7.7c0-1.3,0.3-2.3,1-3.1
		c0.7-0.8,1.6-1.2,2.8-1.2c1.2,0,2.2,0.4,2.9,1.2c0.7,0.8,1,1.8,1,3.1v0.2c0,1.3-0.3,2.3-1,3.1c-0.7,0.8-1.6,1.2-2.8,1.2
		c-1.2,0-2.2-0.4-2.9-1.2c-0.7-0.8-1-1.8-1-3.1L312,7.7L312,7.7z M313.9,7.9c0,0.8,0.2,1.5,0.5,2c0.3,0.5,0.8,0.8,1.5,0.8
		c0.7,0,1.2-0.3,1.5-0.8c0.3-0.5,0.5-1.2,0.5-2V7.7c0-0.8-0.2-1.5-0.5-2c-0.3-0.5-0.8-0.8-1.5-0.8c-0.7,0-1.2,0.3-1.5,0.8
		c-0.3,0.5-0.5,1.2-0.5,2V7.9z M326.7,10.8c-0.2,0.4-0.6,0.8-1,1c-0.4,0.2-0.9,0.4-1.4,0.4c-0.9,0-1.6-0.3-2.1-0.9s-0.8-1.5-0.8-2.7
		V3.5h1.9v5.1c0,0.7,0.1,1.3,0.4,1.6s0.6,0.4,1.1,0.4c0.5,0,0.8-0.1,1.2-0.2c0.3-0.2,0.6-0.4,0.7-0.7V3.5h1.9V12h-1.7L326.7,10.8
		L326.7,10.8z M332.2,3.5l0.1,1.2c0.3-0.4,0.6-0.8,1-1c0.4-0.2,0.9-0.4,1.4-0.4c0.9,0,1.6,0.3,2.1,0.8c0.5,0.5,0.7,1.4,0.7,2.5V12
		h-1.9V6.7c0-0.6-0.1-1.1-0.4-1.4c-0.3-0.3-0.7-0.4-1.2-0.4c-0.4,0-0.7,0.1-1,0.2c-0.3,0.2-0.5,0.4-0.7,0.7V12h-1.9V3.5L332.2,3.5
		L332.2,3.5z M341.9,1.5v2.1h1.5V5h-1.5v4.7c0,0.3,0.1,0.6,0.2,0.7c0.2,0.1,0.4,0.2,0.6,0.2c0.2,0,0.4,0,0.6-0.1l0.2,1.4
		c-0.2,0.1-0.4,0.2-0.6,0.2c-0.2,0.1-0.5,0.1-0.7,0.1c-0.7,0-1.2-0.2-1.6-0.6c-0.4-0.4-0.6-1.1-0.6-1.9V5h-1.3V3.5h1.3V1.5
		L341.9,1.5L341.9,1.5z M349.3,5.3l-0.8,0c-0.4,0-0.7,0.1-0.9,0.2c-0.3,0.2-0.5,0.4-0.6,0.7V12h-1.9V3.5h1.7l0.1,1.2
		c0.2-0.4,0.5-0.8,0.8-1c0.3-0.2,0.7-0.4,1.2-0.4c0.1,0,0.2,0,0.3,0c0.1,0,0.2,0,0.3,0.1C349.6,3.5,349.3,5.3,349.3,5.3z M353.5,8.6
		l0.2,0.8h0l1.9-5.9h2.1l-3.5,9.7c-0.2,0.6-0.5,1.1-0.9,1.5c-0.4,0.4-1,0.6-1.7,0.6c-0.2,0-0.3,0-0.5,0c-0.2,0-0.3-0.1-0.5-0.1
		l0.2-1.5l0.3,0c0.1,0,0.2,0,0.3,0c0.3,0,0.6-0.1,0.8-0.4c0.2-0.2,0.4-0.5,0.5-0.8l0.3-0.8l-3.1-8.4h2.1L353.5,8.6L353.5,8.6z"/>
	<g transform="translate(404 164.195)">
		<defs>
			<filter id="Adobe_OpacityMaskFilter_3_" filterUnits="userSpaceOnUse" x="0" y="0.2" width="39.9" height="45.4">
				<feColorMatrix  type="matrix" values="1 0 0 0 0  0 1 0 0 0  0 0 1 0 0  0 0 0 1 0"/>
			</filter>
		</defs>
		<mask maskUnits="userSpaceOnUse" x="0" y="0.2" width="39.9" height="45.4" id="h_1_">
			<g class="st15">
				<path id="g_1_" class="st7" d="M0,0.2h39.9v45.4H0V0.2z"/>
			</g>
		</mask>
		<path class="st16" d="M29.3,22.4c2.4-2.4,3.8-5.7,3.8-9.1c0-7.2-5.9-13-13.2-13c-7.3,0-13.2,5.8-13.2,13c0,3.4,1.4,6.7,3.8,9.1
			C4.4,24.6,0,30.5,0,37.4v8.3h39.9v-8.3C39.9,30.5,35.5,24.6,29.3,22.4"/>
	</g>
	<path class="st7" d="M429.2,195.5c0,0.7-0.1,1.3-0.3,1.8l-3.7,7.9c-0.4,0.9-2,0.9-2.4,0l-3.8-7.9c-0.2-0.5-0.3-1.1-0.3-1.8
		c0-1.4,0.5-2.7,1.5-3.7c1-1,2.3-1.5,3.7-1.5c1.5,0,2.7,0.5,3.7,1.5C428.7,192.8,429.2,194,429.2,195.5 M425.8,197.3
		c0.5-0.5,0.8-1.1,0.8-1.8s-0.3-1.3-0.8-1.8c-0.5-0.5-1.2-0.8-1.9-0.8c-0.7,0-1.3,0.3-1.9,0.8c-0.5,0.5-0.8,1.2-0.8,1.8
		c0,0.7,0.3,1.3,0.8,1.8c0.5,0.5,1.1,0.8,1.9,0.8S425.3,197.8,425.8,197.3"/>
	<g transform="translate(444 152)">
		<path class="st4" d="M2,0h24c1.1,0,2,0.9,2,2v30c0,1.1-0.9,2-2,2H2c-1.1,0-2-0.9-2-2V2C0,0.9,0.9,0,2,0z"/>
		<path class="st7" d="M17,21.3h-5.1l-1,3.1H8L13,10h3l5,14.5H18L17,21.3z M12.6,19.1h3.6l-1.8-5.7h-0.1L12.6,19.1z"/>
	</g>
	<g transform="translate(474 152)">
		<path class="st17" d="M2,0h24c1.1,0,2,0.9,2,2v30c0,1.1-0.9,2-2,2H2c-1.1,0-2-0.9-2-2V2C0,0.9,0.9,0,2,0z"/>
		<path class="st7" d="M9,24.5V10h4.9c1.7,0,3,0.3,4,1s1.4,1.7,1.4,3c0,0.7-0.2,1.3-0.5,1.8c-0.4,0.5-0.9,0.9-1.5,1.2
			c0.9,0.2,1.5,0.6,2,1.2c0.4,0.6,0.6,1.3,0.6,2.1c0,1.4-0.5,2.4-1.4,3.1c-0.9,0.7-2.2,1.1-3.9,1.1H9z M11.9,18.1v4.2h2.7
			c0.8,0,1.4-0.2,1.8-0.5c0.4-0.3,0.6-0.8,0.6-1.5c0-0.7-0.2-1.2-0.5-1.6c-0.3-0.4-0.9-0.6-1.6-0.6L11.9,18.1L11.9,18.1z M11.9,16.1
			H14c0.8,0,1.4-0.2,1.8-0.5c0.4-0.3,0.6-0.8,0.6-1.4c0-0.7-0.2-1.2-0.6-1.5c-0.4-0.3-1-0.5-1.9-0.5h-2V16.1z"/>
	</g>
	<g transform="translate(241 139)">
		<path class="st17" d="M2,0h24c1.1,0,2,0.9,2,2v30c0,1.1-0.9,2-2,2H2c-1.1,0-2-0.9-2-2V2C0,0.9,0.9,0,2,0z"/>
		<path class="st7" d="M9,24.5V10h4.9c1.7,0,3,0.3,4,1s1.4,1.7,1.4,3c0,0.7-0.2,1.3-0.5,1.8c-0.4,0.5-0.9,0.9-1.5,1.2
			c0.9,0.2,1.5,0.6,2,1.2c0.4,0.6,0.6,1.3,0.6,2.1c0,1.4-0.5,2.4-1.4,3.1c-0.9,0.7-2.2,1.1-3.9,1.1H9z M11.9,18.1v4.2h2.7
			c0.8,0,1.4-0.2,1.8-0.5c0.4-0.3,0.6-0.8,0.6-1.5c0-0.7-0.2-1.2-0.5-1.6c-0.3-0.4-0.9-0.6-1.6-0.6L11.9,18.1L11.9,18.1z M11.9,16.1
			H14c0.8,0,1.4-0.2,1.8-0.5c0.4-0.3,0.6-0.8,0.6-1.4c0-0.7-0.2-1.2-0.6-1.5c-0.4-0.3-1-0.5-1.9-0.5h-2V16.1z"/>
	</g>
	<g transform="translate(365 51)">
		<path class="st17" d="M2,0h24c1.1,0,2,0.9,2,2v30c0,1.1-0.9,2-2,2H2c-1.1,0-2-0.9-2-2V2C0,0.9,0.9,0,2,0z"/>
		<path class="st7" d="M9,24.5V10h4.9c1.7,0,3,0.3,4,1s1.4,1.7,1.4,3c0,0.7-0.2,1.3-0.5,1.8c-0.4,0.5-0.9,0.9-1.5,1.2
			c0.9,0.2,1.5,0.6,2,1.2c0.4,0.6,0.6,1.3,0.6,2.1c0,1.4-0.5,2.4-1.4,3.1c-0.9,0.7-2.2,1.1-3.9,1.1H9z M11.9,18.1v4.2h2.7
			c0.8,0,1.4-0.2,1.8-0.5c0.4-0.3,0.6-0.8,0.6-1.5c0-0.7-0.2-1.2-0.5-1.6c-0.3-0.4-0.9-0.6-1.6-0.6L11.9,18.1L11.9,18.1z M11.9,16.1
			H14c0.8,0,1.4-0.2,1.8-0.5c0.4-0.3,0.6-0.8,0.6-1.4c0-0.7-0.2-1.2-0.6-1.5c-0.4-0.3-1-0.5-1.9-0.5h-2V16.1z"/>
	</g>
	<g transform="translate(283 226)">
		<path class="st17" d="M2,0h24c1.1,0,2,0.9,2,2v30c0,1.1-0.9,2-2,2H2c-1.1,0-2-0.9-2-2V2C0,0.9,0.9,0,2,0z"/>
		<path class="st7" d="M9,24.5V10h4.9c1.7,0,3,0.3,4,1s1.4,1.7,1.4,3c0,0.7-0.2,1.3-0.5,1.8c-0.4,0.5-0.9,0.9-1.5,1.2
			c0.9,0.2,1.5,0.6,2,1.2c0.4,0.6,0.6,1.3,0.6,2.1c0,1.4-0.5,2.4-1.4,3.1c-0.9,0.7-2.2,1.1-3.9,1.1H9z M11.9,18.1v4.2h2.7
			c0.8,0,1.4-0.2,1.8-0.5c0.4-0.3,0.6-0.8,0.6-1.5c0-0.7-0.2-1.2-0.5-1.6c-0.3-0.4-0.9-0.6-1.6-0.6L11.9,18.1L11.9,18.1z M11.9,16.1
			H14c0.8,0,1.4-0.2,1.8-0.5c0.4-0.3,0.6-0.8,0.6-1.4c0-0.7-0.2-1.2-0.6-1.5c-0.4-0.3-1-0.5-1.9-0.5h-2V16.1z"/>
	</g>
	<g transform="translate(164 319)">
		<path class="st17" d="M2,0h24c1.1,0,2,0.9,2,2v30c0,1.1-0.9,2-2,2H2c-1.1,0-2-0.9-2-2V2C0,0.9,0.9,0,2,0z"/>
		<path class="st7" d="M9,24.5V10h4.9c1.7,0,3,0.3,4,1s1.4,1.7,1.4,3c0,0.7-0.2,1.3-0.5,1.8c-0.4,0.5-0.9,0.9-1.5,1.2
			c0.9,0.2,1.5,0.6,2,1.2c0.4,0.6,0.6,1.3,0.6,2.1c0,1.4-0.5,2.4-1.4,3.1c-0.9,0.7-2.2,1.1-3.9,1.1H9z M11.9,18.1v4.2h2.7
			c0.8,0,1.4-0.2,1.8-0.5c0.4-0.3,0.6-0.8,0.6-1.5c0-0.7-0.2-1.2-0.5-1.6c-0.3-0.4-0.9-0.6-1.6-0.6L11.9,18.1L11.9,18.1z M11.9,16.1
			H14c0.8,0,1.4-0.2,1.8-0.5c0.4-0.3,0.6-0.8,0.6-1.4c0-0.7-0.2-1.2-0.6-1.5c-0.4-0.3-1-0.5-1.9-0.5h-2V16.1z"/>
	</g>
	<path class="st14" d="M407.1,117v-11.4h3.7c1.4,0,2.6,0.4,3.5,1.4c0.9,0.9,1.4,2.1,1.4,3.5v1.7c0,1.4-0.5,2.6-1.4,3.5
		c-0.9,0.9-2.1,1.3-3.5,1.3C410.8,117,407.1,117,407.1,117z M409,107.1v8.3h1.7c0.9,0,1.7-0.3,2.2-0.9c0.5-0.6,0.8-1.4,0.8-2.4v-1.7
		c0-1-0.3-1.8-0.8-2.4c-0.5-0.6-1.3-0.9-2.2-0.9H409z M419.4,117h-1.9v-8.5h1.9V117z M419.4,106.5h-1.9v-1.7h1.9V106.5z
		 M426.3,114.7c0-0.3-0.1-0.5-0.4-0.7c-0.2-0.2-0.7-0.4-1.4-0.5c-1-0.2-1.8-0.5-2.3-0.9c-0.5-0.4-0.8-0.9-0.8-1.6
		c0-0.7,0.3-1.3,0.9-1.8c0.6-0.5,1.4-0.8,2.4-0.8c1,0,1.9,0.3,2.5,0.8c0.6,0.5,0.9,1.1,0.9,1.9l0,0h-1.8c0-0.3-0.1-0.7-0.4-0.9
		c-0.3-0.2-0.6-0.4-1.1-0.4c-0.5,0-0.8,0.1-1,0.3c-0.2,0.2-0.4,0.5-0.4,0.8c0,0.3,0.1,0.5,0.3,0.7c0.2,0.2,0.7,0.3,1.4,0.5
		c1.1,0.2,1.9,0.5,2.4,0.9c0.5,0.4,0.8,0.9,0.8,1.6c0,0.8-0.3,1.4-0.9,1.9c-0.6,0.5-1.5,0.7-2.5,0.7c-1.1,0-2-0.3-2.6-0.8
		c-0.6-0.6-0.9-1.2-0.9-1.9l0,0h1.8c0,0.5,0.2,0.8,0.5,1.1c0.3,0.2,0.7,0.3,1.2,0.3c0.5,0,0.9-0.1,1.1-0.3
		C426.1,115.3,426.3,115,426.3,114.7L426.3,114.7z M432.2,106.5v2.1h1.5v1.4h-1.5v4.7c0,0.3,0.1,0.6,0.2,0.7
		c0.1,0.1,0.4,0.2,0.6,0.2c0.2,0,0.4,0,0.6-0.1l0.2,1.4c-0.2,0.1-0.4,0.2-0.6,0.2c-0.2,0.1-0.5,0.1-0.7,0.1c-0.7,0-1.2-0.2-1.6-0.6
		c-0.4-0.4-0.6-1.1-0.6-1.9V110H429v-1.4h1.3v-2.1L432.2,106.5L432.2,106.5z M439.6,110.3l-0.8,0c-0.4,0-0.7,0.1-0.9,0.2
		c-0.3,0.2-0.5,0.4-0.6,0.7v5.9h-1.9v-8.5h1.7l0.1,1.2c0.2-0.4,0.5-0.8,0.8-1c0.3-0.2,0.7-0.4,1.2-0.4c0.1,0,0.2,0,0.3,0
		c0.1,0,0.2,0,0.3,0.1C439.8,108.5,439.6,110.3,439.6,110.3z M443,117h-1.9v-8.5h1.9C443,108.5,443,117,443,117z M443,106.5h-1.9
		v-1.7h1.9V106.5z M448.6,115.6c0.5,0,0.9-0.1,1.2-0.4c0.3-0.3,0.5-0.6,0.5-1h1.7l0,0c0,0.8-0.3,1.5-1,2c-0.7,0.6-1.5,0.9-2.4,0.9
		c-1.2,0-2.2-0.4-2.9-1.2c-0.7-0.8-1-1.8-1-3v-0.3c0-1.2,0.3-2.2,1-3c0.7-0.8,1.6-1.2,2.9-1.2c1,0,1.8,0.3,2.5,0.9
		c0.6,0.6,0.9,1.3,0.9,2.3l0,0h-1.7c0-0.5-0.2-0.9-0.5-1.2c-0.3-0.3-0.7-0.5-1.2-0.5c-0.7,0-1.2,0.3-1.5,0.8
		c-0.3,0.5-0.4,1.2-0.4,1.9v0.3c0,0.8,0.1,1.5,0.4,2C447.4,115.4,447.9,115.6,448.6,115.6L448.6,115.6z M455.9,106.5v2.1h1.5v1.4
		h-1.5v4.7c0,0.3,0.1,0.6,0.2,0.7c0.2,0.1,0.4,0.2,0.6,0.2c0.2,0,0.4,0,0.6-0.1l0.2,1.4c-0.2,0.1-0.4,0.2-0.6,0.2
		c-0.2,0.1-0.5,0.1-0.7,0.1c-0.7,0-1.2-0.2-1.6-0.6c-0.4-0.4-0.6-1.1-0.6-1.9V110h-1.3v-1.4h1.3v-2.1H455.9L455.9,106.5z M470.5,117
		h-7.6v-1.3l3.7-4c0.6-0.7,1-1.2,1.2-1.6c0.2-0.4,0.3-0.8,0.3-1.2c0-0.5-0.1-0.9-0.4-1.3s-0.7-0.5-1.2-0.5c-0.7,0-1.2,0.2-1.5,0.6
		s-0.5,0.9-0.5,1.5h-1.8l0,0c0-1,0.3-1.9,1-2.6c0.7-0.7,1.6-1,2.8-1c1.1,0,2,0.3,2.6,0.9c0.6,0.6,1,1.4,1,2.4c0,0.7-0.2,1.3-0.5,1.9
		c-0.4,0.6-0.9,1.3-1.7,2.2l-2.5,2.7l0,0h5.1V117z"/>
	<g class="st18">
		<path class="st3" d="M373.7,283.9c0.5-0.8,0.3-1.8-0.5-2.3l-14.9-9.3c-0.8-0.5-1.9-0.3-2.5,0.5c-0.5,0.8-0.3,1.8,0.5,2.3l14.9,9.3
			C372.1,284.9,373.2,284.7,373.7,283.9"/>
		<path class="st3" d="M340.3,283.9c-0.5-0.8-0.3-1.8,0.5-2.3l14.9-9.3c0.8-0.5,1.9-0.3,2.5,0.5c0.5,0.8,0.3,1.8-0.5,2.3l-14.9,9.3
			C341.9,284.9,340.8,284.7,340.3,283.9 M366.1,304.9H359v7h-5.4v-7h-7.1v-5.4h7.1v-7h5.4v7h7.1V304.9z M368.4,287.5h-24.1
			c-1.5,0-2.8,1.2-2.8,2.8v24c0,1.5,1.3,2.8,2.8,2.8c0,0,0,0,0,0h24.1c1.5,0,2.8-1.2,2.8-2.8c0,0,0,0,0,0v-24
			C371.2,288.7,369.9,287.5,368.4,287.5C368.4,287.5,368.4,287.5,368.4,287.5z"/>
	</g>
	<g>
		<path class="st3" d="M398.9,298c2.1-2.1,3.2-4.9,3.2-7.8c0-6.2-5-11.1-11.2-11.1c-6.2,0-11.2,5-11.2,11.1c0,3,1.2,5.8,3.2,7.8
			c-5.2,1.9-9,6.9-9,12.8v7.1h33.9v-7.1C407.9,304.9,404.2,299.9,398.9,298"/>
		<path class="st7" d="M391.8,304.3l-6.5,6.5l-0.5,3l3-0.5l6.5-6.5L391.8,304.3z M393.8,302.4l-1,1l-0.4,0.4l0,0l2.5,2.5l0,0
			l0.4-0.4l1-1c0.3-0.3,0.3-0.8,0-1.1c0,0,0,0,0,0l-1.4-1.4C394.6,302.1,394.1,302.1,393.8,302.4"/>
	</g>
	<g transform="translate(0 173)">
		<circle class="st19" cx="65.7" cy="66.8" r="49.7"/>
		<circle class="st19" cx="66" cy="67.1" r="58"/>
		<circle class="st19" cx="66.3" cy="66.4" r="66.3"/>
		<circle class="st19" cx="65.9" cy="66.9" r="24.9"/>
		<circle class="st19" cx="66.2" cy="66.2" r="33.2"/>
		<circle class="st19" cx="66.4" cy="66.5" r="41.4"/>
		<g>
			<path class="st17" d="M51.1,77.8L64,57.9l7,7L51.1,77.8z"/>
			<path class="st17" d="M80.7,53.1L67.8,73l-7-7L80.7,53.1z"/>
		</g>
	</g>
</g>
</svg>
