<?xml version="1.0" encoding="utf-8"?>
<!-- Generator: Adobe Illustrator 23.0.2, SVG Export Plug-In . SVG Version: 6.00 Build 0)  -->
<svg version="1.1" id="Layer_1" xmlns="http://www.w3.org/2000/svg" xmlns:xlink="http://www.w3.org/1999/xlink" x="0px" y="0px"
	 viewBox="0 0 580 531" style="enable-background:new 0 0 580 531;" xml:space="preserve">
<style type="text/css">
	.st0{fill-rule:evenodd;clip-rule:evenodd;fill:#3F424F;stroke:#3784F4;stroke-width:28;}
	.st1{fill-rule:evenodd;clip-rule:evenodd;fill:#D7E6FD;stroke:#FFFFFF;stroke-width:8;}
	.st2{opacity:0.4;}
	.st3{fill-rule:evenodd;clip-rule:evenodd;fill:#3784F4;}
	.st4{fill:#3784F4;}
	.st5{fill:#FFFFFF;}
	.st6{filter:url(#Adobe_OpacityMaskFilter);}
	.st7{fill-rule:evenodd;clip-rule:evenodd;fill:#FFFFFF;}
	.st8{mask:url(#b_1_);fill-rule:evenodd;clip-rule:evenodd;fill:#3784F4;}
	.st9{opacity:0.8;}
	.st10{filter:url(#Adobe_OpacityMaskFilter_1_);}
	.st11{mask:url(#d_1_);fill-rule:evenodd;clip-rule:evenodd;fill:#FFFFFF;}
	.st12{filter:url(#Adobe_OpacityMaskFilter_2_);}
	.st13{mask:url(#f_1_);fill-rule:evenodd;clip-rule:evenodd;fill:#FFFFFF;}
	.st14{fill-rule:evenodd;clip-rule:evenodd;fill:#3F424F;}
	.st15{filter:url(#Adobe_OpacityMaskFilter_3_);}
	.st16{mask:url(#h_1_);fill-rule:evenodd;clip-rule:evenodd;fill:#3784F4;}
</style>
<g transform="translate(16)">
	<path class="st0" d="M520.8,278.9l-6.3-26.9l-30-119.1l14.8-51.1l-14.8-40.5l-9.7-9.3l-41.5,9.3L356,92.5h-46.8l-27.8-7.2
		l-88.7-23.1h-52.5L95.4,110l-35.8,12.7H24.8L0,185.7l24.8,38.2l25.5,55l-25.5,36.3L8.4,338.9L24.8,399l34.8,8.5l50.6,37.1h82.5
		l18.3,5.7l11.8,3.7l25.8,31.6h74.1l84.5,31.4h36.5l40.8-24.3l14.8-62.4l50.7-83.7v-31.4L520.8,278.9z"/>
	<path class="st1" d="M259,402.7l36-9h11v-27l-31-43l10-29l9-25l7-29l20-16l6-16v-22L281.4,85.1L192.7,62h-52.5l-44.8,47.8
		l-35.8,12.7H24.8L0,185.5l24.8,38.2l25.5,55l-25.5,36.3L8.4,338.6l16.4,60.1l34.8,8.5l50.6,37.1h82.5L211,450v-23.3L259,402.7z"/>
	<g class="st2">
		<path class="st3" d="M73.7,342.9c0.5-0.8,0.3-1.8-0.5-2.3l-14.9-9.3c-0.8-0.5-1.9-0.3-2.5,0.5c-0.5,0.8-0.3,1.8,0.5,2.3l14.9,9.3
			C72.1,343.9,73.2,343.7,73.7,342.9"/>
		<path class="st3" d="M40.3,342.9c-0.5-0.8-0.3-1.8,0.5-2.3l14.9-9.3c0.8-0.5,1.9-0.3,2.5,0.5c0.5,0.8,0.3,1.8-0.5,2.3l-14.9,9.3
			C41.9,343.9,40.8,343.7,40.3,342.9 M66.1,363.9H59v7h-5.4v-7h-7.1v-5.4h7.1v-7H59v7h7.1V363.9z M68.4,346.5H44.2
			c-1.5,0-2.8,1.2-2.8,2.8v24c0,1.5,1.3,2.8,2.8,2.8c0,0,0,0,0,0h24.1c1.5,0,2.8-1.2,2.8-2.8c0,0,0,0,0,0v-24
			C71.2,347.7,69.9,346.5,68.4,346.5C68.4,346.5,68.4,346.5,68.4,346.5L68.4,346.5z"/>
	</g>
	<path class="st1" d="M520.8,278.9l-6.3-26.9l-30-119.1l14.8-51.1l-14.8-40.5l-9.7-9.3l-41.5,9.3L356,92.5h-46.8l-27.8-7.2L327,187
		v22l-6,16l-20,16l-7,29l-9,25l-10,29l31,43v27h-11l-36,9l-48,24v23.3l11.8,3.7l25.8,31.6h74.1l84.5,31.4h36.5l40.8-24.3l14.8-62.4
		l50.7-83.7v-31.4L520.8,278.9z"/>
	<circle class="st4" cx="303" cy="80" r="58"/>
	<circle class="st5" cx="179" cy="168" r="58"/>
	<g transform="translate(145 151.195)">
		<defs>
			<filter id="Adobe_OpacityMaskFilter" filterUnits="userSpaceOnUse" x="0" y="0.2" width="39.9" height="45.4">
				<feColorMatrix  type="matrix" values="1 0 0 0 0  0 1 0 0 0  0 0 1 0 0  0 0 0 1 0"/>
			</filter>
		</defs>
		<mask maskUnits="userSpaceOnUse" x="0" y="0.2" width="39.9" height="45.4" id="b_1_">
			<g class="st6">
				<path id="a_1_" class="st7" d="M0,0.2h39.9v45.4H0V0.2z"/>
			</g>
		</mask>
		<path class="st8" d="M29.3,22.4c2.4-2.4,3.8-5.7,3.8-9.1c0-7.2-5.9-13-13.2-13c-7.3,0-13.2,5.8-13.2,13c0,3.4,1.4,6.7,3.8,9.1
			C4.4,24.6,0,30.5,0,37.4v8.3h39.9v-8.3C39.9,30.5,35.5,24.6,29.3,22.4"/>
	</g>
	<path class="st7" d="M170.2,182.5c0,0.7-0.1,1.3-0.3,1.8l-3.7,7.9c-0.4,0.9-2,0.9-2.4,0l-3.8-7.9c-0.2-0.5-0.3-1.1-0.3-1.8
		c0-1.4,0.5-2.7,1.5-3.7c1-1,2.3-1.5,3.7-1.5c1.5,0,2.7,0.5,3.7,1.5C169.7,179.8,170.2,181,170.2,182.5 M166.8,184.3
		c0.5-0.5,0.8-1.1,0.8-1.8s-0.3-1.3-0.8-1.8c-0.5-0.5-1.2-0.8-1.9-0.8c-0.7,0-1.3,0.3-1.9,0.8c-0.5,0.5-0.8,1.2-0.8,1.8
		c0,0.7,0.3,1.3,0.8,1.8c0.5,0.5,1.1,0.8,1.9,0.8S166.3,184.8,166.8,184.3"/>
	<g transform="translate(227 226)">
		<path class="st4" d="M2,0h24c1.1,0,2,0.9,2,2v30c0,1.1-0.9,2-2,2H2c-1.1,0-2-0.9-2-2V2C0,0.9,0.9,0,2,0z"/>
		<path class="st7" d="M17,21.3h-5.1l-1,3.1H8L13,10h3l5,14.5H18L17,21.3z M12.6,19.1h3.6l-1.8-5.7h-0.1L12.6,19.1z"/>
	</g>
	<g transform="translate(108 319)">
		<path class="st4" d="M2,0h24c1.1,0,2,0.9,2,2v30c0,1.1-0.9,2-2,2H2c-1.1,0-2-0.9-2-2V2C0,0.9,0.9,0,2,0z"/>
		<path class="st7" d="M17,21.3h-5.1l-1,3.1H8L13,10h3l5,14.5H18L17,21.3z M12.6,19.1h3.6l-1.8-5.7h-0.1L12.6,19.1z"/>
	</g>
	<path class="st3" d="M98.9,357c2.1-2.1,3.2-4.9,3.2-7.8c0-6.2-5-11.1-11.2-11.1c-6.2,0-11.2,5-11.2,11.1c0,3,1.2,5.8,3.2,7.8
		c-5.2,1.9-9,6.9-9,12.8v7.1h33.9v-7.1C107.9,363.9,104.2,358.9,98.9,357"/>
	<path class="st7" d="M91.8,363.3l-6.5,6.5l-0.5,3l3-0.5l6.5-6.5L91.8,363.3z M93.8,361.4l-1,1l-0.4,0.4l0,0l2.5,2.5l0,0l0.4-0.4
		l1-1c0.3-0.3,0.3-0.8,0-1.1c0,0,0,0,0,0l-1.4-1.4C94.6,361.1,94.1,361.1,93.8,361.4"/>
	<g class="st9">
		<path class="st3" d="M192.7,249.9c0.5-0.8,0.3-1.8-0.5-2.3l-14.9-9.3c-0.8-0.5-1.9-0.3-2.5,0.5c-0.5,0.8-0.3,1.8,0.5,2.3l14.9,9.3
			C191.1,250.9,192.2,250.7,192.7,249.9"/>
		<path class="st3" d="M159.3,249.9c-0.5-0.8-0.3-1.8,0.5-2.3l14.9-9.3c0.8-0.5,1.9-0.3,2.5,0.5c0.5,0.8,0.3,1.8-0.5,2.3l-14.9,9.3
			C160.9,250.9,159.8,250.7,159.3,249.9 M185.1,270.9H178v7h-5.4v-7h-7.1v-5.4h7.1v-7h5.4v7h7.1V270.9z M187.4,253.5h-24.1
			c-1.5,0-2.8,1.2-2.8,2.8v24c0,1.5,1.3,2.8,2.8,2.8c0,0,0,0,0,0h24.1c1.5,0,2.8-1.2,2.8-2.8c0,0,0,0,0,0v-24
			C190.2,254.7,188.9,253.5,187.4,253.5C187.4,253.5,187.4,253.5,187.4,253.5z"/>
	</g>
	<g transform="translate(185 139)">
		<path class="st4" d="M2,0h24c1.1,0,2,0.9,2,2v30c0,1.1-0.9,2-2,2H2c-1.1,0-2-0.9-2-2V2C0,0.9,0.9,0,2,0z"/>
		<path class="st7" d="M17,21.3h-5.1l-1,3.1H8L13,10h3l5,14.5H18L17,21.3z M12.6,19.1h3.6l-1.8-5.7h-0.1L12.6,19.1z"/>
	</g>
	<g transform="translate(269 51)">
		<g transform="translate(6 12)">
			<defs>
				<filter id="Adobe_OpacityMaskFilter_1_" filterUnits="userSpaceOnUse" x="0.4" y="0.2" width="26.3" height="26.3">
					<feColorMatrix  type="matrix" values="1 0 0 0 0  0 1 0 0 0  0 0 1 0 0  0 0 0 1 0"/>
				</filter>
			</defs>
			<mask maskUnits="userSpaceOnUse" x="0.4" y="0.2" width="26.3" height="26.3" id="d_1_">
				<g class="st10">
					<path id="c_1_" class="st7" d="M0.4,0.2h26.3v26.3H0.4V0.2z"/>
				</g>
			</mask>
			<path class="st11" d="M26.7,13.3c0,7.3-5.9,13.2-13.2,13.2c-7.3,0-13.2-5.9-13.2-13.2c0-7.3,5.9-13.2,13.2-13.2
				C20.8,0.2,26.7,6.1,26.7,13.3"/>
		</g>
		<g transform="translate(0 33)">
			<defs>
				<filter id="Adobe_OpacityMaskFilter_2_" filterUnits="userSpaceOnUse" x="0" y="0" width="39.9" height="24.5">
					<feColorMatrix  type="matrix" values="1 0 0 0 0  0 1 0 0 0  0 0 1 0 0  0 0 0 1 0"/>
				</filter>
			</defs>
			<mask maskUnits="userSpaceOnUse" x="0" y="0" width="39.9" height="24.5" id="f_1_">
				<g class="st12">
					<path id="e_1_" class="st7" d="M0,0h39.9v24.5H0V0z"/>
				</g>
			</mask>
			<path class="st13" d="M39.9,16.2C39.9,7.3,32.6,0,23.7,0h-7.6C7.2,0,0,7.3,0,16.2v8.3h39.9V16.2z"/>
		</g>
		<path class="st3" d="M20.1,48.9c-2.1,0-3.8-1.7-3.8-3.8c0-2.1,1.7-3.8,3.8-3.8c2.1,0,3.8,1.7,3.8,3.8
			C23.9,47.2,22.2,48.9,20.1,48.9z M28.3,46.5v-2.7h-1.8c-0.2-0.8-0.5-1.5-0.9-2.2l1.3-1.3L25,38.4l-1.3,1.3
			c-0.7-0.4-1.4-0.7-2.2-0.9V37h-2.7v1.8c-0.8,0.2-1.5,0.5-2.2,0.9l-1.3-1.3l-1.9,1.9l1.3,1.3c-0.4,0.7-0.7,1.4-0.9,2.2H12v2.7h1.8
			c0.2,0.8,0.5,1.5,0.9,2.2L13.4,50l1.9,1.9l1.3-1.3c0.7,0.4,1.4,0.7,2.2,0.9v1.8h2.7v-1.8c0.8-0.2,1.5-0.5,2.2-0.9l1.3,1.3l1.9-1.9
			l-1.3-1.3c0.4-0.7,0.7-1.4,0.9-2.2H28.3z"/>
		<path class="st5" d="M42,0h24c1.1,0,2,0.9,2,2v30c0,1.1-0.9,2-2,2H42c-1.1,0-2-0.9-2-2V2C40,0.9,40.9,0,42,0z"/>
		<path class="st3" d="M57,21.3h-5.1l-1,3.1H48L53,10h3l5,14.5H58C58,24.5,57,21.3,57,21.3z M52.6,19.1h3.6l-1.8-5.7h-0.1L52.6,19.1
			z"/>
	</g>
	<path class="st3" d="M217.9,264c2.1-2.1,3.2-4.9,3.2-7.8c0-6.2-5-11.1-11.2-11.1c-6.2,0-11.2,5-11.2,11.2c0,3,1.2,5.8,3.2,7.8
		c-5.2,1.9-9,6.9-9,12.8v7.1h33.9v-7.1C226.9,270.9,223.2,265.9,217.9,264"/>
	<path class="st7" d="M210.8,270.3l-6.5,6.5l-0.5,3l3-0.5l6.5-6.5L210.8,270.3z M212.8,268.4l-1,1l-0.4,0.4l0,0l2.5,2.5l0,0l0.4-0.4
		l1-1c0.3-0.3,0.3-0.8,0-1.1c0,0,0,0,0,0l-1.4-1.4C213.6,268.1,213.1,268.1,212.8,268.4"/>
	<g class="st2">
		<path class="st3" d="M292.7,427.9c0.5-0.8,0.3-1.8-0.5-2.3l-14.9-9.3c-0.8-0.5-1.9-0.3-2.5,0.5c-0.5,0.8-0.3,1.8,0.5,2.3l14.9,9.3
			C291.1,428.9,292.2,428.7,292.7,427.9"/>
		<path class="st3" d="M259.3,427.9c-0.5-0.8-0.3-1.8,0.5-2.3l14.9-9.3c0.8-0.5,1.9-0.3,2.5,0.5c0.5,0.8,0.3,1.8-0.5,2.3l-14.9,9.3
			C260.9,428.9,259.8,428.7,259.3,427.9 M285.1,448.9H278v7h-5.4v-7h-7.1v-5.4h7.1v-7h5.4v7h7.1V448.9z M287.4,431.5h-24.1
			c-1.5,0-2.8,1.2-2.8,2.8v24c0,1.5,1.3,2.8,2.8,2.8c0,0,0,0,0,0h24.1c1.5,0,2.8-1.2,2.8-2.8c0,0,0,0,0,0v-24
			C290.2,432.7,288.9,431.5,287.4,431.5C287.4,431.5,287.4,431.5,287.4,431.5z"/>
	</g>
	<g transform="translate(480 358)">
		<path class="st4" d="M2,0h24c1.1,0,2,0.9,2,2v30c0,1.1-0.9,2-2,2H2c-1.1,0-2-0.9-2-2V2C0,0.9,0.9,0,2,0z"/>
		<path class="st7" d="M17,21.3h-5.1l-1,3.1H8L13,10h3l5,14.5H18L17,21.3z M12.6,19.1h3.6l-1.8-5.7h-0.1L12.6,19.1z"/>
	</g>
	<g transform="translate(327 404)">
		<path class="st4" d="M2,0h24c1.1,0,2,0.9,2,2v30c0,1.1-0.9,2-2,2H2c-1.1,0-2-0.9-2-2V2C0,0.9,0.9,0,2,0z"/>
		<path class="st7" d="M17,21.3h-5.1l-1,3.1H8L13,10h3l5,14.5H18L17,21.3z M12.6,19.1h3.6l-1.8-5.7h-0.1L12.6,19.1z"/>
	</g>
	<path class="st3" d="M317.9,442c2.1-2.1,3.2-4.9,3.2-7.8c0-6.2-5-11.1-11.2-11.1c-6.2,0-11.2,5-11.2,11.1c0,3,1.2,5.8,3.2,7.8
		c-5.2,1.9-9,6.9-9,12.8v7.1h33.9v-7.1C326.9,448.9,323.2,443.9,317.9,442"/>
	<path class="st7" d="M310.8,448.3l-6.5,6.5l-0.5,3l3-0.5l6.5-6.5L310.8,448.3z M312.8,446.4l-1,1l-0.4,0.4l0,0l2.5,2.5l0,0l0.4-0.4
		l1-1c0.3-0.3,0.3-0.8,0-1.1c0,0,0,0,0,0l-1.4-1.4C313.6,446.1,313.1,446.1,312.8,446.4"/>
	<g class="st9">
		<path class="st3" d="M445.7,381.9c0.5-0.8,0.3-1.8-0.5-2.3l-14.9-9.3c-0.8-0.5-1.9-0.3-2.5,0.5c-0.5,0.8-0.3,1.8,0.5,2.3l14.9,9.3
			C444.1,382.9,445.2,382.7,445.7,381.9"/>
		<path class="st3" d="M412.3,381.9c-0.5-0.8-0.3-1.8,0.5-2.3l14.9-9.3c0.8-0.5,1.9-0.3,2.5,0.5c0.5,0.8,0.3,1.8-0.5,2.3l-14.9,9.3
			C413.9,382.9,412.8,382.7,412.3,381.9 M438.1,402.9H431v7h-5.4v-7h-7.1v-5.4h7.1v-7h5.4v7h7.1V402.9z M440.4,385.5h-24.1
			c-1.5,0-2.8,1.2-2.8,2.8v24c0,1.5,1.3,2.8,2.8,2.8c0,0,0,0,0,0h24.1c1.5,0,2.8-1.2,2.8-2.8c0,0,0,0,0,0v-24
			C443.2,386.7,441.9,385.5,440.4,385.5C440.4,385.5,440.4,385.5,440.4,385.5z"/>
	</g>
	<path class="st3" d="M470.9,396c2.1-2.1,3.2-4.9,3.2-7.8c0-6.2-5-11.1-11.2-11.1c-6.2,0-11.2,5-11.2,11.1c0,3,1.2,5.8,3.2,7.8
		c-5.2,1.9-9,6.9-9,12.8v7.1h33.9v-7.1C479.9,402.9,476.2,397.9,470.9,396"/>
	<path class="st7" d="M463.8,402.3l-6.5,6.5l-0.5,3l3-0.5l6.5-6.5L463.8,402.3z M465.8,400.4l-1,1l-0.4,0.4l0,0l2.5,2.5l0,0l0.4-0.4
		l1-1c0.3-0.3,0.3-0.8,0-1.1c0,0,0,0,0,0l-1.4-1.4C466.6,400.1,466.1,400.1,465.8,400.4"/>
	<path class="st14" d="M148.1,104V92.6h3.7c1.4,0,2.6,0.4,3.5,1.4c0.9,0.9,1.4,2.1,1.4,3.5v1.7c0,1.4-0.5,2.6-1.4,3.5
		c-0.9,0.9-2.1,1.3-3.5,1.3C151.8,104,148.1,104,148.1,104z M150,94.1v8.3h1.7c0.9,0,1.7-0.3,2.2-0.9c0.5-0.6,0.8-1.4,0.8-2.4v-1.7
		c0-1-0.3-1.8-0.8-2.4c-0.5-0.6-1.3-0.9-2.2-0.9H150L150,94.1z M160.4,104h-1.9v-8.5h1.9V104z M160.4,93.5h-1.9v-1.7h1.9V93.5z
		 M167.3,101.7c0-0.3-0.1-0.5-0.4-0.7c-0.2-0.2-0.7-0.4-1.4-0.5c-1-0.2-1.8-0.5-2.3-0.9c-0.5-0.4-0.8-0.9-0.8-1.6
		c0-0.7,0.3-1.3,0.9-1.8c0.6-0.5,1.4-0.8,2.4-0.8c1,0,1.9,0.3,2.5,0.8c0.6,0.5,0.9,1.1,0.9,1.9l0,0h-1.8c0-0.3-0.1-0.7-0.4-0.9
		c-0.3-0.2-0.6-0.4-1.1-0.4c-0.5,0-0.8,0.1-1,0.3c-0.2,0.2-0.4,0.5-0.4,0.8c0,0.3,0.1,0.5,0.3,0.7c0.2,0.2,0.7,0.3,1.4,0.5
		c1.1,0.2,1.9,0.5,2.4,0.9c0.5,0.4,0.8,0.9,0.8,1.6c0,0.8-0.3,1.4-0.9,1.9c-0.6,0.5-1.5,0.7-2.5,0.7c-1.1,0-2-0.3-2.6-0.8
		c-0.6-0.6-0.9-1.2-0.9-1.9l0,0h1.8c0,0.5,0.2,0.8,0.5,1.1c0.3,0.2,0.7,0.3,1.2,0.3c0.5,0,0.9-0.1,1.1-0.3
		C167.1,102.3,167.3,102,167.3,101.7L167.3,101.7z M173.2,93.5v2.1h1.5V97h-1.5v4.7c0,0.3,0.1,0.6,0.2,0.7c0.1,0.1,0.4,0.2,0.6,0.2
		c0.2,0,0.4,0,0.6-0.1l0.2,1.4c-0.2,0.1-0.4,0.2-0.6,0.2c-0.2,0.1-0.5,0.1-0.7,0.1c-0.7,0-1.2-0.2-1.6-0.6c-0.4-0.4-0.6-1.1-0.6-1.9
		V97H170v-1.4h1.3v-2.1L173.2,93.5L173.2,93.5z M180.6,97.3l-0.8,0c-0.4,0-0.7,0.1-0.9,0.2c-0.3,0.2-0.5,0.4-0.6,0.7v5.9h-1.9v-8.5
		h1.7l0.1,1.2c0.2-0.4,0.5-0.8,0.8-1c0.3-0.2,0.7-0.4,1.2-0.4c0.1,0,0.2,0,0.3,0c0.1,0,0.2,0,0.3,0.1L180.6,97.3L180.6,97.3z
		 M184,104h-1.9v-8.5h1.9C184,95.5,184,104,184,104z M184,93.5h-1.9v-1.7h1.9V93.5z M189.6,102.6c0.5,0,0.9-0.1,1.2-0.4
		c0.3-0.3,0.5-0.6,0.5-1h1.7l0,0c0,0.8-0.3,1.5-1,2c-0.7,0.6-1.5,0.9-2.4,0.9c-1.2,0-2.2-0.4-2.9-1.2c-0.7-0.8-1-1.8-1-3v-0.3
		c0-1.2,0.3-2.2,1-3c0.7-0.8,1.6-1.2,2.9-1.2c1,0,1.8,0.3,2.5,0.9c0.6,0.6,0.9,1.3,0.9,2.3l0,0h-1.7c0-0.5-0.2-0.9-0.5-1.2
		c-0.3-0.3-0.7-0.5-1.2-0.5c-0.7,0-1.2,0.3-1.5,0.8c-0.3,0.5-0.4,1.2-0.4,1.9v0.3c0,0.8,0.1,1.5,0.4,2
		C188.4,102.4,188.9,102.6,189.6,102.6L189.6,102.6z M196.9,93.5v2.1h1.5V97h-1.5v4.7c0,0.3,0.1,0.6,0.2,0.7
		c0.2,0.1,0.4,0.2,0.6,0.2c0.2,0,0.4,0,0.6-0.1l0.2,1.4c-0.2,0.1-0.4,0.2-0.6,0.2c-0.2,0.1-0.5,0.1-0.7,0.1c-0.7,0-1.2-0.2-1.6-0.6
		c-0.4-0.4-0.6-1.1-0.6-1.9V97h-1.3v-1.4h1.3v-2.1H196.9L196.9,93.5z M208.7,104h-1.9v-9.6h-2.3V93l4.2-0.4V104z"/>
	<circle class="st5" cx="412" cy="181" r="58"/>
	<path class="st14" d="M284.8,8.2L284.8,8.2c0,1.2-0.3,2.1-1.1,2.9c-0.8,0.7-1.8,1.1-3.1,1.1c-1.3,0-2.4-0.4-3.2-1.3
		c-0.8-0.9-1.2-2-1.2-3.4V5.2c0-1.4,0.4-2.5,1.2-3.4c0.8-0.9,1.9-1.3,3.2-1.3c1.3,0,2.4,0.4,3.2,1.1c0.8,0.7,1.1,1.7,1.1,2.8l0,0
		h-1.8c0-0.8-0.2-1.4-0.6-1.8s-1-0.6-1.8-0.6c-0.8,0-1.4,0.3-1.8,0.9c-0.5,0.6-0.7,1.4-0.7,2.3v2.2c0,0.9,0.2,1.7,0.7,2.3
		c0.5,0.6,1.1,0.9,1.9,0.9c0.8,0,1.4-0.2,1.8-0.6c0.4-0.4,0.6-1,0.6-1.8L284.8,8.2L284.8,8.2z M286,7.7c0-1.3,0.3-2.3,1-3.1
		c0.7-0.8,1.6-1.2,2.8-1.2c1.2,0,2.2,0.4,2.9,1.2c0.7,0.8,1,1.8,1,3.1v0.2c0,1.3-0.3,2.3-1,3.1c-0.7,0.8-1.6,1.2-2.8,1.2
		c-1.2,0-2.2-0.4-2.9-1.2c-0.7-0.8-1-1.8-1-3.1L286,7.7L286,7.7z M287.9,7.9c0,0.8,0.2,1.5,0.5,2c0.3,0.5,0.8,0.8,1.5,0.8
		c0.7,0,1.2-0.3,1.5-0.8c0.3-0.5,0.5-1.2,0.5-2V7.7c0-0.8-0.2-1.5-0.5-2c-0.3-0.5-0.8-0.8-1.5-0.8c-0.7,0-1.2,0.3-1.5,0.8
		c-0.3,0.5-0.5,1.2-0.5,2V7.9z M300.7,10.8c-0.2,0.4-0.6,0.8-1,1c-0.4,0.2-0.9,0.4-1.4,0.4c-0.9,0-1.6-0.3-2.1-0.9s-0.8-1.5-0.8-2.7
		V3.5h1.9v5.1c0,0.7,0.1,1.3,0.4,1.6s0.6,0.4,1.1,0.4c0.5,0,0.8-0.1,1.2-0.2c0.3-0.2,0.6-0.4,0.7-0.7V3.5h1.9V12h-1.7L300.7,10.8
		L300.7,10.8z M306.2,3.5l0.1,1.2c0.3-0.4,0.6-0.8,1-1c0.4-0.2,0.9-0.4,1.4-0.4c0.9,0,1.6,0.3,2.1,0.8c0.5,0.5,0.7,1.4,0.7,2.5V12
		h-1.9V6.7c0-0.6-0.1-1.1-0.4-1.4c-0.3-0.3-0.7-0.4-1.2-0.4c-0.4,0-0.7,0.1-1,0.2c-0.3,0.2-0.5,0.4-0.7,0.7V12h-1.9V3.5L306.2,3.5
		L306.2,3.5z M315.9,1.5v2.1h1.5V5h-1.5v4.7c0,0.3,0.1,0.6,0.2,0.7c0.2,0.1,0.4,0.2,0.6,0.2c0.2,0,0.4,0,0.6-0.1l0.2,1.4
		c-0.2,0.1-0.4,0.2-0.6,0.2c-0.2,0.1-0.5,0.1-0.7,0.1c-0.7,0-1.2-0.2-1.6-0.6c-0.4-0.4-0.6-1.1-0.6-1.9V5h-1.3V3.5h1.3V1.5
		L315.9,1.5L315.9,1.5z M323.3,5.3l-0.8,0c-0.4,0-0.7,0.1-0.9,0.2c-0.3,0.2-0.5,0.4-0.6,0.7V12h-1.9V3.5h1.7l0.1,1.2
		c0.2-0.4,0.5-0.8,0.8-1c0.3-0.2,0.7-0.4,1.2-0.4c0.1,0,0.2,0,0.3,0c0.1,0,0.2,0,0.3,0.1C323.6,3.5,323.3,5.3,323.3,5.3z M327.5,8.6
		l0.2,0.8h0l1.9-5.9h2.1l-3.5,9.7c-0.2,0.6-0.5,1.1-0.9,1.5c-0.4,0.4-1,0.6-1.7,0.6c-0.2,0-0.3,0-0.5,0c-0.2,0-0.3-0.1-0.5-0.1
		l0.2-1.5l0.3,0c0.1,0,0.2,0,0.3,0c0.3,0,0.6-0.1,0.8-0.4c0.2-0.2,0.4-0.5,0.5-0.8l0.3-0.8l-3.1-8.4h2.1L327.5,8.6L327.5,8.6z"/>
	<g>
		<g transform="translate(378 164.195)">
			<defs>
				<filter id="Adobe_OpacityMaskFilter_3_" filterUnits="userSpaceOnUse" x="0" y="0.2" width="39.9" height="45.4">
					<feColorMatrix  type="matrix" values="1 0 0 0 0  0 1 0 0 0  0 0 1 0 0  0 0 0 1 0"/>
				</filter>
			</defs>
			<mask maskUnits="userSpaceOnUse" x="0" y="0.2" width="39.9" height="45.4" id="h_1_">
				<g class="st15">
					<path id="g_1_" class="st7" d="M0,0.2h39.9v45.4H0V0.2z"/>
				</g>
			</mask>
			<path class="st16" d="M29.3,22.4c2.4-2.4,3.8-5.7,3.8-9.1c0-7.2-5.9-13-13.2-13c-7.3,0-13.2,5.8-13.2,13c0,3.4,1.4,6.7,3.8,9.1
				C4.4,24.6,0,30.5,0,37.4v8.3h39.9v-8.3C39.9,30.5,35.5,24.6,29.3,22.4"/>
		</g>
		<path class="st7" d="M403.2,195.5c0,0.7-0.1,1.3-0.3,1.8l-3.7,7.9c-0.4,0.9-2,0.9-2.4,0l-3.8-7.9c-0.2-0.5-0.3-1.1-0.3-1.8
			c0-1.4,0.5-2.7,1.5-3.7c1-1,2.3-1.5,3.7-1.5c1.5,0,2.7,0.5,3.7,1.5C402.7,192.8,403.2,194,403.2,195.5 M399.8,197.3
			c0.5-0.5,0.8-1.1,0.8-1.8s-0.3-1.3-0.8-1.8c-0.5-0.5-1.2-0.8-1.9-0.8c-0.7,0-1.3,0.3-1.9,0.8c-0.5,0.5-0.8,1.2-0.8,1.8
			c0,0.7,0.3,1.3,0.8,1.8c0.5,0.5,1.1,0.8,1.9,0.8S399.3,197.8,399.8,197.3"/>
	</g>
	<g transform="translate(418 152)">
		<path class="st4" d="M2,0h24c1.1,0,2,0.9,2,2v30c0,1.1-0.9,2-2,2H2c-1.1,0-2-0.9-2-2V2C0,0.9,0.9,0,2,0z"/>
		<path class="st7" d="M17,21.3h-5.1l-1,3.1H8L13,10h3l5,14.5H18L17,21.3z M12.6,19.1h3.6l-1.8-5.7h-0.1L12.6,19.1z"/>
	</g>
	<path class="st14" d="M381.1,117v-11.4h3.7c1.4,0,2.6,0.4,3.5,1.4c0.9,0.9,1.4,2.1,1.4,3.5v1.7c0,1.4-0.5,2.6-1.4,3.5
		c-0.9,0.9-2.1,1.3-3.5,1.3C384.8,117,381.1,117,381.1,117z M383,107.1v8.3h1.7c0.9,0,1.7-0.3,2.2-0.9c0.5-0.6,0.8-1.4,0.8-2.4v-1.7
		c0-1-0.3-1.8-0.8-2.4c-0.5-0.6-1.3-0.9-2.2-0.9H383z M393.4,117h-1.9v-8.5h1.9V117z M393.4,106.5h-1.9v-1.7h1.9V106.5z
		 M400.3,114.7c0-0.3-0.1-0.5-0.4-0.7c-0.2-0.2-0.7-0.4-1.4-0.5c-1-0.2-1.8-0.5-2.3-0.9c-0.5-0.4-0.8-0.9-0.8-1.6
		c0-0.7,0.3-1.3,0.9-1.8c0.6-0.5,1.4-0.8,2.4-0.8c1,0,1.9,0.3,2.5,0.8c0.6,0.5,0.9,1.1,0.9,1.9l0,0h-1.8c0-0.3-0.1-0.7-0.4-0.9
		c-0.3-0.2-0.6-0.4-1.1-0.4c-0.5,0-0.8,0.1-1,0.3c-0.2,0.2-0.4,0.5-0.4,0.8c0,0.3,0.1,0.5,0.3,0.7c0.2,0.2,0.7,0.3,1.4,0.5
		c1.1,0.2,1.9,0.5,2.4,0.9c0.5,0.4,0.8,0.9,0.8,1.6c0,0.8-0.3,1.4-0.9,1.9c-0.6,0.5-1.5,0.7-2.5,0.7c-1.1,0-2-0.3-2.6-0.8
		c-0.6-0.6-0.9-1.2-0.9-1.9l0,0h1.8c0,0.5,0.2,0.8,0.5,1.1c0.3,0.2,0.7,0.3,1.2,0.3c0.5,0,0.9-0.1,1.1-0.3
		C400.1,115.3,400.3,115,400.3,114.7L400.3,114.7z M406.2,106.5v2.1h1.5v1.4h-1.5v4.7c0,0.3,0.1,0.6,0.2,0.7
		c0.1,0.1,0.4,0.2,0.6,0.2c0.2,0,0.4,0,0.6-0.1l0.2,1.4c-0.2,0.1-0.4,0.2-0.6,0.2c-0.2,0.1-0.5,0.1-0.7,0.1c-0.7,0-1.2-0.2-1.6-0.6
		c-0.4-0.4-0.6-1.1-0.6-1.9V110H403v-1.4h1.3v-2.1L406.2,106.5L406.2,106.5z M413.6,110.3l-0.8,0c-0.4,0-0.7,0.1-0.9,0.2
		c-0.3,0.2-0.5,0.4-0.6,0.7v5.9h-1.9v-8.5h1.7l0.1,1.2c0.2-0.4,0.5-0.8,0.8-1c0.3-0.2,0.7-0.4,1.2-0.4c0.1,0,0.2,0,0.3,0
		c0.1,0,0.2,0,0.3,0.1C413.8,108.5,413.6,110.3,413.6,110.3z M417,117h-1.9v-8.5h1.9C417,108.5,417,117,417,117z M417,106.5h-1.9
		v-1.7h1.9V106.5z M422.6,115.6c0.5,0,0.9-0.1,1.2-0.4c0.3-0.3,0.5-0.6,0.5-1h1.7l0,0c0,0.8-0.3,1.5-1,2c-0.7,0.6-1.5,0.9-2.4,0.9
		c-1.2,0-2.2-0.4-2.9-1.2c-0.7-0.8-1-1.8-1-3v-0.3c0-1.2,0.3-2.2,1-3c0.7-0.8,1.6-1.2,2.9-1.2c1,0,1.8,0.3,2.5,0.9
		c0.6,0.6,0.9,1.3,0.9,2.3l0,0h-1.7c0-0.5-0.2-0.9-0.5-1.2c-0.3-0.3-0.7-0.5-1.2-0.5c-0.7,0-1.2,0.3-1.5,0.8
		c-0.3,0.5-0.4,1.2-0.4,1.9v0.3c0,0.8,0.1,1.5,0.4,2C421.4,115.4,421.9,115.6,422.6,115.6L422.6,115.6z M429.9,106.5v2.1h1.5v1.4
		h-1.5v4.7c0,0.3,0.1,0.6,0.2,0.7c0.2,0.1,0.4,0.2,0.6,0.2c0.2,0,0.4,0,0.6-0.1l0.2,1.4c-0.2,0.1-0.4,0.2-0.6,0.2
		c-0.2,0.1-0.5,0.1-0.7,0.1c-0.7,0-1.2-0.2-1.6-0.6c-0.4-0.4-0.6-1.1-0.6-1.9V110h-1.3v-1.4h1.3v-2.1H429.9L429.9,106.5z M444.5,117
		h-7.6v-1.3l3.7-4c0.6-0.7,1-1.2,1.2-1.6c0.2-0.4,0.3-0.8,0.3-1.2c0-0.5-0.1-0.9-0.4-1.3s-0.7-0.5-1.2-0.5c-0.7,0-1.2,0.2-1.5,0.6
		s-0.5,0.9-0.5,1.5h-1.8l0,0c0-1,0.3-1.9,1-2.6c0.7-0.7,1.6-1,2.8-1c1.1,0,2,0.3,2.6,0.9c0.6,0.6,1,1.4,1,2.4c0,0.7-0.2,1.3-0.5,1.9
		c-0.4,0.6-0.9,1.3-1.7,2.2l-2.5,2.7l0,0h5.1V117z"/>
	<path class="st7" d="M415.1,234h-5.1l-1,3h-3l5-14h3l5,14h-3L415.1,234z M410.7,231.8h3.7l-1.8-5.5h-0.1L410.7,231.8z"/>
</g>
</svg>
